(module "SOT65P210X110-6N" (layer F.Cu)
  (descr "R-PDSO-G6_SC-70-6")
  (tags "Integrated Circuit")
  (attr smd)
  (fp_text reference IC** (at 0 0) (layer F.SilkS)
    (effects (font (size 1.27 1.27) (thickness 0.254)))
  )
  (fp_text user %R (at 0 0) (layer F.Fab)
    (effects (font (size 1.27 1.27) (thickness 0.254)))
  )
  (fp_text value "SOT65P210X110-6N" (at 0 0) (layer F.SilkS) hide
    (effects (font (size 1.27 1.27) (thickness 0.254)))
  )
  (fp_line (start -1.8 -1.325) (end 1.8 -1.325) (layer F.CrtYd) (width 0.05))
  (fp_line (start 1.8 -1.325) (end 1.8 1.325) (layer F.CrtYd) (width 0.05))
  (fp_line (start 1.8 1.325) (end -1.8 1.325) (layer F.CrtYd) (width 0.05))
  (fp_line (start -1.8 1.325) (end -1.8 -1.325) (layer F.CrtYd) (width 0.05))
  (fp_line (start -0.625 -1) (end 0.625 -1) (layer F.Fab) (width 0.1))
  (fp_line (start 0.625 -1) (end 0.625 1) (layer F.Fab) (width 0.1))
  (fp_line (start 0.625 1) (end -0.625 1) (layer F.Fab) (width 0.1))
  (fp_line (start -0.625 1) (end -0.625 -1) (layer F.Fab) (width 0.1))
  (fp_line (start -0.625 -0.35) (end 0.025 -1) (layer F.Fab) (width 0.1))
  (fp_line (start -1.55 -1.2) (end -0.35 -1.2) (layer F.SilkS) (width 0.2))
  (pad 1 smd rect (at -0.95 -0.65 90) (size 0.4 1.2) (layers F.Cu F.Paste F.Mask))
  (pad 2 smd rect (at -0.95 0 90) (size 0.4 1.2) (layers F.Cu F.Paste F.Mask))
  (pad 3 smd rect (at -0.95 0.65 90) (size 0.4 1.2) (layers F.Cu F.Paste F.Mask))
  (pad 4 smd rect (at 0.95 0.65 90) (size 0.4 1.2) (layers F.Cu F.Paste F.Mask))
  (pad 5 smd rect (at 0.95 0 90) (size 0.4 1.2) (layers F.Cu F.Paste F.Mask))
  (pad 6 smd rect (at 0.95 -0.65 90) (size 0.4 1.2) (layers F.Cu F.Paste F.Mask))
  (model INA199B1QDCKRQ1.stp
    (at (xyz 0 0 0))
    (scale (xyz 1 1 1))
    (rotate (xyz 0 0 0))
  )
)
