(module slug (layer F.Cu) (tedit 5ED0A3C3)
  (fp_text reference " " (at 1.27 -8.89) (layer F.SilkS) hide
    (effects (font (size 1.524 1.524) (thickness 0.3)))
  )
  (fp_text value " " (at 1.27 -6.35) (layer F.SilkS) hide
    (effects (font (size 1.524 1.524) (thickness 0.3)))
  )
  (fp_poly (pts (xy 2.627189 0.550915) (xy 2.68971 0.572212) (xy 2.745175 0.610981) (xy 2.787746 0.663471)
    (xy 2.807072 0.707433) (xy 2.816032 0.778314) (xy 2.801594 0.845679) (xy 2.765741 0.905105)
    (xy 2.71046 0.952171) (xy 2.692781 0.962025) (xy 2.630146 0.985352) (xy 2.571853 0.987077)
    (xy 2.50923 0.967408) (xy 2.507251 0.966516) (xy 2.447504 0.927578) (xy 2.406686 0.876676)
    (xy 2.384218 0.818107) (xy 2.379518 0.756168) (xy 2.392005 0.695159) (xy 2.421098 0.639377)
    (xy 2.466216 0.593119) (xy 2.526777 0.560683) (xy 2.56345 0.550843) (xy 2.627189 0.550915)) (layer F.Cu) (width 0.01))
  (fp_poly (pts (xy 2.011676 -0.811029) (xy 2.184526 -0.785857) (xy 2.355208 -0.745666) (xy 2.518055 -0.691716)
    (xy 2.6674 -0.625267) (xy 2.76225 -0.571117) (xy 2.801572 -0.54707) (xy 2.83845 -0.525774)
    (xy 2.879209 -0.498667) (xy 2.932692 -0.456351) (xy 2.994667 -0.402528) (xy 3.060904 -0.340901)
    (xy 3.127172 -0.275174) (xy 3.140375 -0.26153) (xy 3.222373 -0.164537) (xy 3.302966 -0.046858)
    (xy 3.379266 0.086834) (xy 3.448386 0.23187) (xy 3.455145 0.24765) (xy 3.510159 0.407122)
    (xy 3.546679 0.579694) (xy 3.564328 0.760661) (xy 3.56273 0.945323) (xy 3.541507 1.128974)
    (xy 3.530366 1.18745) (xy 3.47572 1.388559) (xy 3.397464 1.582579) (xy 3.295087 1.770615)
    (xy 3.181346 1.936372) (xy 3.158672 1.963314) (xy 3.122105 2.003279) (xy 3.076013 2.051633)
    (xy 3.024765 2.103747) (xy 3.00355 2.124856) (xy 2.936453 2.189258) (xy 2.877772 2.24043)
    (xy 2.819568 2.284575) (xy 2.7539 2.327896) (xy 2.707571 2.3561) (xy 2.547142 2.445286)
    (xy 2.394827 2.51579) (xy 2.244463 2.569938) (xy 2.089886 2.610058) (xy 1.9812 2.630199)
    (xy 1.89928 2.639667) (xy 1.801614 2.645418) (xy 1.697341 2.64736) (xy 1.595599 2.645402)
    (xy 1.505525 2.639453) (xy 1.470119 2.635294) (xy 1.299636 2.604417) (xy 1.139604 2.560093)
    (xy 0.983466 2.499955) (xy 0.824663 2.421635) (xy 0.731854 2.36879) (xy 0.700244 2.348665)
    (xy 0.678642 2.33244) (xy 0.674704 2.328365) (xy 0.659086 2.314111) (xy 0.632589 2.295433)
    (xy 0.632275 2.295233) (xy 0.593099 2.266268) (xy 0.543688 2.223922) (xy 0.489357 2.173404)
    (xy 0.435421 2.119925) (xy 0.387195 2.068695) (xy 0.349992 2.024923) (xy 0.334452 2.003277)
    (xy 0.310533 1.967187) (xy 0.278347 1.920917) (xy 0.245351 1.875156) (xy 0.20999 1.825424)
    (xy 0.181525 1.780245) (xy 0.156938 1.73347) (xy 0.133213 1.678954) (xy 0.107332 1.610549)
    (xy 0.086346 1.551192) (xy 0.050908 1.441847) (xy 0.025387 1.343159) (xy 0.007956 1.245499)
    (xy -0.003211 1.139234) (xy -0.008421 1.051479) (xy -0.006714 0.913759) (xy 0.069527 0.913759)
    (xy 0.071485 1.065799) (xy 0.087004 1.231166) (xy 0.101293 1.330285) (xy 0.123536 1.423387)
    (xy 0.161178 1.528675) (xy 0.211312 1.640721) (xy 0.271036 1.754099) (xy 0.337445 1.863382)
    (xy 0.407635 1.963144) (xy 0.4787 2.047956) (xy 0.493847 2.06375) (xy 0.54981 2.120073)
    (xy 0.593463 2.162517) (xy 0.630042 2.195567) (xy 0.664784 2.223709) (xy 0.702926 2.251428)
    (xy 0.749704 2.283211) (xy 0.751199 2.284209) (xy 0.924095 2.385687) (xy 1.105677 2.465658)
    (xy 1.292222 2.522636) (xy 1.406194 2.545361) (xy 1.502688 2.559929) (xy 1.581452 2.569377)
    (xy 1.649635 2.573718) (xy 1.714382 2.572964) (xy 1.782843 2.567127) (xy 1.862164 2.556219)
    (xy 1.92405 2.546229) (xy 2.062184 2.520891) (xy 2.181538 2.493301) (xy 2.288728 2.461163)
    (xy 2.390374 2.42218) (xy 2.493094 2.374055) (xy 2.603507 2.314492) (xy 2.621475 2.304238)
    (xy 2.769135 2.206937) (xy 2.911749 2.088667) (xy 3.044648 1.953854) (xy 3.16316 1.806925)
    (xy 3.196692 1.75895) (xy 3.287335 1.60491) (xy 3.362543 1.436867) (xy 3.420571 1.260473)
    (xy 3.459676 1.081383) (xy 3.478111 0.905251) (xy 3.479349 0.84292) (xy 3.471992 0.712967)
    (xy 3.452225 0.575356) (xy 3.421834 0.437999) (xy 3.382603 0.308807) (xy 3.336318 0.19569)
    (xy 3.330664 0.18415) (xy 3.277939 0.082424) (xy 3.22926 -0.001756) (xy 3.180021 -0.074729)
    (xy 3.125617 -0.142831) (xy 3.06144 -0.212398) (xy 2.9938 -0.279308) (xy 2.935326 -0.334545)
    (xy 2.887182 -0.377019) (xy 2.842184 -0.412364) (xy 2.793144 -0.446209) (xy 2.732877 -0.484187)
    (xy 2.7305 -0.485645) (xy 2.551967 -0.580826) (xy 2.36298 -0.654631) (xy 2.16725 -0.705996)
    (xy 1.968494 -0.73386) (xy 1.845314 -0.738867) (xy 1.743602 -0.737213) (xy 1.653834 -0.731083)
    (xy 1.567759 -0.719255) (xy 1.477127 -0.700508) (xy 1.373689 -0.673622) (xy 1.33985 -0.664052)
    (xy 1.173811 -0.608929) (xy 1.023933 -0.542244) (xy 0.882098 -0.459909) (xy 0.75565 -0.369843)
    (xy 0.709599 -0.331696) (xy 0.654862 -0.282209) (xy 0.596003 -0.225961) (xy 0.537589 -0.167532)
    (xy 0.484187 -0.111499) (xy 0.440362 -0.062442) (xy 0.410682 -0.024938) (xy 0.408519 -0.021777)
    (xy 0.379087 0.02232) (xy 0.347713 0.069539) (xy 0.340076 0.081073) (xy 0.306329 0.137301)
    (xy 0.267888 0.209559) (xy 0.228533 0.289932) (xy 0.192044 0.370506) (xy 0.162201 0.443366)
    (xy 0.148018 0.483267) (xy 0.107494 0.627926) (xy 0.08143 0.769612) (xy 0.069527 0.913759)
    (xy -0.006714 0.913759) (xy -0.005987 0.855204) (xy 0.01971 0.662545) (xy 0.069083 0.472167)
    (xy 0.142548 0.282734) (xy 0.240517 0.092911) (xy 0.335881 -0.058746) (xy 0.355501 -0.086252)
    (xy 0.378127 -0.114405) (xy 0.407424 -0.147288) (xy 0.447055 -0.188989) (xy 0.500686 -0.243592)
    (xy 0.511011 -0.254) (xy 0.597362 -0.338409) (xy 0.673314 -0.406585) (xy 0.743809 -0.462539)
    (xy 0.813789 -0.510282) (xy 0.8636 -0.540101) (xy 0.929673 -0.576245) (xy 1.002657 -0.613649)
    (xy 1.07779 -0.650131) (xy 1.150315 -0.683511) (xy 1.215472 -0.711607) (xy 1.268503 -0.732236)
    (xy 1.304647 -0.743218) (xy 1.3081 -0.743863) (xy 1.344087 -0.75131) (xy 1.392766 -0.763363)
    (xy 1.435228 -0.77504) (xy 1.48138 -0.78729) (xy 1.520685 -0.795763) (xy 1.543178 -0.798532)
    (xy 1.566804 -0.799752) (xy 1.60823 -0.803392) (xy 1.660045 -0.808774) (xy 1.682141 -0.811276)
    (xy 1.842325 -0.819922) (xy 2.011676 -0.811029)) (layer F.Cu) (width 0.01))
  (fp_poly (pts (xy 5.544878 -1.084826) (xy 5.579105 -1.071416) (xy 5.630189 -1.039415) (xy 5.69319 -0.990673)
    (xy 5.764613 -0.928643) (xy 5.840968 -0.856777) (xy 5.91876 -0.778527) (xy 5.994498 -0.697344)
    (xy 6.064688 -0.616681) (xy 6.125838 -0.53999) (xy 6.149472 -0.5077) (xy 6.229162 -0.385281)
    (xy 6.306336 -0.248402) (xy 6.375252 -0.107797) (xy 6.419358 -0.003025) (xy 6.489796 0.214095)
    (xy 6.537009 0.438687) (xy 6.560951 0.667825) (xy 6.561571 0.898585) (xy 6.538823 1.128041)
    (xy 6.492656 1.353269) (xy 6.444539 1.512182) (xy 6.356577 1.72788) (xy 6.245784 1.935124)
    (xy 6.113946 2.131731) (xy 5.962846 2.315516) (xy 5.794268 2.484296) (xy 5.609996 2.635888)
    (xy 5.424872 2.760274) (xy 5.357965 2.79775) (xy 5.304744 2.819562) (xy 5.259807 2.826796)
    (xy 5.21775 2.820542) (xy 5.186328 2.808351) (xy 5.149953 2.786796) (xy 5.126375 2.758047)
    (xy 5.111021 2.724009) (xy 5.097841 2.684929) (xy 5.094957 2.656137) (xy 5.101834 2.624949)
    (xy 5.106293 2.611568) (xy 5.120609 2.580059) (xy 5.142639 2.553257) (xy 5.178254 2.524993)
    (xy 5.207 2.50579) (xy 5.3399 2.417096) (xy 5.453578 2.334395) (xy 5.552352 2.254141)
    (xy 5.640541 2.172788) (xy 5.722461 2.086787) (xy 5.736818 2.070604) (xy 5.876064 1.893506)
    (xy 5.994238 1.703929) (xy 6.090315 1.503956) (xy 6.163272 1.29567) (xy 6.205762 1.116754)
    (xy 6.219397 1.01725) (xy 6.227105 0.901557) (xy 6.228967 0.777748) (xy 6.225063 0.653902)
    (xy 6.215475 0.538092) (xy 6.200281 0.438394) (xy 6.19892 0.4318) (xy 6.140672 0.213644)
    (xy 6.060368 0.007367) (xy 5.957707 -0.187522) (xy 5.832387 -0.371512) (xy 5.684107 -0.54509)
    (xy 5.512566 -0.708747) (xy 5.477071 -0.738968) (xy 5.422066 -0.786247) (xy 5.384339 -0.822938)
    (xy 5.360786 -0.853611) (xy 5.348304 -0.882835) (xy 5.34379 -0.91518) (xy 5.343572 -0.935543)
    (xy 5.355532 -0.995425) (xy 5.386323 -1.042994) (xy 5.431264 -1.07555) (xy 5.485676 -1.090394)
    (xy 5.544878 -1.084826)) (layer F.SilkS) (width 0.01))
  (fp_poly (pts (xy 6.230573 -1.795979) (xy 6.264905 -1.782446) (xy 6.304201 -1.75805) (xy 6.35751 -1.719002)
    (xy 6.420878 -1.668606) (xy 6.490353 -1.610164) (xy 6.561983 -1.546982) (xy 6.631815 -1.482362)
    (xy 6.680471 -1.4351) (xy 6.87703 -1.222112) (xy 7.05226 -0.995869) (xy 7.205696 -0.757188)
    (xy 7.336874 -0.506882) (xy 7.445327 -0.245767) (xy 7.530591 0.025343) (xy 7.543703 0.0762)
    (xy 7.568746 0.180583) (xy 7.58829 0.272844) (xy 7.60296 0.358714) (xy 7.613382 0.443922)
    (xy 7.62018 0.534197) (xy 7.623978 0.63527) (xy 7.625402 0.75287) (xy 7.625403 0.8255)
    (xy 7.624872 0.929622) (xy 7.623734 1.013325) (xy 7.621653 1.081587) (xy 7.618296 1.139386)
    (xy 7.613327 1.191702) (xy 7.606411 1.243514) (xy 7.597213 1.299799) (xy 7.591236 1.3335)
    (xy 7.527966 1.615207) (xy 7.441777 1.886163) (xy 7.332778 2.146094) (xy 7.201077 2.39473)
    (xy 7.106092 2.546055) (xy 7.030537 2.655987) (xy 6.958774 2.752771) (xy 6.885257 2.843133)
    (xy 6.804438 2.9338) (xy 6.71077 3.031496) (xy 6.680834 3.061679) (xy 6.535545 3.200412)
    (xy 6.391555 3.323032) (xy 6.240081 3.436738) (xy 6.139827 3.505078) (xy 6.056448 3.559028)
    (xy 5.990008 3.599361) (xy 5.937147 3.627729) (xy 5.894504 3.645785) (xy 5.858721 3.655181)
    (xy 5.829722 3.6576) (xy 5.795436 3.654323) (xy 5.766965 3.641276) (xy 5.734618 3.613634)
    (xy 5.7277 3.6068) (xy 5.69645 3.571875) (xy 5.681106 3.542539) (xy 5.676922 3.50959)
    (xy 5.676919 3.508375) (xy 5.68096 3.463235) (xy 5.695099 3.424419) (xy 5.722422 3.388149)
    (xy 5.766014 3.350648) (xy 5.828963 3.308141) (xy 5.852361 3.293679) (xy 6.071709 3.146804)
    (xy 6.279635 2.981129) (xy 6.472924 2.799695) (xy 6.648361 2.605545) (xy 6.802732 2.40172)
    (xy 6.816666 2.38125) (xy 6.956656 2.151031) (xy 7.073666 1.910191) (xy 7.167414 1.659503)
    (xy 7.23762 1.399741) (xy 7.284004 1.131678) (xy 7.290826 1.07315) (xy 7.297441 0.979748)
    (xy 7.299891 0.869201) (xy 7.29841 0.749378) (xy 7.293231 0.628149) (xy 7.284587 0.513386)
    (xy 7.272713 0.412958) (xy 7.270879 0.400948) (xy 7.217179 0.141536) (xy 7.139132 -0.112033)
    (xy 7.037427 -0.358219) (xy 6.91275 -0.59548) (xy 6.765788 -0.822274) (xy 6.667758 -0.951987)
    (xy 6.616174 -1.012618) (xy 6.549922 -1.084581) (xy 6.473904 -1.163017) (xy 6.393025 -1.243068)
    (xy 6.312187 -1.319878) (xy 6.236293 -1.388586) (xy 6.173385 -1.441814) (xy 6.11462 -1.490846)
    (xy 6.073866 -1.52986) (xy 6.048101 -1.563083) (xy 6.034303 -1.594738) (xy 6.029452 -1.629051)
    (xy 6.02932 -1.643286) (xy 6.041276 -1.704305) (xy 6.072035 -1.752834) (xy 6.116941 -1.786123)
    (xy 6.171339 -1.801421) (xy 6.230573 -1.795979)) (layer F.SilkS) (width 0.01))
  (fp_poly (pts (xy 2.936081 -4.64094) (xy 3.006498 -4.616937) (xy 3.07289 -4.572857) (xy 3.090269 -4.557968)
    (xy 3.13569 -4.5134) (xy 3.167274 -4.470288) (xy 3.187047 -4.422769) (xy 3.197032 -4.364978)
    (xy 3.199254 -4.291052) (xy 3.198069 -4.245746) (xy 3.191543 -4.156059) (xy 3.17819 -4.085339)
    (xy 3.155866 -4.027584) (xy 3.12243 -3.976798) (xy 3.08872 -3.939621) (xy 3.049375 -3.907153)
    (xy 3.002966 -3.883573) (xy 2.944903 -3.867589) (xy 2.870595 -3.857908) (xy 2.782698 -3.853422)
    (xy 2.72279 -3.850933) (xy 2.679818 -3.844701) (xy 2.648743 -3.830881) (xy 2.62453 -3.805632)
    (xy 2.602143 -3.76511) (xy 2.576546 -3.705471) (xy 2.570986 -3.691864) (xy 2.529635 -3.578757)
    (xy 2.496775 -3.461269) (xy 2.470985 -3.333129) (xy 2.450842 -3.188066) (xy 2.445575 -3.139205)
    (xy 2.437577 -3.053026) (xy 2.432664 -2.976888) (xy 2.431185 -2.906192) (xy 2.43349 -2.836342)
    (xy 2.439929 -2.762739) (xy 2.450852 -2.680785) (xy 2.46661 -2.585884) (xy 2.487552 -2.473437)
    (xy 2.50183 -2.4003) (xy 2.522962 -2.293058) (xy 2.546335 -2.174207) (xy 2.570244 -2.052425)
    (xy 2.592988 -1.936387) (xy 2.612862 -1.834771) (xy 2.616507 -1.8161) (xy 2.633179 -1.733834)
    (xy 2.649673 -1.658165) (xy 2.664977 -1.593319) (xy 2.678078 -1.543517) (xy 2.687964 -1.512983)
    (xy 2.690498 -1.507593) (xy 2.712828 -1.482029) (xy 2.749133 -1.463135) (xy 2.781177 -1.45306)
    (xy 2.866262 -1.428801) (xy 2.935468 -1.405961) (xy 2.997809 -1.380904) (xy 3.062299 -1.349995)
    (xy 3.137952 -1.309601) (xy 3.140677 -1.3081) (xy 3.209993 -1.268044) (xy 3.283799 -1.222319)
    (xy 3.352642 -1.176938) (xy 3.401027 -1.142501) (xy 3.453671 -1.10106) (xy 3.496678 -1.061791)
    (xy 3.536262 -1.018064) (xy 3.578642 -0.96325) (xy 3.609426 -0.920251) (xy 3.702211 -0.780783)
    (xy 3.797735 -0.623488) (xy 3.892384 -0.455133) (xy 3.982544 -0.282483) (xy 4.064602 -0.112304)
    (xy 4.134943 0.048637) (xy 4.158617 0.10795) (xy 4.174882 0.14989) (xy 4.188199 0.185166)
    (xy 4.19913 0.216964) (xy 4.208235 0.248475) (xy 4.216077 0.282887) (xy 4.223216 0.32339)
    (xy 4.230214 0.373174) (xy 4.237632 0.435426) (xy 4.246032 0.513337) (xy 4.255975 0.610096)
    (xy 4.268023 0.728892) (xy 4.26816 0.73025) (xy 4.279494 0.842989) (xy 4.288371 0.935976)
    (xy 4.295016 1.014718) (xy 4.299652 1.084722) (xy 4.3025 1.151494) (xy 4.303786 1.22054)
    (xy 4.303731 1.297368) (xy 4.302558 1.387484) (xy 4.300492 1.496395) (xy 4.300058 1.51765)
    (xy 4.297127 1.63527) (xy 4.293057 1.762632) (xy 4.288136 1.892545) (xy 4.282657 2.017816)
    (xy 4.27691 2.131256) (xy 4.271823 2.21615) (xy 4.259648 2.448352) (xy 4.255432 2.658648)
    (xy 4.259246 2.849275) (xy 4.271162 3.022472) (xy 4.291251 3.180476) (xy 4.304985 3.25755)
    (xy 4.326858 3.366227) (xy 4.350155 3.477781) (xy 4.374073 3.58872) (xy 4.397813 3.695551)
    (xy 4.420574 3.794783) (xy 4.441556 3.882924) (xy 4.459959 3.956483) (xy 4.474982 4.011966)
    (xy 4.485468 4.04495) (xy 4.532802 4.162306) (xy 4.59048 4.292565) (xy 4.654627 4.427583)
    (xy 4.721368 4.559215) (xy 4.786829 4.679316) (xy 4.789195 4.683466) (xy 4.857939 4.805723)
    (xy 4.914133 4.910448) (xy 4.959304 5.001255) (xy 4.994977 5.081753) (xy 5.022678 5.155555)
    (xy 5.043934 5.226273) (xy 5.060271 5.297518) (xy 5.068915 5.345459) (xy 5.08371 5.464824)
    (xy 5.090861 5.591641) (xy 5.090703 5.720816) (xy 5.083572 5.847254) (xy 5.069802 5.965857)
    (xy 5.049727 6.071532) (xy 5.023682 6.159182) (xy 5.013896 6.183145) (xy 4.997888 6.212502)
    (xy 4.972697 6.247709) (xy 4.936141 6.291307) (xy 4.886038 6.345839) (xy 4.820207 6.413846)
    (xy 4.7879 6.446478) (xy 4.712066 6.521715) (xy 4.649401 6.580918) (xy 4.595948 6.626811)
    (xy 4.54775 6.662119) (xy 4.500851 6.689566) (xy 4.451296 6.711876) (xy 4.395126 6.731776)
    (xy 4.3561 6.743842) (xy 4.30433 6.757865) (xy 4.259904 6.765414) (xy 4.212538 6.767458)
    (xy 4.151951 6.764966) (xy 4.1402 6.764202) (xy 4.025924 6.752539) (xy 3.928282 6.732459)
    (xy 3.84002 6.701176) (xy 3.753883 6.655904) (xy 3.66262 6.593859) (xy 3.62785 6.567452)
    (xy 3.57265 6.525823) (xy 3.532435 6.498922) (xy 3.503175 6.484637) (xy 3.48084 6.480856)
    (xy 3.467269 6.483296) (xy 3.45539 6.487925) (xy 3.446412 6.49587) (xy 3.4389 6.511367)
    (xy 3.431417 6.538651) (xy 3.422527 6.581957) (xy 3.410793 6.645522) (xy 3.40911 6.6548)
    (xy 3.390957 6.734023) (xy 3.366301 6.813623) (xy 3.3436 6.8707) (xy 3.318928 6.926012)
    (xy 3.294898 6.982293) (xy 3.276409 7.028045) (xy 3.275291 7.030972) (xy 3.240605 7.093602)
    (xy 3.184425 7.159232) (xy 3.11 7.225123) (xy 3.02058 7.288536) (xy 2.919412 7.346734)
    (xy 2.874423 7.368859) (xy 2.820827 7.390983) (xy 2.770166 7.403867) (xy 2.710172 7.410324)
    (xy 2.688711 7.41142) (xy 2.632707 7.412073) (xy 2.580252 7.409724) (xy 2.541423 7.404874)
    (xy 2.537118 7.403892) (xy 2.433297 7.367213) (xy 2.323988 7.309422) (xy 2.212849 7.233103)
    (xy 2.103536 7.140839) (xy 1.999707 7.035215) (xy 1.974503 7.006401) (xy 1.935674 6.956207)
    (xy 1.898417 6.897495) (xy 1.861009 6.826824) (xy 1.821722 6.740757) (xy 1.77883 6.635855)
    (xy 1.747487 6.554039) (xy 1.714098 6.472262) (xy 1.675764 6.39009) (xy 1.635247 6.312562)
    (xy 1.595308 6.244715) (xy 1.558708 6.191586) (xy 1.532679 6.162123) (xy 1.485311 6.127147)
    (xy 1.42216 6.092313) (xy 1.352501 6.061926) (xy 1.285609 6.040291) (xy 1.2573 6.034295)
    (xy 1.16387 6.020153) (xy 1.089481 6.012037) (xy 1.028483 6.010014) (xy 0.975224 6.014154)
    (xy 0.924054 6.024525) (xy 0.876057 6.03893) (xy 0.752109 6.088908) (xy 0.641723 6.152805)
    (xy 0.542069 6.23312) (xy 0.45032 6.33235) (xy 0.363644 6.452995) (xy 0.313476 6.53569)
    (xy 0.256991 6.63299) (xy 0.209306 6.711968) (xy 0.167411 6.776788) (xy 0.128293 6.831612)
    (xy 0.088939 6.880604) (xy 0.046337 6.927928) (xy -0.002526 6.977746) (xy -0.015889 6.990898)
    (xy -0.091706 7.061639) (xy -0.161812 7.118123) (xy -0.232802 7.164307) (xy -0.311272 7.20415)
    (xy -0.403818 7.241609) (xy -0.47625 7.267095) (xy -0.536288 7.286844) (xy -0.585874 7.301281)
    (xy -0.631845 7.311628) (xy -0.68104 7.319106) (xy -0.740297 7.324937) (xy -0.816454 7.330341)
    (xy -0.837971 7.331709) (xy -0.920318 7.336481) (xy -0.983496 7.338876) (xy -1.033639 7.338713)
    (xy -1.076882 7.33581) (xy -1.11936 7.329985) (xy -1.161821 7.322132) (xy -1.303707 7.285419)
    (xy -1.441426 7.23348) (xy -1.568592 7.169204) (xy -1.678819 7.095483) (xy -1.699666 7.078697)
    (xy -1.74424 7.036636) (xy -1.792417 6.983277) (xy -1.8394 6.924805) (xy -1.880394 6.867402)
    (xy -1.9106 6.817248) (xy -1.921894 6.792267) (xy -1.93124 6.756835) (xy -1.941104 6.70395)
    (xy -1.950154 6.641496) (xy -1.955686 6.592284) (xy -1.962939 6.525375) (xy -1.970466 6.477667)
    (xy -1.979789 6.442993) (xy -1.992435 6.415184) (xy -2.004057 6.396531) (xy -2.033655 6.358427)
    (xy -2.066196 6.330676) (xy -2.10618 6.31176) (xy -2.158106 6.300163) (xy -2.226472 6.294366)
    (xy -2.3114 6.29285) (xy -2.48285 6.29285) (xy -2.6543 6.354164) (xy -2.756038 6.390472)
    (xy -2.837764 6.419142) (xy -2.903386 6.441079) (xy -2.956812 6.457185) (xy -3.001951 6.468365)
    (xy -3.042711 6.475524) (xy -3.083 6.479566) (xy -3.126727 6.481394) (xy -3.177799 6.481913)
    (xy -3.20675 6.481963) (xy -3.277987 6.481813) (xy -3.329745 6.480567) (xy -3.367942 6.477339)
    (xy -3.3985 6.471239) (xy -3.427336 6.46138) (xy -3.460371 6.446875) (xy -3.46979 6.442506)
    (xy -3.571354 6.387693) (xy -3.652975 6.325363) (xy -3.71999 6.250464) (xy -3.777737 6.15794)
    (xy -3.785056 6.143936) (xy -3.839337 6.022665) (xy -3.882847 5.893873) (xy -3.914059 5.764021)
    (xy -3.931448 5.639567) (xy -3.933105 5.548027) (xy -3.812552 5.548027) (xy -3.808265 5.705336)
    (xy -3.77902 5.858473) (xy -3.764738 5.9055) (xy -3.728236 5.99857) (xy -3.682758 6.08767)
    (xy -3.631392 6.168273) (xy -3.577222 6.235851) (xy -3.523336 6.285879) (xy -3.491806 6.305902)
    (xy -3.37309 6.352128) (xy -3.245846 6.375987) (xy -3.113988 6.377255) (xy -2.981428 6.355709)
    (xy -2.92229 6.33841) (xy -2.864056 6.317491) (xy -2.808534 6.295124) (xy -2.764581 6.274966)
    (xy -2.751304 6.267806) (xy -2.713334 6.250023) (xy -2.66054 6.230924) (xy -2.603023 6.214082)
    (xy -2.590754 6.211037) (xy -2.452408 6.185119) (xy -2.323553 6.175096) (xy -2.206051 6.180486)
    (xy -2.101763 6.200805) (xy -2.01255 6.235569) (xy -1.940273 6.284295) (xy -1.886793 6.3465)
    (xy -1.860459 6.4008) (xy -1.851454 6.43654) (xy -1.842409 6.490047) (xy -1.834448 6.553713)
    (xy -1.829247 6.611909) (xy -1.82261 6.688363) (xy -1.814611 6.744923) (xy -1.804233 6.787091)
    (xy -1.790881 6.819547) (xy -1.759245 6.870335) (xy -1.717711 6.921886) (xy -1.672798 6.967125)
    (xy -1.631025 6.99898) (xy -1.62005 7.004883) (xy -1.586901 7.022149) (xy -1.544289 7.046542)
    (xy -1.518186 7.062391) (xy -1.379854 7.133746) (xy -1.226782 7.184453) (xy -1.058936 7.214523)
    (xy -0.957846 7.222378) (xy -0.777992 7.219246) (xy -0.608953 7.193754) (xy -0.45157 7.146343)
    (xy -0.306682 7.077455) (xy -0.175133 6.987529) (xy -0.057762 6.877006) (xy 0.044589 6.746327)
    (xy 0.08983 6.673634) (xy 0.118395 6.622406) (xy 0.147022 6.568567) (xy 0.164399 6.53415)
    (xy 0.221484 6.432472) (xy 0.294396 6.326667) (xy 0.376801 6.225012) (xy 0.462363 6.135786)
    (xy 0.485397 6.114712) (xy 0.585756 6.035707) (xy 0.686711 5.977643) (xy 0.795363 5.936904)
    (xy 0.870721 5.918555) (xy 1.019258 5.89764) (xy 1.161472 5.895536) (xy 1.294571 5.91178)
    (xy 1.415762 5.945906) (xy 1.522253 5.997449) (xy 1.577658 6.036324) (xy 1.616265 6.077757)
    (xy 1.657719 6.141123) (xy 1.700387 6.223352) (xy 1.742638 6.321375) (xy 1.773385 6.404319)
    (xy 1.852814 6.597214) (xy 1.953558 6.782461) (xy 2.029291 6.8961) (xy 2.116874 7.00949)
    (xy 2.20142 7.101327) (xy 2.286555 7.174568) (xy 2.375904 7.232171) (xy 2.473091 7.277093)
    (xy 2.5146 7.292049) (xy 2.599704 7.309872) (xy 2.694879 7.312132) (xy 2.790576 7.299397)
    (xy 2.877243 7.272231) (xy 2.881626 7.270299) (xy 2.924951 7.247985) (xy 2.965246 7.219872)
    (xy 3.008577 7.181105) (xy 3.061009 7.126834) (xy 3.061117 7.126716) (xy 3.149593 7.016651)
    (xy 3.219379 6.896553) (xy 3.271221 6.764213) (xy 3.305863 6.617419) (xy 3.324049 6.45396)
    (xy 3.3274 6.335878) (xy 3.3274 6.185383) (xy 3.361567 6.176808) (xy 3.390648 6.175195)
    (xy 3.411385 6.192347) (xy 3.415542 6.19836) (xy 3.454204 6.250244) (xy 3.505913 6.310279)
    (xy 3.563661 6.371031) (xy 3.620441 6.425065) (xy 3.661342 6.459129) (xy 3.753899 6.519933)
    (xy 3.857537 6.572375) (xy 3.965552 6.613948) (xy 4.071241 6.642146) (xy 4.167898 6.654462)
    (xy 4.184693 6.6548) (xy 4.265015 6.644985) (xy 4.355269 6.617384) (xy 4.450456 6.574755)
    (xy 4.545576 6.519861) (xy 4.63563 6.455461) (xy 4.71562 6.384318) (xy 4.757734 6.338313)
    (xy 4.831188 6.234864) (xy 4.892244 6.118064) (xy 4.934619 6.00075) (xy 4.946492 5.940963)
    (xy 4.955418 5.862194) (xy 4.961266 5.770704) (xy 4.963908 5.672756) (xy 4.963212 5.574609)
    (xy 4.959049 5.482525) (xy 4.951289 5.402766) (xy 4.947549 5.378037) (xy 4.912856 5.229895)
    (xy 4.861036 5.084983) (xy 4.795334 4.95176) (xy 4.764952 4.9022) (xy 4.731064 4.84726)
    (xy 4.690346 4.776234) (xy 4.645594 4.694507) (xy 4.599606 4.607465) (xy 4.555176 4.520494)
    (xy 4.515102 4.438981) (xy 4.482179 4.368312) (xy 4.459205 4.313874) (xy 4.458358 4.31165)
    (xy 4.394987 4.137922) (xy 4.341694 3.977212) (xy 4.295876 3.820534) (xy 4.254928 3.658899)
    (xy 4.216245 3.48332) (xy 4.21124 3.458969) (xy 4.183634 3.312913) (xy 4.162261 3.173567)
    (xy 4.146698 3.035404) (xy 4.136525 2.892897) (xy 4.13132 2.740517) (xy 4.130662 2.572737)
    (xy 4.132931 2.43205) (xy 4.135556 2.333091) (xy 4.138724 2.238252) (xy 4.142247 2.151707)
    (xy 4.145934 2.077627) (xy 4.149597 2.020183) (xy 4.153047 1.983549) (xy 4.153372 1.9812)
    (xy 4.156309 1.949682) (xy 4.159414 1.89619) (xy 4.162567 1.824145) (xy 4.165648 1.736971)
    (xy 4.168535 1.638091) (xy 4.171108 1.530927) (xy 4.173246 1.418904) (xy 4.173293 1.41605)
    (xy 4.175307 1.280754) (xy 4.176448 1.167124) (xy 4.176647 1.071438) (xy 4.175832 0.989975)
    (xy 4.173935 0.919013) (xy 4.170886 0.85483) (xy 4.166613 0.793705) (xy 4.161047 0.731916)
    (xy 4.160271 0.724099) (xy 4.143402 0.580781) (xy 4.122724 0.447085) (xy 4.099012 0.32691)
    (xy 4.073039 0.224156) (xy 4.045577 0.142722) (xy 4.044351 0.1397) (xy 4.011174 0.063646)
    (xy 3.967473 -0.029017) (xy 3.915904 -0.133186) (xy 3.859122 -0.243758) (xy 3.799785 -0.355628)
    (xy 3.740546 -0.463694) (xy 3.684062 -0.562853) (xy 3.642348 -0.63282) (xy 3.602604 -0.693861)
    (xy 3.554786 -0.761287) (xy 3.502917 -0.829978) (xy 3.451026 -0.894817) (xy 3.403139 -0.950685)
    (xy 3.363282 -0.992464) (xy 3.349906 -1.004577) (xy 3.310782 -1.0353) (xy 3.256275 -1.075135)
    (xy 3.192596 -1.119817) (xy 3.125953 -1.165079) (xy 3.062558 -1.206658) (xy 3.00862 -1.240288)
    (xy 2.995189 -1.248202) (xy 2.956153 -1.268284) (xy 2.90645 -1.290444) (xy 2.853009 -1.311998)
    (xy 2.802759 -1.330266) (xy 2.762627 -1.342565) (xy 2.741663 -1.346325) (xy 2.721143 -1.351487)
    (xy 2.686544 -1.364679) (xy 2.657363 -1.377542) (xy 2.607657 -1.406265) (xy 2.580264 -1.436501)
    (xy 2.576735 -1.444093) (xy 2.570642 -1.466964) (xy 2.561512 -1.510651) (xy 2.550146 -1.57086)
    (xy 2.537345 -1.643298) (xy 2.52391 -1.723673) (xy 2.519837 -1.74893) (xy 2.496675 -1.88954)
    (xy 2.475195 -2.010044) (xy 2.454342 -2.11559) (xy 2.43306 -2.211325) (xy 2.410293 -2.302394)
    (xy 2.394008 -2.3622) (xy 2.361256 -2.510569) (xy 2.340519 -2.675601) (xy 2.331908 -2.85152)
    (xy 2.335536 -3.032551) (xy 2.351514 -3.212918) (xy 2.374668 -3.36024) (xy 2.393004 -3.440811)
    (xy 2.417971 -3.529324) (xy 2.447519 -3.62012) (xy 2.479596 -3.707541) (xy 2.512151 -3.785931)
    (xy 2.543134 -3.849631) (xy 2.565303 -3.886065) (xy 2.603746 -3.920074) (xy 2.663351 -3.946197)
    (xy 2.74079 -3.963296) (xy 2.809147 -3.969538) (xy 2.900833 -3.98154) (xy 2.973958 -4.009657)
    (xy 3.030814 -4.0555) (xy 3.073692 -4.120683) (xy 3.093637 -4.16967) (xy 3.106499 -4.243954)
    (xy 3.096643 -4.316792) (xy 3.06639 -4.383212) (xy 3.018057 -4.438243) (xy 2.953962 -4.476912)
    (xy 2.94955 -4.478648) (xy 2.864057 -4.500799) (xy 2.786988 -4.499018) (xy 2.718887 -4.473518)
    (xy 2.660297 -4.424513) (xy 2.611763 -4.352215) (xy 2.607758 -4.344273) (xy 2.584087 -4.300399)
    (xy 2.560667 -4.263898) (xy 2.54257 -4.242673) (xy 2.510489 -4.206539) (xy 2.493674 -4.165353)
    (xy 2.493819 -4.135843) (xy 2.492577 -4.117) (xy 2.479259 -4.090766) (xy 2.451615 -4.053525)
    (xy 2.417519 -4.0132) (xy 2.365239 -3.948964) (xy 2.305402 -3.868408) (xy 2.242194 -3.777739)
    (xy 2.179799 -3.68316) (xy 2.122403 -3.590878) (xy 2.07419 -3.507096) (xy 2.066334 -3.4925)
    (xy 1.996455 -3.335672) (xy 1.944999 -3.164565) (xy 1.912944 -2.983367) (xy 1.901272 -2.796264)
    (xy 1.901242 -2.78765) (xy 1.901699 -2.73047) (xy 1.903625 -2.679502) (xy 1.907675 -2.629651)
    (xy 1.914505 -2.575821) (xy 1.924772 -2.512915) (xy 1.939131 -2.435837) (xy 1.958237 -2.33949)
    (xy 1.960136 -2.330079) (xy 1.992476 -2.163799) (xy 2.018501 -2.01681) (xy 2.038036 -1.890282)
    (xy 2.050907 -1.785385) (xy 2.056937 -1.703288) (xy 2.0574 -1.679406) (xy 2.05526 -1.635653)
    (xy 2.046273 -1.606246) (xy 2.026586 -1.580306) (xy 2.019853 -1.5734) (xy 2.005921 -1.559848)
    (xy 1.992596 -1.550021) (xy 1.976217 -1.543793) (xy 1.953121 -1.541038) (xy 1.919646 -1.541629)
    (xy 1.872131 -1.545442) (xy 1.806915 -1.55235) (xy 1.720334 -1.562227) (xy 1.7145 -1.562897)
    (xy 1.599887 -1.573967) (xy 1.471175 -1.582894) (xy 1.338042 -1.589224) (xy 1.210163 -1.592501)
    (xy 1.097216 -1.592271) (xy 1.0922 -1.59216) (xy 1.026469 -1.589794) (xy 0.948325 -1.585628)
    (xy 0.862379 -1.580048) (xy 0.773247 -1.57344) (xy 0.68554 -1.566187) (xy 0.603872 -1.558677)
    (xy 0.532858 -1.551293) (xy 0.477109 -1.544422) (xy 0.441239 -1.538448) (xy 0.437075 -1.537452)
    (xy 0.395339 -1.534414) (xy 0.358681 -1.550825) (xy 0.322623 -1.589068) (xy 0.312073 -1.603939)
    (xy 0.284789 -1.66232) (xy 0.2794 -1.706347) (xy 0.282259 -1.763338) (xy 0.290502 -1.841618)
    (xy 0.303622 -1.937766) (xy 0.321112 -2.048364) (xy 0.342468 -2.169992) (xy 0.366813 -2.297364)
    (xy 0.38641 -2.396041) (xy 0.401682 -2.473869) (xy 0.413169 -2.534932) (xy 0.421411 -2.58331)
    (xy 0.42695 -2.623085) (xy 0.430324 -2.65834) (xy 0.432076 -2.693156) (xy 0.432743 -2.731615)
    (xy 0.432868 -2.777799) (xy 0.432884 -2.796508) (xy 0.422042 -2.98311) (xy 0.389734 -3.164636)
    (xy 0.336943 -3.336731) (xy 0.282884 -3.460219) (xy 0.236516 -3.546275) (xy 0.180423 -3.640574)
    (xy 0.118022 -3.738131) (xy 0.052731 -3.833962) (xy -0.012034 -3.923082) (xy -0.072854 -4.000507)
    (xy -0.126313 -4.061253) (xy -0.135863 -4.071004) (xy -0.187359 -4.138714) (xy -0.226414 -4.225255)
    (xy -0.240092 -4.272294) (xy -0.265887 -4.352265) (xy -0.300668 -4.412041) (xy -0.347804 -4.4562)
    (xy -0.395001 -4.482603) (xy -0.473806 -4.505452) (xy -0.552194 -4.503542) (xy -0.62719 -4.477383)
    (xy -0.691372 -4.431662) (xy -0.742068 -4.369364) (xy -0.769151 -4.299118) (xy -0.772113 -4.223528)
    (xy -0.750447 -4.145194) (xy -0.748233 -4.1402) (xy -0.711121 -4.075044) (xy -0.664664 -4.026892)
    (xy -0.6049 -3.993316) (xy -0.527867 -3.971887) (xy -0.458389 -3.962512) (xy -0.371414 -3.950388)
    (xy -0.304879 -3.930973) (xy -0.254312 -3.901936) (xy -0.215241 -3.860942) (xy -0.192198 -3.823621)
    (xy -0.161738 -3.758605) (xy -0.12918 -3.676269) (xy -0.097125 -3.584257) (xy -0.068179 -3.490209)
    (xy -0.044946 -3.401767) (xy -0.038349 -3.372135) (xy -0.010806 -3.202454) (xy 0.003874 -3.022655)
    (xy 0.005872 -2.839063) (xy -0.004634 -2.658004) (xy -0.027464 -2.485801) (xy -0.06244 -2.328779)
    (xy -0.068478 -2.307751) (xy -0.088344 -2.237263) (xy -0.106185 -2.165688) (xy -0.123073 -2.087861)
    (xy -0.140076 -1.998613) (xy -0.158268 -1.89278) (xy -0.171697 -1.80975) (xy -0.184308 -1.736419)
    (xy -0.197839 -1.668011) (xy -0.211029 -1.610245) (xy -0.222619 -1.568839) (xy -0.227748 -1.555338)
    (xy -0.246989 -1.508396) (xy -0.263548 -1.459178) (xy -0.265633 -1.451765) (xy -0.282012 -1.406226)
    (xy -0.306023 -1.373264) (xy -0.343163 -1.347989) (xy -0.398927 -1.325516) (xy -0.41275 -1.320943)
    (xy -0.508476 -1.286661) (xy -0.619327 -1.241445) (xy -0.739213 -1.188225) (xy -0.862045 -1.12993)
    (xy -0.981734 -1.069493) (xy -1.092189 -1.009843) (xy -1.187322 -0.953909) (xy -1.223143 -0.930976)
    (xy -1.308175 -0.868684) (xy -1.402254 -0.789398) (xy -1.50088 -0.69761) (xy -1.599555 -0.597811)
    (xy -1.693776 -0.494494) (xy -1.779045 -0.39215) (xy -1.829018 -0.326234) (xy -1.858458 -0.285959)
    (xy -1.886277 -0.248555) (xy -1.899631 -0.230984) (xy -1.929903 -0.187795) (xy -1.968186 -0.127115)
    (xy -2.011401 -0.054306) (xy -2.056469 0.025272) (xy -2.100313 0.106259) (xy -2.139852 0.183294)
    (xy -2.15291 0.210006) (xy -2.262384 0.461005) (xy -2.35832 0.729272) (xy -2.439231 1.009713)
    (xy -2.50363 1.297236) (xy -2.545959 1.55575) (xy -2.567131 1.739654) (xy -2.583396 1.937597)
    (xy -2.594587 2.143304) (xy -2.600539 2.350503) (xy -2.601084 2.552919) (xy -2.596057 2.744279)
    (xy -2.585291 2.918309) (xy -2.582815 2.9464) (xy -2.575506 3.026907) (xy -2.568185 3.110232)
    (xy -2.561594 3.187758) (xy -2.556475 3.250866) (xy -2.555473 3.2639) (xy -2.552274 3.424625)
    (xy -2.568888 3.574174) (xy -2.60645 3.718582) (xy -2.666095 3.863887) (xy -2.669706 3.871343)
    (xy -2.70023 3.931469) (xy -2.728083 3.978717) (xy -2.758708 4.02052) (xy -2.797545 4.064312)
    (xy -2.849569 4.117065) (xy -2.898521 4.163369) (xy -2.946316 4.20495) (xy -2.987497 4.237277)
    (xy -3.016609 4.255821) (xy -3.016766 4.255895) (xy -3.048925 4.276744) (xy -3.093908 4.313683)
    (xy -3.148304 4.363266) (xy -3.208705 4.422049) (xy -3.271701 4.486584) (xy -3.333883 4.553427)
    (xy -3.391841 4.619132) (xy -3.442165 4.680253) (xy -3.461178 4.70503) (xy -3.581013 4.880572)
    (xy -3.676112 5.052817) (xy -3.746431 5.221592) (xy -3.791926 5.38672) (xy -3.812552 5.548027)
    (xy -3.933105 5.548027) (xy -3.933487 5.526972) (xy -3.932903 5.51815) (xy -3.92355 5.453409)
    (xy -3.905081 5.373198) (xy -3.879809 5.284727) (xy -3.850048 5.195209) (xy -3.81811 5.111854)
    (xy -3.786309 5.041876) (xy -3.771313 5.014377) (xy -3.741713 4.966231) (xy -3.701971 4.90424)
    (xy -3.655552 4.83355) (xy -3.605923 4.75931) (xy -3.556548 4.686667) (xy -3.510894 4.620769)
    (xy -3.472426 4.566763) (xy -3.447845 4.5339) (xy -3.387825 4.457791) (xy -3.3392 4.398202)
    (xy -3.298342 4.351171) (xy -3.261624 4.312738) (xy -3.225419 4.278939) (xy -3.186098 4.245815)
    (xy -3.178251 4.239491) (xy -3.130657 4.199433) (xy -3.072522 4.147628) (xy -3.010978 4.090572)
    (xy -2.953156 4.034762) (xy -2.9495 4.031138) (xy -2.893722 3.974544) (xy -2.852755 3.929462)
    (xy -2.822446 3.890507) (xy -2.798644 3.852292) (xy -2.777196 3.809433) (xy -2.775197 3.805072)
    (xy -2.742729 3.728729) (xy -2.717685 3.65635) (xy -2.699634 3.583796) (xy -2.688148 3.506928)
    (xy -2.682797 3.421608) (xy -2.683151 3.323695) (xy -2.688781 3.209051) (xy -2.699258 3.073537)
    (xy -2.699269 3.0734) (xy -2.70966 2.919035) (xy -2.716006 2.747182) (xy -2.718451 2.562982)
    (xy -2.717142 2.371576) (xy -2.712223 2.178106) (xy -2.703841 1.987712) (xy -2.69214 1.805535)
    (xy -2.677266 1.636718) (xy -2.659364 1.4864) (xy -2.653198 1.444198) (xy -2.597557 1.15134)
    (xy -2.520683 0.854051) (xy -2.424499 0.558327) (xy -2.310933 0.270164) (xy -2.198522 0.028349)
    (xy -2.130013 -0.097009) (xy -2.046177 -0.23209) (xy -1.951459 -0.370675) (xy -1.850305 -0.506542)
    (xy -1.74716 -0.633474) (xy -1.64647 -0.745248) (xy -1.64306 -0.748794) (xy -1.479377 -0.903555)
    (xy -1.302826 -1.040988) (xy -1.111134 -1.162482) (xy -0.902024 -1.269428) (xy -0.67322 -1.363217)
    (xy -0.589214 -1.392803) (xy -0.518025 -1.417829) (xy -0.45346 -1.442236) (xy -0.400165 -1.464134)
    (xy -0.362789 -1.481634) (xy -0.34769 -1.491002) (xy -0.336304 -1.503213) (xy -0.326895 -1.520049)
    (xy -0.318498 -1.545377) (xy -0.310147 -1.58306) (xy -0.300878 -1.636963) (xy -0.289726 -1.710951)
    (xy -0.285544 -1.7399) (xy -0.27335 -1.820565) (xy -0.257558 -1.918609) (xy -0.23944 -2.026485)
    (xy -0.220272 -2.136642) (xy -0.201328 -2.241532) (xy -0.196246 -2.268888) (xy -0.170965 -2.408331)
    (xy -0.151206 -2.528366) (xy -0.136381 -2.634241) (xy -0.125906 -2.731203) (xy -0.119194 -2.824499)
    (xy -0.115659 -2.919377) (xy -0.114728 -2.99884) (xy -0.12605 -3.206977) (xy -0.161148 -3.406191)
    (xy -0.22002 -3.59647) (xy -0.294387 -3.762111) (xy -0.327152 -3.82071) (xy -0.3555 -3.858394)
    (xy -0.383809 -3.878075) (xy -0.416458 -3.882666) (xy -0.457823 -3.87508) (xy -0.462315 -3.873847)
    (xy -0.495544 -3.866236) (xy -0.525229 -3.865199) (xy -0.560586 -3.87145) (xy -0.609276 -3.88523)
    (xy -0.658523 -3.902129) (xy -0.697245 -3.921612) (xy -0.734372 -3.949247) (xy -0.778835 -3.990599)
    (xy -0.77971 -3.991458) (xy -0.824704 -4.039922) (xy -0.855764 -4.086203) (xy -0.87525 -4.136822)
    (xy -0.88552 -4.198299) (xy -0.888933 -4.277156) (xy -0.889 -4.293648) (xy -0.878036 -4.387447)
    (xy -0.844435 -4.470687) (xy -0.787136 -4.54591) (xy -0.781149 -4.552005) (xy -0.72254 -4.593914)
    (xy -0.648553 -4.621496) (xy -0.564897 -4.634582) (xy -0.477281 -4.633007) (xy -0.391413 -4.616602)
    (xy -0.313001 -4.5852) (xy -0.282372 -4.566616) (xy -0.234642 -4.527228) (xy -0.19889 -4.480513)
    (xy -0.1718 -4.420683) (xy -0.150055 -4.341946) (xy -0.1478 -4.331663) (xy -0.137047 -4.286308)
    (xy -0.124561 -4.247525) (xy -0.107723 -4.21103) (xy -0.083917 -4.17254) (xy -0.050524 -4.12777)
    (xy -0.004925 -4.072435) (xy 0.048762 -4.010003) (xy 0.106007 -3.939602) (xy 0.16941 -3.854223)
    (xy 0.234029 -3.761142) (xy 0.294918 -3.667631) (xy 0.347132 -3.580964) (xy 0.374624 -3.530687)
    (xy 0.392156 -3.491301) (xy 0.414443 -3.43322) (xy 0.439582 -3.362263) (xy 0.465667 -3.284245)
    (xy 0.490793 -3.204983) (xy 0.513056 -3.130295) (xy 0.530551 -3.065998) (xy 0.539726 -3.026485)
    (xy 0.555126 -2.897659) (xy 0.552663 -2.753073) (xy 0.532415 -2.594951) (xy 0.523118 -2.54635)
    (xy 0.513231 -2.494405) (xy 0.500655 -2.422638) (xy 0.486266 -2.336375) (xy 0.470939 -2.240943)
    (xy 0.455552 -2.141669) (xy 0.444846 -2.070258) (xy 0.428635 -1.959436) (xy 0.416482 -1.871185)
    (xy 0.408668 -1.802955) (xy 0.405479 -1.752199) (xy 0.407197 -1.71637) (xy 0.414107 -1.692918)
    (xy 0.426491 -1.679297) (xy 0.444634 -1.672957) (xy 0.468819 -1.671351) (xy 0.489214 -1.671672)
    (xy 0.522477 -1.673042) (xy 0.575596 -1.675838) (xy 0.643087 -1.679746) (xy 0.719467 -1.684448)
    (xy 0.7874 -1.688842) (xy 0.876814 -1.693399) (xy 0.980569 -1.696431) (xy 1.093958 -1.697998)
    (xy 1.212274 -1.698157) (xy 1.33081 -1.696969) (xy 1.444859 -1.694492) (xy 1.549714 -1.690784)
    (xy 1.640669 -1.685905) (xy 1.713017 -1.679914) (xy 1.737679 -1.676949) (xy 1.8107 -1.67108)
    (xy 1.864011 -1.67735) (xy 1.900818 -1.696949) (xy 1.924329 -1.731065) (xy 1.930551 -1.748441)
    (xy 1.935133 -1.768235) (xy 1.936578 -1.790365) (xy 1.934265 -1.818884) (xy 1.927575 -1.857844)
    (xy 1.915885 -1.911298) (xy 1.898576 -1.983298) (xy 1.888086 -2.02565) (xy 1.838784 -2.248748)
    (xy 1.804618 -2.460423) (xy 1.785782 -2.658615) (xy 1.782465 -2.841264) (xy 1.794858 -3.006308)
    (xy 1.796195 -3.01625) (xy 1.819333 -3.162031) (xy 1.846179 -3.287076) (xy 1.878283 -3.395958)
    (xy 1.917192 -3.493248) (xy 1.964457 -3.583518) (xy 2.015004 -3.661944) (xy 2.050214 -3.71045)
    (xy 2.098212 -3.773861) (xy 2.155429 -3.84765) (xy 2.218297 -3.927289) (xy 2.283246 -4.008251)
    (xy 2.34671 -4.086008) (xy 2.395067 -4.144119) (xy 2.423623 -4.187384) (xy 2.445775 -4.237029)
    (xy 2.450204 -4.252069) (xy 2.474183 -4.333333) (xy 2.504524 -4.409632) (xy 2.537763 -4.472826)
    (xy 2.554312 -4.496868) (xy 2.59169 -4.532921) (xy 2.6454 -4.569741) (xy 2.707726 -4.603418)
    (xy 2.770947 -4.630037) (xy 2.827346 -4.645686) (xy 2.852863 -4.6482) (xy 2.936081 -4.64094)) (layer F.SilkS) (width 0.01))
)
