<?xml version="1.0" encoding="utf-8"?>
<!--/564126/250371/2.46/6/4/Integrated Circuit/-->
<!DOCTYPE curve SYSTEM "eagle.dtd">
<eagle version="7.7.0">
<drawing>
<settings>
<setting alwaysvectorfont="no"/>
<setting verticaltext="up"/>
</settings>
<grid distance="0.1" unitdist="inch" unit="inch" style="lines" multiple="1" display="no" altdistance="0.01" altunitdist="inch" altunit="inch"/>
<layers>
<layer number="1" name="Top" color="4" fill="1" visible="yes" active="yes"/>
<layer number="16" name="Bottom" color="1" fill="1" visible="yes" active="yes"/>
<layer number="17" name="Pads" color="2" fill="1" visible="yes" active="yes"/>
<layer number="18" name="Vias" color="2" fill="1" visible="yes" active="yes"/>
<layer number="19" name="Unrouted" color="6" fill="1" visible="yes" active="yes"/>
<layer number="20" name="Dimension" color="15" fill="1" visible="yes" active="yes"/>
<layer number="21" name="tPlace" color="7" fill="1" visible="yes" active="yes"/>
<layer number="22" name="bPlace" color="7" fill="1" visible="yes" active="yes"/>
<layer number="23" name="tOrigins" color="15" fill="1" visible="yes" active="yes"/>
<layer number="24" name="bOrigins" color="15" fill="1" visible="yes" active="yes"/>
<layer number="25" name="tNames" color="7" fill="1" visible="yes" active="yes"/>
<layer number="26" name="bNames" color="7" fill="1" visible="yes" active="yes"/>
<layer number="27" name="tValues" color="7" fill="1" visible="yes" active="yes"/>
<layer number="28" name="bValues" color="7" fill="1" visible="yes" active="yes"/>
<layer number="29" name="tStop" color="7" fill="3" visible="no" active="yes"/>
<layer number="30" name="bStop" color="7" fill="6" visible="no" active="yes"/>
<layer number="31" name="tCream" color="7" fill="4" visible="no" active="yes"/>
<layer number="32" name="bCream" color="7" fill="5" visible="no" active="yes"/>
<layer number="33" name="tFinish" color="6" fill="3" visible="no" active="yes"/>
<layer number="34" name="bFinish" color="6" fill="6" visible="no" active="yes"/>
<layer number="35" name="tGlue" color="7" fill="4" visible="no" active="yes"/>
<layer number="36" name="bGlue" color="7" fill="5" visible="no" active="yes"/>
<layer number="37" name="tTest" color="7" fill="1" visible="no" active="yes"/>
<layer number="38" name="bTest" color="7" fill="1" visible="no" active="yes"/>
<layer number="39" name="tKeepout" color="4" fill="11" visible="yes" active="yes"/>
<layer number="40" name="bKeepout" color="1" fill="11" visible="yes" active="yes"/>
<layer number="41" name="tRestrict" color="4" fill="10" visible="yes" active="yes"/>
<layer number="42" name="bRestrict" color="1" fill="10" visible="yes" active="yes"/>
<layer number="43" name="vRestrict" color="2" fill="10" visible="yes" active="yes"/>
<layer number="44" name="Drills" color="7" fill="1" visible="no" active="yes"/>
<layer number="45" name="Holes" color="7" fill="1" visible="no" active="yes"/>
<layer number="46" name="Milling" color="3" fill="1" visible="no" active="yes"/>
<layer number="47" name="Measures" color="7" fill="1" visible="no" active="yes"/>
<layer number="48" name="Document" color="7" fill="1" visible="yes" active="yes"/>
<layer number="49" name="Reference" color="7" fill="1" visible="yes" active="yes"/>
<layer number="51" name="tDocu" color="7" fill="1" visible="yes" active="yes"/>
<layer number="52" name="bDocu" color="7" fill="1" visible="yes" active="yes"/>
<layer number="90" name="Modules" color="5" fill="1" visible="yes" active="yes"/>
<layer number="91" name="Nets" color="2" fill="1" visible="yes" active="yes"/>
<layer number="92" name="Busses" color="1" fill="1" visible="yes" active="yes"/>
<layer number="93" name="Pins" color="2" fill="1" visible="no" active="yes"/>
<layer number="94" name="Symbols" color="4" fill="1" visible="yes" active="yes"/>
<layer number="95" name="Names" color="7" fill="1" visible="yes" active="yes"/>
<layer number="96" name="Values" color="7" fill="1" visible="yes" active="yes"/>
<layer number="97" name="Info" color="7" fill="1" visible="yes" active="yes"/>
<layer number="98" name="Guide" color="6" fill="1" visible="yes" active="yes"/>
</layers>
<library>
<description>&lt;AEC-Q100, 26V, Bi-Directional, Zero-Drift, Low-/High-Side, Voltage Output Current Sense Amplifier&lt;/b&gt;&lt;p&gt;
&lt;author&gt;Created by SamacSys&lt;/author&gt;</description>
<packages>
<package name="SOT65P210X110-6N">
<description>&lt;b&gt;R-PDSO-G6_SC-70-6&lt;/b&gt;&lt;br&gt;
</description>
<smd name="1" x="-0.95" y="0.65" dx="1.2" dy="0.4" layer="1" rot="R0"/>
<smd name="2" x="-0.95" y="0" dx="1.2" dy="0.4" layer="1" rot="R0"/>
<smd name="3" x="-0.95" y="-0.65" dx="1.2" dy="0.4" layer="1" rot="R0"/>
<smd name="4" x="0.95" y="-0.65" dx="1.2" dy="0.4" layer="1" rot="R0"/>
<smd name="5" x="0.95" y="0" dx="1.2" dy="0.4" layer="1" rot="R0"/>
<smd name="6" x="0.95" y="0.65" dx="1.2" dy="0.4" layer="1" rot="R0"/>
<text x="0" y="0" align="center" size="1.27" layer="25" rot="R0" >&gt;NAME</text>
<text x="0" y="0" align="center" size="1.27" layer="27" rot="R0" >&gt;VALUE</text>
<wire x1="-1.8" y1="1.325" x2="1.8" y2="1.325" width="0.05" layer="51"/>
<wire x1="1.8" y1="1.325" x2="1.8" y2="-1.325" width="0.05" layer="51"/>
<wire x1="1.8" y1="-1.325" x2="-1.8" y2="-1.325" width="0.05" layer="51"/>
<wire x1="-1.8" y1="-1.325" x2="-1.8" y2="1.325" width="0.05" layer="51"/>
<wire x1="-0.625" y1="1" x2="0.625" y2="1" width="0.1" layer="51"/>
<wire x1="0.625" y1="1" x2="0.625" y2="-1" width="0.1" layer="51"/>
<wire x1="0.625" y1="-1" x2="-0.625" y2="-1" width="0.1" layer="51"/>
<wire x1="-0.625" y1="-1" x2="-0.625" y2="1" width="0.1" layer="51"/>
<wire x1="-0.625" y1="0.35" x2="0.025" y2="1" width="0.1" layer="51"/>
<wire x1="-1.55" y1="1.2" x2="-0.35" y2="1.2" width="0.2" layer="21"/>
</package>
</packages>
<symbols>
<symbol name="INA199B1QDCKRQ1">
<wire x1="5.08" y1="2.54" x2="20.32" y2="2.54" width="0.254" layer="94"/>
<wire x1="20.32" y1="-7.62" x2="20.32" y2="2.54" width="0.254" layer="94"/>
<wire x1="20.32" y1="-7.62" x2="5.08" y2="-7.62" width="0.254" layer="94"/>
<wire x1="5.08" y1="2.54" x2="5.08" y2="-7.62" width="0.254" layer="94"/>
<text x="21.59" y="7.62" align="center-left" size="1.778" layer="95">&gt;NAME</text>
<text x="21.59" y="5.08" align="center-left" size="1.778" layer="96">&gt;VALUE</text>
<pin name="REF" x="0" y="0" length="middle" direction="in" rot="R0"/>
<pin name="GND" x="0" y="-2.54" length="middle" direction="pwr" rot="R0"/>
<pin name="V+" x="0" y="-5.08" length="middle" direction="pwr" rot="R0"/>
<pin name="OUT" x="25.4" y="0" length="middle" direction="out" rot="R180"/>
<pin name="IN-" x="25.4" y="-2.54" length="middle" direction="in" rot="R180"/>
<pin name="IN+" x="25.4" y="-5.08" length="middle" direction="in" rot="R180"/>
</symbol>
</symbols>
<devicesets>
<deviceset name="INA199B1QDCKRQ1" prefix="IC">
<description>&lt;b&gt;AEC-Q100, 26V, Bi-Directional, Zero-Drift, Low-/High-Side, Voltage Output Current Sense Amplifier&lt;/b&gt;&lt;p&gt;
Source: &lt;a href="http://www.ti.com/lit/gpn/ina199-q1"&gt; Datasheet &lt;/a&gt;</description>
<gates>
<gate name="G$1" symbol="INA199B1QDCKRQ1" x="0" y="0"/>
</gates>
<devices>
<device name="" package="SOT65P210X110-6N">
<connects>
<connect gate="G$1" pin="REF" pad="1"/>
<connect gate="G$1" pin="GND" pad="2"/>
<connect gate="G$1" pin="V+" pad="3"/>
<connect gate="G$1" pin="IN+" pad="4"/>
<connect gate="G$1" pin="IN-" pad="5"/>
<connect gate="G$1" pin="OUT" pad="6"/>
</connects>
<technologies>
<technology name="">
<attribute name="Manufacturer_Name" value="Texas Instruments" constant="no"/>
<attribute name="Manufacturer_Part_Number" value="INA199B1QDCKRQ1" constant="no"/>
<attribute name="Mouser_Part_Number" value="595-INA199B1QDCKRQ1" constant="no"/>
<attribute name="Mouser_Price-Stock" value="https://www.mouser.com/Search/Refine.aspx?Keyword=595-INA199B1QDCKRQ1" constant="no"/>
<attribute name="RS_Part_Number" value="" constant="no"/>
<attribute name="RS_Price-Stock" value="" constant="no"/>
<attribute name="Description" value="AEC-Q100, 26V, Bi-Directional, Zero-Drift, Low-/High-Side, Voltage Output Current Sense Amplifier" constant="no"/>
<attribute name="Height" value="1.1mm" constant="no"/>
</technology>
</technologies>
</device>
</devices>
</deviceset>
</devicesets>
</library>
</drawing>
</eagle>
