EESchema Schematic File Version 4
EELAYER 30 0
EELAYER END
$Descr A4 11693 8268
encoding utf-8
Sheet 2 8
Title ""
Date ""
Rev ""
Comp ""
Comment1 ""
Comment2 ""
Comment3 ""
Comment4 ""
$EndDescr
Wire Wire Line
	5500 3475 5300 3475
Wire Wire Line
	5300 3475 5300 4175
Wire Wire Line
	5300 4175 5500 4175
Wire Wire Line
	5300 2325 5300 2375
Connection ~ 5300 3475
Connection ~ 6200 3600
Wire Wire Line
	6200 4175 6200 4300
$Comp
L User:IRF7307 Q4
U 1 1 5F10F271
P 5850 3775
AR Path="/5F0FA820/5F10F271" Ref="Q4"  Part="1" 
AR Path="/5F2AEC5D/5F10F271" Ref="Q8"  Part="1" 
F 0 "Q8" H 5850 3850 50  0000 C CNN
F 1 "IRF7307" H 5850 3759 50  0000 C CNN
F 2 "Package_SO:SOP-8_3.9x4.9mm_P1.27mm" H 5850 3775 50  0001 C CNN
F 3 "https://static.chipdip.ru/lib/196/DOC000196741.pdf" H 5850 3775 50  0001 C CNN
	1    5850 3775
	1    0    0    -1  
$EndComp
Wire Wire Line
	6200 3875 6200 3925
Wire Wire Line
	6200 3600 6200 3675
Connection ~ 6200 3925
Wire Wire Line
	6200 3925 6200 4050
Connection ~ 6200 4050
Connection ~ 6200 4175
Wire Wire Line
	6200 4175 6200 4050
$Comp
L power:GND #PWR053
U 1 1 5F10F27F
P 5400 4900
AR Path="/5F0FA820/5F10F27F" Ref="#PWR053"  Part="1" 
AR Path="/5F2AEC5D/5F10F27F" Ref="#PWR058"  Part="1" 
F 0 "#PWR058" H 5400 4650 50  0001 C CNN
F 1 "GND" H 5405 4727 50  0000 C CNN
F 2 "" H 5400 4900 50  0001 C CNN
F 3 "" H 5400 4900 50  0001 C CNN
	1    5400 4900
	1    0    0    -1  
$EndComp
Wire Wire Line
	5400 3925 5500 3925
Wire Wire Line
	5400 3225 5400 3925
Wire Wire Line
	5500 3225 5400 3225
$Comp
L power:GND #PWR051
U 1 1 5F10F288
P 4900 3750
AR Path="/5F0FA820/5F10F288" Ref="#PWR051"  Part="1" 
AR Path="/5F2AEC5D/5F10F288" Ref="#PWR056"  Part="1" 
F 0 "#PWR056" H 4900 3500 50  0001 C CNN
F 1 "GND" H 4905 3577 50  0000 C CNN
F 2 "" H 4900 3750 50  0001 C CNN
F 3 "" H 4900 3750 50  0001 C CNN
	1    4900 3750
	1    0    0    -1  
$EndComp
$Comp
L power:GND #PWR052
U 1 1 5F10F28E
P 4925 4900
AR Path="/5F0FA820/5F10F28E" Ref="#PWR052"  Part="1" 
AR Path="/5F2AEC5D/5F10F28E" Ref="#PWR057"  Part="1" 
F 0 "#PWR057" H 4925 4650 50  0001 C CNN
F 1 "GND" H 4930 4727 50  0000 C CNN
F 2 "" H 4925 4900 50  0001 C CNN
F 3 "" H 4925 4900 50  0001 C CNN
	1    4925 4900
	1    0    0    -1  
$EndComp
$Comp
L User:S9013 Q1
U 1 1 5F10F294
P 4800 3550
AR Path="/5F0FA820/5F10F294" Ref="Q1"  Part="1" 
AR Path="/5F2AEC5D/5F10F294" Ref="Q5"  Part="1" 
F 0 "Q5" H 4990 3596 50  0000 L CNN
F 1 "S9013" H 4990 3505 50  0000 L CNN
F 2 "Package_TO_SOT_SMD:SOT-23" H 5000 3475 50  0001 L CIN
F 3 "" H 4800 3550 50  0001 L CNN
	1    4800 3550
	1    0    0    -1  
$EndComp
$Comp
L User:S9013 Q2
U 1 1 5F10F29A
P 4825 4700
AR Path="/5F0FA820/5F10F29A" Ref="Q2"  Part="1" 
AR Path="/5F2AEC5D/5F10F29A" Ref="Q6"  Part="1" 
F 0 "Q6" H 5015 4746 50  0000 L CNN
F 1 "S9013" H 5015 4655 50  0000 L CNN
F 2 "Package_TO_SOT_SMD:SOT-23" H 5025 4625 50  0001 L CIN
F 3 "" H 4825 4700 50  0001 L CNN
	1    4825 4700
	1    0    0    -1  
$EndComp
Wire Wire Line
	4900 3275 4900 3350
Connection ~ 4900 3350
Wire Wire Line
	4900 3075 4900 3000
Wire Wire Line
	4900 3000 5300 3000
$Comp
L Device:R_Small R23
U 1 1 5F10F2A4
P 4900 3175
AR Path="/5F0FA820/5F10F2A4" Ref="R23"  Part="1" 
AR Path="/5F2AEC5D/5F10F2A4" Ref="R28"  Part="1" 
F 0 "R28" V 4704 3175 50  0000 C CNN
F 1 "R_Small" V 4795 3175 50  0000 C CNN
F 2 "Resistor_SMD:R_0805_2012Metric" H 4900 3175 50  0001 C CNN
F 3 "~" H 4900 3175 50  0001 C CNN
	1    4900 3175
	1    0    0    -1  
$EndComp
$Comp
L Device:R_Small R24
U 1 1 5F10F2AA
P 4925 4350
AR Path="/5F0FA820/5F10F2AA" Ref="R24"  Part="1" 
AR Path="/5F2AEC5D/5F10F2AA" Ref="R29"  Part="1" 
F 0 "R29" V 4729 4350 50  0000 C CNN
F 1 "R_Small" V 4820 4350 50  0000 C CNN
F 2 "Resistor_SMD:R_0805_2012Metric" H 4925 4350 50  0001 C CNN
F 3 "~" H 4925 4350 50  0001 C CNN
	1    4925 4350
	1    0    0    -1  
$EndComp
Wire Wire Line
	4925 4250 4925 4175
Wire Wire Line
	4925 4175 5300 4175
Connection ~ 5300 4175
Wire Wire Line
	4900 3350 5450 3350
Wire Wire Line
	5500 3600 5450 3600
Wire Wire Line
	5450 3600 5450 3350
Connection ~ 5450 3350
Wire Wire Line
	5450 3350 5500 3350
Wire Wire Line
	5500 4050 5450 4050
Wire Wire Line
	5450 4050 5450 4300
Wire Wire Line
	5450 4300 5500 4300
Wire Wire Line
	5400 3925 5400 4900
Connection ~ 5400 3925
$Comp
L Device:R_Small R22
U 1 1 5F10F2BD
P 4525 4700
AR Path="/5F0FA820/5F10F2BD" Ref="R22"  Part="1" 
AR Path="/5F2AEC5D/5F10F2BD" Ref="R27"  Part="1" 
F 0 "R27" V 4329 4700 50  0000 C CNN
F 1 "R_Small" V 4420 4700 50  0000 C CNN
F 2 "Resistor_SMD:R_0805_2012Metric" H 4525 4700 50  0001 C CNN
F 3 "~" H 4525 4700 50  0001 C CNN
	1    4525 4700
	0    -1   -1   0   
$EndComp
$Comp
L Device:R_Small R21
U 1 1 5F10F2C3
P 4500 3550
AR Path="/5F0FA820/5F10F2C3" Ref="R21"  Part="1" 
AR Path="/5F2AEC5D/5F10F2C3" Ref="R26"  Part="1" 
F 0 "R26" V 4304 3550 50  0000 C CNN
F 1 "R_Small" V 4395 3550 50  0000 C CNN
F 2 "Resistor_SMD:R_0805_2012Metric" H 4500 3550 50  0001 C CNN
F 3 "~" H 4500 3550 50  0001 C CNN
	1    4500 3550
	0    -1   -1   0   
$EndComp
Wire Wire Line
	4350 3550 4400 3550
Wire Wire Line
	4375 4700 4425 4700
$Comp
L Device:R R25
U 1 1 5F10F2DD
P 5300 2625
AR Path="/5F0FA820/5F10F2DD" Ref="R25"  Part="1" 
AR Path="/5F2AEC5D/5F10F2DD" Ref="R30"  Part="1" 
F 0 "R30" H 5370 2671 50  0000 L CNN
F 1 "0.01" H 5370 2580 50  0000 L CNN
F 2 "Resistor_SMD:R_1218_3246Metric" V 5230 2625 50  0001 C CNN
F 3 "~" H 5300 2625 50  0001 C CNN
	1    5300 2625
	1    0    0    -1  
$EndComp
Connection ~ 5300 3000
Wire Wire Line
	5300 3000 5300 3475
Wire Wire Line
	5675 2375 5300 2375
Connection ~ 5300 2375
Wire Wire Line
	5300 2375 5300 2475
$Comp
L power:GND #PWR055
U 1 1 5F10F2EF
P 6675 2650
AR Path="/5F0FA820/5F10F2EF" Ref="#PWR055"  Part="1" 
AR Path="/5F2AEC5D/5F10F2EF" Ref="#PWR060"  Part="1" 
F 0 "#PWR060" H 6675 2400 50  0001 C CNN
F 1 "GND" H 6680 2477 50  0000 C CNN
F 2 "" H 6675 2650 50  0001 C CNN
F 3 "" H 6675 2650 50  0001 C CNN
	1    6675 2650
	1    0    0    -1  
$EndComp
Wire Wire Line
	6675 2575 6675 2650
Connection ~ 6675 2575
Wire Wire Line
	5675 2575 5625 2575
Wire Wire Line
	5625 2575 5625 2875
Wire Wire Line
	5625 2875 5675 2875
Wire Wire Line
	5300 2775 5300 2825
Wire Wire Line
	5675 2475 5575 2475
Wire Wire Line
	5575 2475 5575 2825
Wire Wire Line
	5575 2825 5300 2825
Connection ~ 5300 2825
Wire Wire Line
	5300 2825 5300 3000
Wire Wire Line
	6200 3225 6200 3350
Connection ~ 6200 3350
Connection ~ 6200 3475
Wire Wire Line
	6200 3350 6200 3475
Wire Wire Line
	6200 3475 6200 3600
$Comp
L Device:C_Small C12
U 1 1 5F10F307
P 6200 3775
AR Path="/5F0FA820/5F10F307" Ref="C12"  Part="1" 
AR Path="/5F2AEC5D/5F10F307" Ref="C14"  Part="1" 
F 0 "C14" H 6292 3821 50  0000 L CNN
F 1 "10nF" H 6292 3730 50  0000 L CNN
F 2 "Capacitor_SMD:C_0805_2012Metric" H 6200 3775 50  0001 C CNN
F 3 "~" H 6200 3775 50  0001 C CNN
	1    6200 3775
	1    0    0    -1  
$EndComp
$Comp
L User:IRF7307 Q3
U 1 1 5F10F30D
P 5850 3075
AR Path="/5F0FA820/5F10F30D" Ref="Q3"  Part="1" 
AR Path="/5F2AEC5D/5F10F30D" Ref="Q7"  Part="1" 
F 0 "Q7" H 5850 3150 50  0000 C CNN
F 1 "IRF7307" H 5850 3059 50  0000 C CNN
F 2 "Package_SO:SOP-8_3.9x4.9mm_P1.27mm" H 5850 3075 50  0001 C CNN
F 3 "https://static.chipdip.ru/lib/196/DOC000196741.pdf" H 5850 3075 50  0001 C CNN
	1    5850 3075
	1    0    0    -1  
$EndComp
Wire Wire Line
	4925 4450 4925 4475
Wire Wire Line
	4925 4475 5450 4475
Wire Wire Line
	5450 4475 5450 4300
Connection ~ 4925 4475
Wire Wire Line
	4925 4475 4925 4500
Connection ~ 5450 4300
Text HLabel 5675 2875 2    50   Output ~ 0
DRV_I
Text HLabel 4350 3550 0    50   Input ~ 0
DRV_F
Text HLabel 4375 4700 0    50   Input ~ 0
DRV_B
Text HLabel 5300 2325 1    50   Input ~ 0
+12V
Text HLabel 6550 3600 2    50   Output ~ 0
DRV+
Text HLabel 6550 3925 2    50   Output ~ 0
DRV-
Wire Wire Line
	6200 3600 6550 3600
Wire Wire Line
	6200 3925 6550 3925
$Comp
L power:GND #PWR054
U 1 1 5F12D917
P 5725 4900
AR Path="/5F0FA820/5F12D917" Ref="#PWR054"  Part="1" 
AR Path="/5F2AEC5D/5F12D917" Ref="#PWR059"  Part="1" 
F 0 "#PWR059" H 5725 4650 50  0001 C CNN
F 1 "GND" H 5730 4727 50  0000 C CNN
F 2 "" H 5725 4900 50  0001 C CNN
F 3 "" H 5725 4900 50  0001 C CNN
	1    5725 4900
	1    0    0    -1  
$EndComp
Text HLabel 5725 4900 1    50   UnSpc ~ 0
GND
$Comp
L Device:C_Small C13
U 1 1 5EE17A22
P 6800 2450
AR Path="/5F0FA820/5EE17A22" Ref="C13"  Part="1" 
AR Path="/5F2AEC5D/5EE17A22" Ref="C15"  Part="1" 
F 0 "C15" H 6892 2496 50  0000 L CNN
F 1 "100nF" H 6892 2405 50  0000 L CNN
F 2 "Capacitor_SMD:C_0805_2012Metric" H 6800 2450 50  0001 C CNN
F 3 "~" H 6800 2450 50  0001 C CNN
	1    6800 2450
	1    0    0    -1  
$EndComp
Wire Wire Line
	6675 2575 6800 2575
Wire Wire Line
	6800 2575 6800 2550
Wire Wire Line
	6675 2475 6675 2575
Text HLabel 6675 2225 1    50   Input ~ 0
+3.3V
$Comp
L hard-rescue:INA199B1QDCKRQ1-INA199B1QDCKRQ1 U5
U 1 1 5F10F2D7
P 6675 2575
AR Path="/5F0FA820/5F10F2D7" Ref="U5"  Part="1" 
AR Path="/5F2AEC5D/5F10F2D7" Ref="U6"  Part="1" 
AR Path="/5F10F2D7" Ref="U?"  Part="1" 
F 0 "U6" H 7175 2840 50  0000 C CNN
F 1 "INA199B1QDCKRQ1" H 7175 2749 50  0000 C CNN
F 2 "Package_TO_SOT_SMD:SOT-363_SC-70-6" H 7525 2675 50  0001 L CNN
F 3 "http://www.ti.com/lit/gpn/ina199-q1" H 7525 2575 50  0001 L CNN
F 4 "AEC-Q100, 26V, Bi-Directional, Zero-Drift, Low-/High-Side, Voltage Output Current Sense Amplifier" H 7525 2475 50  0001 L CNN "Description"
F 5 "1.1" H 7525 2375 50  0001 L CNN "Height"
F 6 "Texas Instruments" H 7525 2275 50  0001 L CNN "Manufacturer_Name"
F 7 "INA199B1QDCKRQ1" H 7525 2175 50  0001 L CNN "Manufacturer_Part_Number"
F 8 "595-INA199B1QDCKRQ1" H 7525 2075 50  0001 L CNN "Mouser Part Number"
F 9 "https://www.mouser.com/Search/Refine.aspx?Keyword=595-INA199B1QDCKRQ1" H 7525 1975 50  0001 L CNN "Mouser Price/Stock"
F 10 "" H 7525 1875 50  0001 L CNN "RS Part Number"
F 11 "" H 7525 1775 50  0001 L CNN "RS Price/Stock"
	1    6675 2575
	-1   0    0    1   
$EndComp
Wire Wire Line
	6675 2375 6675 2325
Wire Wire Line
	6800 2350 6800 2325
Wire Wire Line
	6800 2325 6675 2325
Connection ~ 6675 2325
Wire Wire Line
	6675 2325 6675 2225
$EndSCHEMATC
