EESchema Schematic File Version 4
EELAYER 30 0
EELAYER END
$Descr A4 11693 8268
encoding utf-8
Sheet 6 8
Title ""
Date ""
Rev ""
Comp ""
Comment1 ""
Comment2 ""
Comment3 ""
Comment4 ""
$EndDescr
$Comp
L Device:R_Small R36
U 1 1 5EB9CA58
P 4825 2725
AR Path="/5EB7FD91/5EB9CA58" Ref="R36"  Part="1" 
AR Path="/5EB8A48F/5EB9CA58" Ref="R32"  Part="1" 
AR Path="/5EC34434/5EB9CA58" Ref="R34"  Part="1" 
AR Path="/5EB936F6/5EB9CA58" Ref="R38"  Part="1" 
F 0 "R36" H 4884 2771 50  0000 L CNN
F 1 "1k" H 4884 2680 50  0000 L CNN
F 2 "Resistor_SMD:R_0805_2012Metric" H 4825 2725 50  0001 C CNN
F 3 "~" H 4825 2725 50  0001 C CNN
	1    4825 2725
	1    0    0    -1  
$EndComp
$Comp
L User:S9013 Q13
U 1 1 5EB9C178
P 4725 3500
AR Path="/5EB7FD91/5EB9C178" Ref="Q13"  Part="1" 
AR Path="/5EB8A48F/5EB9C178" Ref="Q9"  Part="1" 
AR Path="/5EC34434/5EB9C178" Ref="Q11"  Part="1" 
AR Path="/5EB936F6/5EB9C178" Ref="Q15"  Part="1" 
F 0 "Q13" H 4915 3546 50  0000 L CNN
F 1 "S9013" H 4915 3455 50  0000 L CNN
F 2 "Package_TO_SOT_SMD:SOT-23" H 4925 3425 50  0001 L CIN
F 3 "" H 4725 3500 50  0001 L CNN
	1    4725 3500
	1    0    0    -1  
$EndComp
Wire Wire Line
	4825 2825 4825 3050
Wire Wire Line
	4825 3050 5000 3050
Connection ~ 4825 3050
Wire Wire Line
	4825 3050 4825 3300
Text HLabel 4825 3825 3    50   Input ~ 0
GND
$Comp
L Device:R_Small R35
U 1 1 5EBA0FD6
P 4325 3500
AR Path="/5EB7FD91/5EBA0FD6" Ref="R35"  Part="1" 
AR Path="/5EB8A48F/5EBA0FD6" Ref="R31"  Part="1" 
AR Path="/5EC34434/5EBA0FD6" Ref="R33"  Part="1" 
AR Path="/5EB936F6/5EBA0FD6" Ref="R37"  Part="1" 
F 0 "R35" V 4521 3500 50  0000 C CNN
F 1 "1k" V 4430 3500 50  0000 C CNN
F 2 "Resistor_SMD:R_0805_2012Metric" H 4325 3500 50  0001 C CNN
F 3 "~" H 4325 3500 50  0001 C CNN
	1    4325 3500
	0    -1   -1   0   
$EndComp
Wire Wire Line
	4825 2625 4825 2550
Wire Wire Line
	4825 2550 5300 2550
Wire Wire Line
	5300 2550 5300 2850
Text HLabel 5300 2375 1    50   Input ~ 0
+12V
Wire Wire Line
	5300 2550 5300 2375
Connection ~ 5300 2550
Wire Wire Line
	4425 3500 4525 3500
Text HLabel 4125 3500 0    50   Input ~ 0
in
Wire Wire Line
	4125 3500 4225 3500
Text HLabel 5525 3350 2    50   Input ~ 0
load
$Comp
L Transistor_FET:IRF7404 Q14
U 1 1 5EB9B9C5
P 5200 3050
AR Path="/5EB7FD91/5EB9B9C5" Ref="Q14"  Part="1" 
AR Path="/5EB8A48F/5EB9B9C5" Ref="Q10"  Part="1" 
AR Path="/5EC34434/5EB9B9C5" Ref="Q12"  Part="1" 
AR Path="/5EB936F6/5EB9B9C5" Ref="Q16"  Part="1" 
F 0 "Q14" H 5405 3096 50  0000 L CNN
F 1 "IRF7404" H 5405 3005 50  0000 L CNN
F 2 "Package_SO:SOIC-8_3.9x4.9mm_P1.27mm" H 5400 2975 50  0001 L CIN
F 3 "http://www.infineon.com/dgdl/irf7404.pdf?fileId=5546d462533600a4015355fa2b5b1b9e" V 5200 3050 50  0001 L CNN
	1    5200 3050
	1    0    0    1   
$EndComp
Wire Wire Line
	5300 3250 5300 3350
Wire Wire Line
	5300 3350 5525 3350
Wire Wire Line
	4825 3700 4825 3825
$EndSCHEMATC
