EESchema Schematic File Version 4
EELAYER 30 0
EELAYER END
$Descr A4 11693 8268
encoding utf-8
Sheet 1 8
Title ""
Date ""
Rev ""
Comp ""
Comment1 ""
Comment2 ""
Comment3 ""
Comment4 ""
$EndDescr
$Comp
L Device:Crystal_Small Y1
U 1 1 5E923A03
P 1200 1650
F 0 "Y1" H 1200 1875 50  0000 C CNN
F 1 "8MHz" H 1200 1784 50  0000 C CNN
F 2 "Crystal:Crystal_SMD_HC49-SD" H 1200 1650 50  0001 C CNN
F 3 "~" H 1200 1650 50  0001 C CNN
	1    1200 1650
	1    0    0    -1  
$EndComp
$Comp
L Device:C_Small C1
U 1 1 5E927E44
P 800 1550
F 0 "C1" H 892 1596 50  0000 L CNN
F 1 "22pf" H 892 1505 50  0000 L CNN
F 2 "Capacitor_SMD:C_0805_2012Metric" H 800 1550 50  0001 C CNN
F 3 "~" H 800 1550 50  0001 C CNN
	1    800  1550
	1    0    0    -1  
$EndComp
$Comp
L Device:C_Small C2
U 1 1 5E925F79
P 1500 1550
F 0 "C2" H 1592 1596 50  0000 L CNN
F 1 "22pF" H 1592 1505 50  0000 L CNN
F 2 "Capacitor_SMD:C_0805_2012Metric" H 1500 1550 50  0001 C CNN
F 3 "~" H 1500 1550 50  0001 C CNN
	1    1500 1550
	1    0    0    -1  
$EndComp
Wire Wire Line
	1300 1650 1500 1650
Connection ~ 1500 1650
Wire Wire Line
	1100 1650 800  1650
$Comp
L power:GND #PWR01
U 1 1 5E931B33
P 550 1450
F 0 "#PWR01" H 550 1200 50  0001 C CNN
F 1 "GND" H 555 1277 50  0000 C CNN
F 2 "" H 550 1450 50  0001 C CNN
F 3 "" H 550 1450 50  0001 C CNN
	1    550  1450
	1    0    0    -1  
$EndComp
Wire Wire Line
	1500 1450 1500 1350
Wire Wire Line
	1500 1350 800  1350
Wire Wire Line
	550  1350 550  1450
Wire Wire Line
	800  1450 800  1350
Connection ~ 800  1350
Wire Wire Line
	800  1350 550  1350
Wire Wire Line
	800  1650 800  1750
Connection ~ 800  1650
$Comp
L Interface_UART:SP3485EN U1
U 1 1 5E934502
P 1600 5600
F 0 "U1" H 1600 6181 50  0000 C CNN
F 1 "SP3485EN" H 1600 6090 50  0000 C CNN
F 2 "Package_SO:SOIC-8_3.9x4.9mm_P1.27mm" H 2650 5250 50  0001 C CIN
F 3 "http://www.icbase.com/pdf/SPX/SPX00480106.pdf" H 1600 5600 50  0001 C CNN
	1    1600 5600
	1    0    0    -1  
$EndComp
Text GLabel 1200 5400 0    50   Output ~ 0
USART_RX
Text GLabel 1200 5800 0    50   Input ~ 0
USART_TX
Text GLabel 1100 5600 0    50   Input ~ 0
USART_DE
Wire Wire Line
	1200 5700 1200 5600
Wire Wire Line
	1100 5600 1200 5600
Connection ~ 1200 5600
Wire Wire Line
	1200 5600 1200 5500
Text GLabel 2950 3550 2    50   Input ~ 0
USART_RX
Text GLabel 2950 3450 2    50   Output ~ 0
USART_TX
Text GLabel 2950 3750 2    50   Output ~ 0
USART_DE
Text GLabel 2950 3850 2    50   BiDi ~ 0
SYS_SWDIO
Text GLabel 2950 3950 2    50   Input ~ 0
SYS_SWCLK
Connection ~ 2350 4250
$Comp
L power:GND #PWR07
U 1 1 5E943C2B
P 2350 4550
F 0 "#PWR07" H 2350 4300 50  0001 C CNN
F 1 "GND" H 2355 4377 50  0000 C CNN
F 2 "" H 2350 4550 50  0001 C CNN
F 3 "" H 2350 4550 50  0001 C CNN
	1    2350 4550
	1    0    0    -1  
$EndComp
Wire Wire Line
	2350 4250 2350 4550
$Comp
L power:GND #PWR06
U 1 1 5E944A34
P 1600 6000
F 0 "#PWR06" H 1600 5750 50  0001 C CNN
F 1 "GND" H 1605 5827 50  0000 C CNN
F 2 "" H 1600 6000 50  0001 C CNN
F 3 "" H 1600 6000 50  0001 C CNN
	1    1600 6000
	1    0    0    -1  
$EndComp
$Comp
L power:+3.3V #PWR08
U 1 1 5E945DF8
P 2400 850
F 0 "#PWR08" H 2400 700 50  0001 C CNN
F 1 "+3.3V" H 2415 1023 50  0000 C CNN
F 2 "" H 2400 850 50  0001 C CNN
F 3 "" H 2400 850 50  0001 C CNN
	1    2400 850 
	1    0    0    -1  
$EndComp
Connection ~ 2400 1050
$Comp
L power:+3.3VA #PWR09
U 1 1 5E94A266
P 2550 1050
F 0 "#PWR09" H 2550 900 50  0001 C CNN
F 1 "+3.3VA" H 2565 1223 50  0000 C CNN
F 2 "" H 2550 1050 50  0001 C CNN
F 3 "" H 2550 1050 50  0001 C CNN
	1    2550 1050
	1    0    0    -1  
$EndComp
$Comp
L Device:L L1
U 1 1 5E94D543
P 3525 725
F 0 "L1" V 3715 725 50  0000 C CNN
F 1 "DtoA" V 3624 725 50  0000 C CNN
F 2 "Inductor_THT:L_Axial_L7.0mm_D3.3mm_P5.08mm_Vertical_Fastron_MICC" H 3525 725 50  0001 C CNN
F 3 "~" H 3525 725 50  0001 C CNN
	1    3525 725 
	0    -1   -1   0   
$EndComp
$Comp
L Device:C_Small C4
U 1 1 5E94E6C1
P 3275 825
F 0 "C4" H 3367 871 50  0000 L CNN
F 1 "1uF" H 3367 780 50  0000 L CNN
F 2 "Capacitor_SMD:C_0805_2012Metric" H 3275 825 50  0001 C CNN
F 3 "~" H 3275 825 50  0001 C CNN
	1    3275 825 
	1    0    0    -1  
$EndComp
$Comp
L power:GND #PWR013
U 1 1 5E94EB21
P 3275 925
F 0 "#PWR013" H 3275 675 50  0001 C CNN
F 1 "GND" H 3280 752 50  0000 C CNN
F 2 "" H 3275 925 50  0001 C CNN
F 3 "" H 3275 925 50  0001 C CNN
	1    3275 925 
	1    0    0    -1  
$EndComp
$Comp
L Device:C_Small C6
U 1 1 5E9565B1
P 3775 825
F 0 "C6" H 3867 871 50  0000 L CNN
F 1 "1uF" H 3867 780 50  0000 L CNN
F 2 "Capacitor_SMD:C_0805_2012Metric" H 3775 825 50  0001 C CNN
F 3 "~" H 3775 825 50  0001 C CNN
	1    3775 825 
	1    0    0    -1  
$EndComp
$Comp
L power:GND #PWR016
U 1 1 5E9565B7
P 3775 925
F 0 "#PWR016" H 3775 675 50  0001 C CNN
F 1 "GND" H 3780 752 50  0000 C CNN
F 2 "" H 3775 925 50  0001 C CNN
F 3 "" H 3775 925 50  0001 C CNN
	1    3775 925 
	1    0    0    -1  
$EndComp
$Comp
L Device:C_Small C7
U 1 1 5E956E2E
P 4075 825
F 0 "C7" H 4167 871 50  0000 L CNN
F 1 "1uF" H 4167 780 50  0000 L CNN
F 2 "Capacitor_SMD:C_0805_2012Metric" H 4075 825 50  0001 C CNN
F 3 "~" H 4075 825 50  0001 C CNN
	1    4075 825 
	1    0    0    -1  
$EndComp
$Comp
L power:GND #PWR019
U 1 1 5E956E34
P 4075 925
F 0 "#PWR019" H 4075 675 50  0001 C CNN
F 1 "GND" H 4080 752 50  0000 C CNN
F 2 "" H 4075 925 50  0001 C CNN
F 3 "" H 4075 925 50  0001 C CNN
	1    4075 925 
	1    0    0    -1  
$EndComp
Wire Wire Line
	3775 725  4075 725 
Connection ~ 4075 725 
Wire Wire Line
	3675 725  3775 725 
Connection ~ 3775 725 
Wire Wire Line
	3375 725  3275 725 
Connection ~ 3275 725 
$Comp
L power:+3.3V #PWR023
U 1 1 5E9642DF
P 4975 725
F 0 "#PWR023" H 4975 575 50  0001 C CNN
F 1 "+3.3V" H 4990 898 50  0000 C CNN
F 2 "" H 4975 725 50  0001 C CNN
F 3 "" H 4975 725 50  0001 C CNN
	1    4975 725 
	1    0    0    -1  
$EndComp
$Comp
L power:+3.3V #PWR05
U 1 1 5E96644D
P 1600 4900
F 0 "#PWR05" H 1600 4750 50  0001 C CNN
F 1 "+3.3V" H 1615 5073 50  0000 C CNN
F 2 "" H 1600 4900 50  0001 C CNN
F 3 "" H 1600 4900 50  0001 C CNN
	1    1600 4900
	1    0    0    -1  
$EndComp
Wire Wire Line
	1600 5200 1600 4900
$Comp
L Connector_Generic:Conn_01x04 J3
U 1 1 5E96817A
P 1700 6850
F 0 "J3" H 1780 6842 50  0000 L CNN
F 1 "SWD" H 1780 6751 50  0000 L CNN
F 2 "Connector_PinHeader_2.54mm:PinHeader_1x04_P2.54mm_Vertical" H 1700 6850 50  0001 C CNN
F 3 "~" H 1700 6850 50  0001 C CNN
	1    1700 6850
	1    0    0    -1  
$EndComp
Text GLabel 1350 7050 0    50   BiDi ~ 0
SYS_SWDIO
Text GLabel 1350 6850 0    50   Output ~ 0
SYS_SWCLK
Wire Wire Line
	1350 6850 1500 6850
Wire Wire Line
	1350 7050 1500 7050
$Comp
L power:GND #PWR04
U 1 1 5E970DC3
P 1450 7150
F 0 "#PWR04" H 1450 6900 50  0001 C CNN
F 1 "GND" H 1455 6977 50  0000 C CNN
F 2 "" H 1450 7150 50  0001 C CNN
F 3 "" H 1450 7150 50  0001 C CNN
	1    1450 7150
	1    0    0    -1  
$EndComp
Wire Wire Line
	1450 7150 1450 6950
Wire Wire Line
	1450 6950 1500 6950
$Comp
L power:+3.3V #PWR03
U 1 1 5E971795
P 1450 6650
F 0 "#PWR03" H 1450 6500 50  0001 C CNN
F 1 "+3.3V" H 1465 6823 50  0000 C CNN
F 2 "" H 1450 6650 50  0001 C CNN
F 3 "" H 1450 6650 50  0001 C CNN
	1    1450 6650
	1    0    0    -1  
$EndComp
Wire Wire Line
	1450 6650 1450 6750
Wire Wire Line
	1450 6750 1500 6750
$Comp
L power:+3.3VA #PWR027
U 1 1 5E97E8F8
P 5325 725
F 0 "#PWR027" H 5325 575 50  0001 C CNN
F 1 "+3.3VA" H 5340 898 50  0000 C CNN
F 2 "" H 5325 725 50  0001 C CNN
F 3 "" H 5325 725 50  0001 C CNN
	1    5325 725 
	1    0    0    -1  
$EndComp
$Comp
L power:GND #PWR028
U 1 1 5E97F0CA
P 5325 1325
F 0 "#PWR028" H 5325 1075 50  0001 C CNN
F 1 "GND" H 5330 1152 50  0000 C CNN
F 2 "" H 5325 1325 50  0001 C CNN
F 3 "" H 5325 1325 50  0001 C CNN
	1    5325 1325
	1    0    0    -1  
$EndComp
$Comp
L Device:C_Small C3
U 1 1 5E986FCC
P 2975 825
F 0 "C3" H 3067 871 50  0000 L CNN
F 1 "1uF" H 3067 780 50  0000 L CNN
F 2 "Capacitor_SMD:C_0805_2012Metric" H 2975 825 50  0001 C CNN
F 3 "~" H 2975 825 50  0001 C CNN
	1    2975 825 
	1    0    0    -1  
$EndComp
$Comp
L power:GND #PWR012
U 1 1 5E986FD2
P 2975 925
F 0 "#PWR012" H 2975 675 50  0001 C CNN
F 1 "GND" H 2980 752 50  0000 C CNN
F 2 "" H 2975 925 50  0001 C CNN
F 3 "" H 2975 925 50  0001 C CNN
	1    2975 925 
	1    0    0    -1  
$EndComp
Wire Wire Line
	2975 725  3275 725 
Connection ~ 2975 725 
$Comp
L Device:R_Small R9
U 1 1 5E9A6A46
P 9850 850
F 0 "R9" V 9654 850 50  0000 C CNN
F 1 "R_Small" V 9745 850 50  0000 C CNN
F 2 "Resistor_SMD:R_0805_2012Metric" H 9850 850 50  0001 C CNN
F 3 "~" H 9850 850 50  0001 C CNN
	1    9850 850 
	0    1    1    0   
$EndComp
$Comp
L Device:R_Small R17
U 1 1 5E9B29F5
P 10350 1350
F 0 "R17" V 10154 1350 50  0000 C CNN
F 1 "R_Small" V 10245 1350 50  0000 C CNN
F 2 "Resistor_SMD:R_0805_2012Metric" H 10350 1350 50  0001 C CNN
F 3 "~" H 10350 1350 50  0001 C CNN
	1    10350 1350
	0    1    1    0   
$EndComp
$Comp
L Device:R_Small R13
U 1 1 5E9B67A5
P 10050 1550
F 0 "R13" H 10109 1596 50  0000 L CNN
F 1 "R_Small" H 10109 1505 50  0000 L CNN
F 2 "Resistor_SMD:R_0805_2012Metric" H 10050 1550 50  0001 C CNN
F 3 "~" H 10050 1550 50  0001 C CNN
	1    10050 1550
	1    0    0    -1  
$EndComp
Wire Wire Line
	10250 1350 10050 1350
Wire Wire Line
	10050 1050 10050 1350
Wire Wire Line
	10650 950  10650 1350
Wire Wire Line
	10650 1350 10450 1350
Wire Wire Line
	10050 1350 10050 1450
Connection ~ 10050 1350
$Comp
L power:GND #PWR047
U 1 1 5E9E8BD5
P 10050 1650
F 0 "#PWR047" H 10050 1400 50  0001 C CNN
F 1 "GND" H 10055 1477 50  0000 C CNN
F 2 "" H 10050 1650 50  0001 C CNN
F 3 "" H 10050 1650 50  0001 C CNN
	1    10050 1650
	1    0    0    -1  
$EndComp
Wire Wire Line
	9950 850  10050 850 
$Comp
L Device:R_Small R19
U 1 1 5E9F3832
P 10350 4100
F 0 "R19" V 10154 4100 50  0000 C CNN
F 1 "R_Small" V 10245 4100 50  0000 C CNN
F 2 "Resistor_SMD:R_0805_2012Metric" H 10350 4100 50  0001 C CNN
F 3 "~" H 10350 4100 50  0001 C CNN
	1    10350 4100
	0    1    1    0   
$EndComp
$Comp
L Device:R_Small R15
U 1 1 5E9F3838
P 10050 4300
F 0 "R15" H 10109 4346 50  0000 L CNN
F 1 "R_Small" H 10109 4255 50  0000 L CNN
F 2 "Resistor_SMD:R_0805_2012Metric" H 10050 4300 50  0001 C CNN
F 3 "~" H 10050 4300 50  0001 C CNN
	1    10050 4300
	1    0    0    -1  
$EndComp
Wire Wire Line
	10250 4100 10050 4100
Wire Wire Line
	10050 3800 10050 4100
Wire Wire Line
	10650 3700 10650 4100
Wire Wire Line
	10650 4100 10450 4100
Wire Wire Line
	10050 4100 10050 4200
Connection ~ 10050 4100
$Comp
L power:GND #PWR049
U 1 1 5E9F3844
P 10050 4400
F 0 "#PWR049" H 10050 4150 50  0001 C CNN
F 1 "GND" H 10055 4227 50  0000 C CNN
F 2 "" H 10050 4400 50  0001 C CNN
F 3 "" H 10050 4400 50  0001 C CNN
	1    10050 4400
	1    0    0    -1  
$EndComp
$Comp
L Device:R_Small R18
U 1 1 5E9F6856
P 10350 2750
F 0 "R18" V 10154 2750 50  0000 C CNN
F 1 "R_Small" V 10245 2750 50  0000 C CNN
F 2 "Resistor_SMD:R_0805_2012Metric" H 10350 2750 50  0001 C CNN
F 3 "~" H 10350 2750 50  0001 C CNN
	1    10350 2750
	0    1    1    0   
$EndComp
$Comp
L Device:R_Small R14
U 1 1 5E9F685C
P 10050 2950
F 0 "R14" H 10109 2996 50  0000 L CNN
F 1 "R_Small" H 10109 2905 50  0000 L CNN
F 2 "Resistor_SMD:R_0805_2012Metric" H 10050 2950 50  0001 C CNN
F 3 "~" H 10050 2950 50  0001 C CNN
	1    10050 2950
	1    0    0    -1  
$EndComp
Wire Wire Line
	10250 2750 10050 2750
Wire Wire Line
	10050 2450 10050 2750
Wire Wire Line
	10650 2350 10650 2750
Wire Wire Line
	10650 2750 10450 2750
Wire Wire Line
	10050 2750 10050 2850
Connection ~ 10050 2750
$Comp
L power:GND #PWR048
U 1 1 5E9F6868
P 10050 3050
F 0 "#PWR048" H 10050 2800 50  0001 C CNN
F 1 "GND" H 10055 2877 50  0000 C CNN
F 2 "" H 10050 3050 50  0001 C CNN
F 3 "" H 10050 3050 50  0001 C CNN
	1    10050 3050
	1    0    0    -1  
$EndComp
$Comp
L Device:R_Small R20
U 1 1 5E9F8B5C
P 10350 5450
F 0 "R20" V 10154 5450 50  0000 C CNN
F 1 "R_Small" V 10245 5450 50  0000 C CNN
F 2 "Resistor_SMD:R_0805_2012Metric" H 10350 5450 50  0001 C CNN
F 3 "~" H 10350 5450 50  0001 C CNN
	1    10350 5450
	0    1    1    0   
$EndComp
$Comp
L Device:R_Small R16
U 1 1 5E9F8B62
P 10050 5650
F 0 "R16" H 10109 5696 50  0000 L CNN
F 1 "R_Small" H 10109 5605 50  0000 L CNN
F 2 "Resistor_SMD:R_0805_2012Metric" H 10050 5650 50  0001 C CNN
F 3 "~" H 10050 5650 50  0001 C CNN
	1    10050 5650
	1    0    0    -1  
$EndComp
Wire Wire Line
	10250 5450 10050 5450
Wire Wire Line
	10050 5150 10050 5450
Wire Wire Line
	10650 5050 10650 5450
Wire Wire Line
	10650 5450 10450 5450
Wire Wire Line
	10050 5450 10050 5550
Connection ~ 10050 5450
$Comp
L power:GND #PWR050
U 1 1 5E9F8B6E
P 10050 5750
F 0 "#PWR050" H 10050 5500 50  0001 C CNN
F 1 "GND" H 10055 5577 50  0000 C CNN
F 2 "" H 10050 5750 50  0001 C CNN
F 3 "" H 10050 5750 50  0001 C CNN
	1    10050 5750
	1    0    0    -1  
$EndComp
$Comp
L Amplifier_Operational:LM324A U4
U 1 1 5E9FD1F6
P 10350 950
F 0 "U4" H 10350 1317 50  0000 C CNN
F 1 "LM324A" H 10350 1226 50  0000 C CNN
F 2 "Package_SO:SOIC-14_3.9x8.7mm_P1.27mm" H 10300 1050 50  0001 C CNN
F 3 "http://www.ti.com/lit/ds/symlink/lm2902-n.pdf" H 10400 1150 50  0001 C CNN
	1    10350 950 
	1    0    0    -1  
$EndComp
$Comp
L Amplifier_Operational:LM324A U4
U 2 1 5EA0380B
P 10350 2350
F 0 "U4" H 10350 2717 50  0000 C CNN
F 1 "LM324A" H 10350 2626 50  0000 C CNN
F 2 "Package_SO:SOIC-14_3.9x8.7mm_P1.27mm" H 10300 2450 50  0001 C CNN
F 3 "http://www.ti.com/lit/ds/symlink/lm2902-n.pdf" H 10400 2550 50  0001 C CNN
	2    10350 2350
	1    0    0    -1  
$EndComp
$Comp
L Amplifier_Operational:LM324A U4
U 3 1 5EA06FEC
P 10350 3700
F 0 "U4" H 10350 4067 50  0000 C CNN
F 1 "LM324A" H 10350 3976 50  0000 C CNN
F 2 "Package_SO:SOIC-14_3.9x8.7mm_P1.27mm" H 10300 3800 50  0001 C CNN
F 3 "http://www.ti.com/lit/ds/symlink/lm2902-n.pdf" H 10400 3900 50  0001 C CNN
	3    10350 3700
	1    0    0    -1  
$EndComp
$Comp
L Amplifier_Operational:LM324A U4
U 4 1 5EA09269
P 10350 5050
F 0 "U4" H 10350 5417 50  0000 C CNN
F 1 "LM324A" H 10350 5326 50  0000 C CNN
F 2 "Package_SO:SOIC-14_3.9x8.7mm_P1.27mm" H 10300 5150 50  0001 C CNN
F 3 "http://www.ti.com/lit/ds/symlink/lm2902-n.pdf" H 10400 5250 50  0001 C CNN
	4    10350 5050
	1    0    0    -1  
$EndComp
$Comp
L Amplifier_Operational:LM324A U4
U 5 1 5EA13311
P 5425 1025
F 0 "U4" H 5383 1071 50  0000 L CNN
F 1 "LM324A" H 5383 980 50  0000 L CNN
F 2 "Package_SO:SOIC-14_3.9x8.7mm_P1.27mm" H 5375 1125 50  0001 C CNN
F 3 "http://www.ti.com/lit/ds/symlink/lm2902-n.pdf" H 5475 1225 50  0001 C CNN
	5    5425 1025
	1    0    0    -1  
$EndComp
$Comp
L Device:R_Small R11
U 1 1 5EA53ECD
P 9850 3600
F 0 "R11" V 9654 3600 50  0000 C CNN
F 1 "R_Small" V 9745 3600 50  0000 C CNN
F 2 "Resistor_SMD:R_0805_2012Metric" H 9850 3600 50  0001 C CNN
F 3 "~" H 9850 3600 50  0001 C CNN
	1    9850 3600
	0    1    1    0   
$EndComp
Wire Wire Line
	9950 3600 10050 3600
$Comp
L Device:R_Small R10
U 1 1 5EA563A0
P 9850 2250
F 0 "R10" V 9654 2250 50  0000 C CNN
F 1 "R_Small" V 9745 2250 50  0000 C CNN
F 2 "Resistor_SMD:R_0805_2012Metric" H 9850 2250 50  0001 C CNN
F 3 "~" H 9850 2250 50  0001 C CNN
	1    9850 2250
	0    1    1    0   
$EndComp
Wire Wire Line
	9950 2250 10050 2250
$Comp
L Device:R_Small R12
U 1 1 5EA584AE
P 9850 4950
F 0 "R12" V 9654 4950 50  0000 C CNN
F 1 "R_Small" V 9745 4950 50  0000 C CNN
F 2 "Resistor_SMD:R_0805_2012Metric" H 9850 4950 50  0001 C CNN
F 3 "~" H 9850 4950 50  0001 C CNN
	1    9850 4950
	0    1    1    0   
$EndComp
Wire Wire Line
	9950 4950 10050 4950
Wire Wire Line
	10650 950  10750 950 
Connection ~ 10650 950 
Wire Wire Line
	10650 3700 10750 3700
Text GLabel 10750 2350 2    50   Output ~ 0
AN1
Wire Wire Line
	10650 2350 10750 2350
Text GLabel 10750 5050 2    50   Output ~ 0
AN3
Wire Wire Line
	10650 5050 10750 5050
Text GLabel 2950 3150 2    50   UnSpc ~ 0
AN0
Text GLabel 2950 3050 2    50   UnSpc ~ 0
AN1
Text GLabel 2950 2950 2    50   UnSpc ~ 0
AN2
Text GLabel 2950 2850 2    50   UnSpc ~ 0
AN3
Connection ~ 10650 2350
Connection ~ 10650 5050
Text GLabel 9600 850  0    50   Input ~ 0
INA0
Wire Wire Line
	9600 850  9750 850 
Wire Wire Line
	9600 3600 9750 3600
Connection ~ 10650 3700
Text GLabel 9600 2250 0    50   Input ~ 0
INA1
Wire Wire Line
	9600 2250 9750 2250
Text GLabel 9600 4950 0    50   Input ~ 0
INA3
Wire Wire Line
	9600 4950 9750 4950
$Comp
L Connector:Screw_Terminal_01x02 J11
U 1 1 5EA4911B
P 8575 3575
F 0 "J11" H 8655 3567 50  0000 L CNN
F 1 "Motor1" H 8655 3476 50  0000 L CNN
F 2 "TerminalBlock_Phoenix:TerminalBlock_Phoenix_MKDS-1,5-2-5.08_1x02_P5.08mm_Horizontal" H 8575 3575 50  0001 C CNN
F 3 "~" H 8575 3575 50  0001 C CNN
	1    8575 3575
	1    0    0    -1  
$EndComp
Text GLabel 7225 3525 0    50   Input ~ 0
DRV1_B
Wire Wire Line
	7225 3525 7275 3525
$Comp
L power:+3.3VA #PWR045
U 1 1 5EA5AEA4
P 8700 3175
F 0 "#PWR045" H 8700 3025 50  0001 C CNN
F 1 "+3.3VA" H 8715 3348 50  0000 C CNN
F 2 "" H 8700 3175 50  0001 C CNN
F 3 "" H 8700 3175 50  0001 C CNN
	1    8700 3175
	1    0    0    -1  
$EndComp
Text GLabel 1750 2550 0    50   UnSpc ~ 0
DRV1_I
Text GLabel 1750 1850 0    50   Output ~ 0
DRV1_F
Text GLabel 2950 3650 2    50   Output ~ 0
DRV1_B
$Comp
L power:+3.3VA #PWR011
U 1 1 5EA15A54
P 2975 725
F 0 "#PWR011" H 2975 575 50  0001 C CNN
F 1 "+3.3VA" H 2990 898 50  0000 C CNN
F 2 "" H 2975 725 50  0001 C CNN
F 3 "" H 2975 725 50  0001 C CNN
	1    2975 725 
	1    0    0    -1  
$EndComp
Text GLabel 10750 3700 2    50   Output ~ 0
AN2
Text GLabel 9600 3600 0    50   Input ~ 0
INA2
Text GLabel 10750 950  2    50   Output ~ 0
AN0
$Sheet
S 7275 3200 1100 1150
U 5F0FA820
F0 "motor_module_1" 50
F1 "file5F0FA81F.sch" 50
F2 "DRV_I" O L 7275 3325 50 
F3 "DRV_F" I L 7275 3425 50 
F4 "DRV_B" I L 7275 3525 50 
F5 "+12V" I R 8375 3325 50 
F6 "+3.3V" I R 8375 3425 50 
F7 "DRV+" O R 8375 3575 50 
F8 "DRV-" O R 8375 3675 50 
F9 "GND" U R 8375 3800 50 
$EndSheet
Wire Wire Line
	7275 3325 7225 3325
Text GLabel 7225 3325 0    50   UnSpc ~ 0
DRV1_I
Wire Wire Line
	7225 3425 7275 3425
Text GLabel 7225 3425 0    50   Input ~ 0
DRV1_F
Wire Wire Line
	8450 3175 8450 3325
Wire Wire Line
	8450 3325 8375 3325
Wire Wire Line
	8700 3175 8700 3425
Wire Wire Line
	8700 3425 8375 3425
$Comp
L power:GND #PWR043
U 1 1 5F28ABEB
P 8500 3875
F 0 "#PWR043" H 8500 3625 50  0001 C CNN
F 1 "GND" H 8505 3702 50  0000 C CNN
F 2 "" H 8500 3875 50  0001 C CNN
F 3 "" H 8500 3875 50  0001 C CNN
	1    8500 3875
	1    0    0    -1  
$EndComp
Wire Wire Line
	8375 3800 8500 3800
Wire Wire Line
	8500 3800 8500 3875
$Comp
L Connector:Screw_Terminal_01x02 J12
U 1 1 5F2AEC4B
P 8575 5125
F 0 "J12" H 8655 5117 50  0000 L CNN
F 1 "Motor2" H 8655 5026 50  0000 L CNN
F 2 "TerminalBlock_Phoenix:TerminalBlock_Phoenix_MKDS-1,5-2-5.08_1x02_P5.08mm_Horizontal" H 8575 5125 50  0001 C CNN
F 3 "~" H 8575 5125 50  0001 C CNN
	1    8575 5125
	1    0    0    -1  
$EndComp
Text GLabel 7225 5075 0    50   Input ~ 0
DRV2_B
Wire Wire Line
	7225 5075 7275 5075
$Comp
L power:+3.3VA #PWR046
U 1 1 5F2AEC53
P 8700 4725
F 0 "#PWR046" H 8700 4575 50  0001 C CNN
F 1 "+3.3VA" H 8715 4898 50  0000 C CNN
F 2 "" H 8700 4725 50  0001 C CNN
F 3 "" H 8700 4725 50  0001 C CNN
	1    8700 4725
	1    0    0    -1  
$EndComp
$Sheet
S 7275 4750 1100 1150
U 5F2AEC5D
F0 "motor_module_2" 50
F1 "file5F0FA81F.sch" 50
F2 "DRV_I" O L 7275 4875 50 
F3 "DRV_F" I L 7275 4975 50 
F4 "DRV_B" I L 7275 5075 50 
F5 "+12V" I R 8375 4875 50 
F6 "+3.3V" I R 8375 4975 50 
F7 "DRV+" O R 8375 5125 50 
F8 "DRV-" O R 8375 5225 50 
F9 "GND" U R 8375 5350 50 
$EndSheet
Wire Wire Line
	7275 4875 7225 4875
Text GLabel 7225 4875 0    50   UnSpc ~ 0
DRV2_I
Wire Wire Line
	7225 4975 7275 4975
Text GLabel 7225 4975 0    50   Input ~ 0
DRV2_F
Wire Wire Line
	8450 4725 8450 4875
Wire Wire Line
	8450 4875 8375 4875
Wire Wire Line
	8700 4725 8700 4975
Wire Wire Line
	8700 4975 8375 4975
$Comp
L power:GND #PWR044
U 1 1 5F2AEC71
P 8500 5425
F 0 "#PWR044" H 8500 5175 50  0001 C CNN
F 1 "GND" H 8505 5252 50  0000 C CNN
F 2 "" H 8500 5425 50  0001 C CNN
F 3 "" H 8500 5425 50  0001 C CNN
	1    8500 5425
	1    0    0    -1  
$EndComp
Wire Wire Line
	8375 5350 8500 5350
Wire Wire Line
	8500 5350 8500 5425
$Comp
L power:GND #PWR034
U 1 1 5EBC0697
P 6150 3475
F 0 "#PWR034" H 6150 3225 50  0001 C CNN
F 1 "GND" H 6155 3302 50  0000 C CNN
F 2 "" H 6150 3475 50  0001 C CNN
F 3 "" H 6150 3475 50  0001 C CNN
	1    6150 3475
	1    0    0    -1  
$EndComp
Wire Wire Line
	6025 3275 6150 3275
Wire Wire Line
	6150 3275 6150 3475
Wire Wire Line
	6025 2850 6175 2850
Wire Wire Line
	6175 2850 6175 2625
Text GLabel 2950 4050 2    50   Output ~ 0
DRV2_F
Text GLabel 1750 1950 0    50   Output ~ 0
DRV2_B
Text GLabel 1750 2650 0    50   UnSpc ~ 0
DRV2_I
$Sheet
S 5350 4100 650  575 
U 5EB8A48F
F0 "power_module_2" 50
F1 "file5EB7FD90.sch" 50
F2 "GND" I R 6000 4600 50 
F3 "load" I R 6000 4350 50 
F4 "+12V" I R 6000 4175 50 
F5 "in" I L 5350 4375 50 
$EndSheet
$Comp
L power:GND #PWR031
U 1 1 5EB8A495
P 6125 4800
F 0 "#PWR031" H 6125 4550 50  0001 C CNN
F 1 "GND" H 6130 4627 50  0000 C CNN
F 2 "" H 6125 4800 50  0001 C CNN
F 3 "" H 6125 4800 50  0001 C CNN
	1    6125 4800
	1    0    0    -1  
$EndComp
Wire Wire Line
	6000 4600 6125 4600
Wire Wire Line
	6125 4600 6125 4800
Wire Wire Line
	6000 4175 6150 4175
Wire Wire Line
	6150 4175 6150 3950
$Sheet
S 5350 6725 650  575 
U 5EC34434
F0 "power_module_4" 50
F1 "file5EB7FD90.sch" 50
F2 "GND" I R 6000 7225 50 
F3 "load" I R 6000 6975 50 
F4 "+12V" I R 6000 6800 50 
F5 "in" I L 5350 7000 50 
$EndSheet
$Comp
L power:GND #PWR033
U 1 1 5EC3443A
P 6125 7425
F 0 "#PWR033" H 6125 7175 50  0001 C CNN
F 1 "GND" H 6130 7252 50  0000 C CNN
F 2 "" H 6125 7425 50  0001 C CNN
F 3 "" H 6125 7425 50  0001 C CNN
	1    6125 7425
	1    0    0    -1  
$EndComp
Wire Wire Line
	6000 7225 6125 7225
Wire Wire Line
	6125 7225 6125 7425
Wire Wire Line
	6000 6800 6150 6800
Wire Wire Line
	6150 6800 6150 6575
$Comp
L power:GND #PWR030
U 1 1 5EB936FC
P 6100 6125
F 0 "#PWR030" H 6100 5875 50  0001 C CNN
F 1 "GND" H 6105 5952 50  0000 C CNN
F 2 "" H 6100 6125 50  0001 C CNN
F 3 "" H 6100 6125 50  0001 C CNN
	1    6100 6125
	1    0    0    -1  
$EndComp
Wire Wire Line
	5975 5925 6100 5925
Wire Wire Line
	6100 5925 6100 6125
Wire Wire Line
	5975 5500 6125 5500
Text GLabel 5275 3050 0    50   Input ~ 0
PM1
Text GLabel 5250 4375 0    50   Input ~ 0
PM2
Text GLabel 5225 5700 0    50   Input ~ 0
PM3
Text GLabel 5250 7000 0    50   Input ~ 0
PM4
Wire Wire Line
	5275 3050 5375 3050
Wire Wire Line
	5250 4375 5350 4375
Wire Wire Line
	5225 5700 5325 5700
Wire Wire Line
	5250 7000 5350 7000
Text GLabel 875  3875 0    50   BiDi ~ 0
I2C_SDA
Text GLabel 875  3775 0    50   BiDi ~ 0
I2C_SCL
Text GLabel 1025 2675 0    50   BiDi ~ 0
SPI_MOSI
Text GLabel 1025 2550 0    50   BiDi ~ 0
SPI_MISO
Text GLabel 1025 2425 0    50   BiDi ~ 0
SPI_SCK
Text GLabel 2950 2650 2    50   UnSpc ~ 0
AN5
Text GLabel 2950 2550 2    50   UnSpc ~ 0
AN6
Text GLabel 1750 3350 0    50   Output ~ 0
PM1
Text GLabel 1750 3450 0    50   Output ~ 0
PM2
Text GLabel 1750 2250 0    50   Output ~ 0
PM4
Text GLabel 1750 2150 0    50   Output ~ 0
PM3
$Comp
L Connector:Screw_Terminal_01x08 J7
U 1 1 5EBDD310
P 4300 6075
F 0 "J7" H 4380 6067 50  0000 L CNN
F 1 "GPIO" H 4380 5976 50  0000 L CNN
F 2 "TerminalBlock_Phoenix:TerminalBlock_Phoenix_PT-1,5-8-3.5-H_1x08_P3.50mm_Horizontal" H 4300 6075 50  0001 C CNN
F 3 "~" H 4300 6075 50  0001 C CNN
	1    4300 6075
	1    0    0    -1  
$EndComp
Text GLabel 3700 5775 0    50   BiDi ~ 0
GPIO0
Text GLabel 3700 5875 0    50   BiDi ~ 0
GPIO1
Text GLabel 3700 5975 0    50   BiDi ~ 0
GPIO2
Text GLabel 3700 6175 0    50   BiDi ~ 0
GPIO4
Text GLabel 3700 6275 0    50   BiDi ~ 0
GPIO5
Text GLabel 3700 6375 0    50   BiDi ~ 0
GPIO6
Text GLabel 3700 6475 0    50   BiDi ~ 0
GPIO7
Text GLabel 3700 6075 0    50   BiDi ~ 0
GPIO3
Text GLabel 2950 3350 2    50   BiDi ~ 0
GPIO0
Text GLabel 1750 4050 0    50   BiDi ~ 0
GPIO1
Text GLabel 1750 3950 0    50   BiDi ~ 0
GPIO2
Text GLabel 1750 3750 0    50   BiDi ~ 0
GPIO4
Text GLabel 1750 3650 0    50   BiDi ~ 0
GPIO5
Text GLabel 1750 3550 0    50   BiDi ~ 0
GPIO6
Text GLabel 1750 2750 0    50   BiDi ~ 0
GPIO7
Text GLabel 1750 3850 0    50   BiDi ~ 0
GPIO3
$Sheet
S 5375 2775 650  575 
U 5EB7FD91
F0 "power_module_1" 50
F1 "file5EB7FD90.sch" 50
F2 "GND" I R 6025 3275 50 
F3 "load" I R 6025 3025 50 
F4 "+12V" I R 6025 2850 50 
F5 "in" I L 5375 3050 50 
$EndSheet
$Comp
L hard-rescue:INA199B1QDCKRQ1-INA199B1QDCKRQ1 U?
U 1 1 5EC3CE66
P 5500 2150
AR Path="/5F0FA820/5EC3CE66" Ref="U?"  Part="1" 
AR Path="/5F2AEC5D/5EC3CE66" Ref="U?"  Part="1" 
AR Path="/5EC3CE66" Ref="U3"  Part="1" 
F 0 "U3" H 6000 2415 50  0000 C CNN
F 1 "INA199B1QDCKRQ1" H 6000 2324 50  0000 C CNN
F 2 "Package_TO_SOT_SMD:SOT-363_SC-70-6" H 6350 2250 50  0001 L CNN
F 3 "http://www.ti.com/lit/gpn/ina199-q1" H 6350 2150 50  0001 L CNN
F 4 "AEC-Q100, 26V, Bi-Directional, Zero-Drift, Low-/High-Side, Voltage Output Current Sense Amplifier" H 6350 2050 50  0001 L CNN "Description"
F 5 "1.1" H 6350 1950 50  0001 L CNN "Height"
F 6 "Texas Instruments" H 6350 1850 50  0001 L CNN "Manufacturer_Name"
F 7 "INA199B1QDCKRQ1" H 6350 1750 50  0001 L CNN "Manufacturer_Part_Number"
F 8 "595-INA199B1QDCKRQ1" H 6350 1650 50  0001 L CNN "Mouser Part Number"
F 9 "https://www.mouser.com/Search/Refine.aspx?Keyword=595-INA199B1QDCKRQ1" H 6350 1550 50  0001 L CNN "Mouser Price/Stock"
F 10 "" H 6350 1450 50  0001 L CNN "RS Part Number"
F 11 "" H 6350 1350 50  0001 L CNN "RS Price/Stock"
	1    5500 2150
	-1   0    0    1   
$EndComp
$Comp
L power:GND #PWR?
U 1 1 5EC3CE76
P 5500 2225
AR Path="/5F0FA820/5EC3CE76" Ref="#PWR?"  Part="1" 
AR Path="/5F2AEC5D/5EC3CE76" Ref="#PWR?"  Part="1" 
AR Path="/5EC3CE76" Ref="#PWR026"  Part="1" 
F 0 "#PWR026" H 5500 1975 50  0001 C CNN
F 1 "GND" H 5505 2052 50  0000 C CNN
F 2 "" H 5500 2225 50  0001 C CNN
F 3 "" H 5500 2225 50  0001 C CNN
	1    5500 2225
	1    0    0    -1  
$EndComp
Wire Wire Line
	5500 2050 5500 2150
Wire Wire Line
	5500 2150 5500 2225
Connection ~ 5500 2150
$Comp
L power:+3.3VA #PWR025
U 1 1 5EC5473C
P 5500 1900
F 0 "#PWR025" H 5500 1750 50  0001 C CNN
F 1 "+3.3VA" H 5515 2073 50  0000 C CNN
F 2 "" H 5500 1900 50  0001 C CNN
F 3 "" H 5500 1900 50  0001 C CNN
	1    5500 1900
	1    0    0    -1  
$EndComp
Wire Wire Line
	4450 1750 4500 1750
Text GLabel 4300 2150 0    50   UnSpc ~ 0
MAIN_I
Wire Wire Line
	4300 2150 4500 2150
$Comp
L Device:R R?
U 1 1 5EC3CE6C
P 4300 1750
AR Path="/5F0FA820/5EC3CE6C" Ref="R?"  Part="1" 
AR Path="/5F2AEC5D/5EC3CE6C" Ref="R?"  Part="1" 
AR Path="/5EC3CE6C" Ref="R8"  Part="1" 
F 0 "R8" H 4370 1796 50  0000 L CNN
F 1 "0.01" H 4370 1705 50  0000 L CNN
F 2 "Resistor_SMD:R_1218_3246Metric" V 4230 1750 50  0001 C CNN
F 3 "~" H 4300 1750 50  0001 C CNN
	1    4300 1750
	0    -1   -1   0   
$EndComp
$Comp
L Device:L L2
U 1 1 5ED362D4
P 3750 1600
F 0 "L2" V 3940 1600 50  0000 C CNN
F 1 "PtoD" V 3849 1600 50  0000 C CNN
F 2 "Inductor_THT:L_Axial_L7.0mm_D3.3mm_P5.08mm_Vertical_Fastron_MICC" H 3750 1600 50  0001 C CNN
F 3 "~" H 3750 1600 50  0001 C CNN
	1    3750 1600
	-1   0    0    1   
$EndComp
$Comp
L Device:CP_Small C5
U 1 1 5ED4FFC0
P 3750 1950
F 0 "C5" H 3838 1996 50  0000 L CNN
F 1 "100uF" H 3838 1905 50  0000 L CNN
F 2 "Capacitor_SMD:CP_Elec_6.3x7.7" H 3750 1950 50  0001 C CNN
F 3 "~" H 3750 1950 50  0001 C CNN
	1    3750 1950
	1    0    0    -1  
$EndComp
$Comp
L power:GND #PWR015
U 1 1 5ED4FFC6
P 3750 2050
F 0 "#PWR015" H 3750 1800 50  0001 C CNN
F 1 "GND" H 3755 1877 50  0000 C CNN
F 2 "" H 3750 2050 50  0001 C CNN
F 3 "" H 3750 2050 50  0001 C CNN
	1    3750 2050
	1    0    0    -1  
$EndComp
Wire Wire Line
	3750 1750 3750 1850
Connection ~ 3750 1750
$Comp
L power:+12P #PWR038
U 1 1 5ED793CE
P 6175 2625
F 0 "#PWR038" H 6175 2475 50  0001 C CNN
F 1 "+12P" H 6190 2798 50  0000 C CNN
F 2 "" H 6175 2625 50  0001 C CNN
F 3 "" H 6175 2625 50  0001 C CNN
	1    6175 2625
	1    0    0    -1  
$EndComp
Wire Wire Line
	6125 5500 6125 5275
$Sheet
S 5325 5425 650  575 
U 5EB936F6
F0 "power_module_3" 50
F1 "file5EB7FD90.sch" 50
F2 "GND" I R 5975 5925 50 
F3 "load" I R 5975 5675 50 
F4 "+12V" I R 5975 5500 50 
F5 "in" I L 5325 5700 50 
$EndSheet
$Comp
L power:+12P #PWR035
U 1 1 5EDC0F1E
P 6150 3950
F 0 "#PWR035" H 6150 3800 50  0001 C CNN
F 1 "+12P" H 6165 4123 50  0000 C CNN
F 2 "" H 6150 3950 50  0001 C CNN
F 3 "" H 6150 3950 50  0001 C CNN
	1    6150 3950
	1    0    0    -1  
$EndComp
$Comp
L power:+12P #PWR032
U 1 1 5EDC7690
P 6125 5275
F 0 "#PWR032" H 6125 5125 50  0001 C CNN
F 1 "+12P" H 6140 5448 50  0000 C CNN
F 2 "" H 6125 5275 50  0001 C CNN
F 3 "" H 6125 5275 50  0001 C CNN
	1    6125 5275
	1    0    0    -1  
$EndComp
$Comp
L power:+12P #PWR036
U 1 1 5EDCD529
P 6150 6575
F 0 "#PWR036" H 6150 6425 50  0001 C CNN
F 1 "+12P" H 6165 6748 50  0000 C CNN
F 2 "" H 6150 6575 50  0001 C CNN
F 3 "" H 6150 6575 50  0001 C CNN
	1    6150 6575
	1    0    0    -1  
$EndComp
$Comp
L power:+12P #PWR041
U 1 1 5EDD3C26
P 8450 3175
F 0 "#PWR041" H 8450 3025 50  0001 C CNN
F 1 "+12P" H 8465 3348 50  0000 C CNN
F 2 "" H 8450 3175 50  0001 C CNN
F 3 "" H 8450 3175 50  0001 C CNN
	1    8450 3175
	1    0    0    -1  
$EndComp
$Comp
L power:+12P #PWR042
U 1 1 5EDD9BE9
P 8450 4725
F 0 "#PWR042" H 8450 4575 50  0001 C CNN
F 1 "+12P" H 8465 4898 50  0000 C CNN
F 2 "" H 8450 4725 50  0001 C CNN
F 3 "" H 8450 4725 50  0001 C CNN
	1    8450 4725
	1    0    0    -1  
$EndComp
$Comp
L power:+12V #PWR020
U 1 1 5EE269D9
P 3750 1450
F 0 "#PWR020" H 3750 1300 50  0001 C CNN
F 1 "+12V" H 3765 1623 50  0000 C CNN
F 2 "" H 3750 1450 50  0001 C CNN
F 3 "" H 3750 1450 50  0001 C CNN
	1    3750 1450
	1    0    0    -1  
$EndComp
Wire Wire Line
	4500 1750 4500 1675
Text GLabel 2950 3250 2    50   UnSpc ~ 0
MAIN_I
$Comp
L Connector:Screw_Terminal_01x08 J8
U 1 1 5EEC050C
P 4300 7075
F 0 "J8" H 4380 7067 50  0000 L CNN
F 1 "Analog" H 4380 6976 50  0000 L CNN
F 2 "TerminalBlock_Phoenix:TerminalBlock_Phoenix_PT-1,5-8-3.5-H_1x08_P3.50mm_Horizontal" H 4300 7075 50  0001 C CNN
F 3 "~" H 4300 7075 50  0001 C CNN
	1    4300 7075
	1    0    0    -1  
$EndComp
Text GLabel 4050 6775 0    50   Input ~ 0
INA0
Text GLabel 4050 6875 0    50   Input ~ 0
INA1
Text GLabel 4050 6975 0    50   Input ~ 0
INA2
Text GLabel 4050 7075 0    50   Input ~ 0
INA3
Text GLabel 4050 7175 0    50   UnSpc ~ 0
AN4
Text GLabel 4050 7275 0    50   UnSpc ~ 0
AN5
Text GLabel 4050 7375 0    50   UnSpc ~ 0
AN6
Wire Wire Line
	4500 1750 4500 1950
Connection ~ 4500 1750
Wire Wire Line
	4500 2050 4100 2050
Wire Wire Line
	4100 2050 4100 1750
Wire Wire Line
	4100 1750 4150 1750
Wire Wire Line
	5500 1900 5500 1950
$Comp
L Device:C_Small C11
U 1 1 5ECE1D10
P 5675 2125
F 0 "C11" H 5767 2171 50  0000 L CNN
F 1 "1uF" H 5767 2080 50  0000 L CNN
F 2 "Capacitor_SMD:C_0805_2012Metric" H 5675 2125 50  0001 C CNN
F 3 "~" H 5675 2125 50  0001 C CNN
	1    5675 2125
	1    0    0    -1  
$EndComp
$Comp
L power:GND #PWR029
U 1 1 5ECE1D16
P 5675 2225
F 0 "#PWR029" H 5675 1975 50  0001 C CNN
F 1 "GND" H 5680 2052 50  0000 C CNN
F 2 "" H 5675 2225 50  0001 C CNN
F 3 "" H 5675 2225 50  0001 C CNN
	1    5675 2225
	1    0    0    -1  
$EndComp
Wire Wire Line
	5500 1950 5675 1950
Wire Wire Line
	5675 1950 5675 2025
Connection ~ 5500 1950
$Comp
L Connector:Screw_Terminal_01x02 J9
U 1 1 5ED11E55
P 6575 3025
F 0 "J9" H 6655 3017 50  0000 L CNN
F 1 "PM1" H 6655 2926 50  0000 L CNN
F 2 "TerminalBlock_Phoenix:TerminalBlock_Phoenix_MKDS-1,5-2-5.08_1x02_P5.08mm_Horizontal" H 6575 3025 50  0001 C CNN
F 3 "~" H 6575 3025 50  0001 C CNN
	1    6575 3025
	1    0    0    -1  
$EndComp
$Comp
L Connector:Screw_Terminal_01x02 J10
U 1 1 5ED1FBA6
P 6575 4350
F 0 "J10" H 6655 4342 50  0000 L CNN
F 1 "PM2" H 6655 4251 50  0000 L CNN
F 2 "TerminalBlock_Phoenix:TerminalBlock_Phoenix_MKDS-1,5-2-5.08_1x02_P5.08mm_Horizontal" H 6575 4350 50  0001 C CNN
F 3 "~" H 6575 4350 50  0001 C CNN
	1    6575 4350
	1    0    0    -1  
$EndComp
Wire Wire Line
	5975 5675 6375 5675
Wire Wire Line
	6375 6975 6000 6975
Wire Wire Line
	6025 3025 6375 3025
Wire Wire Line
	6375 4350 6000 4350
$Comp
L Connector_Generic:Conn_02x07_Odd_Even J5
U 1 1 5ED6AFBA
P 3425 7075
F 0 "J5" H 3475 7592 50  0000 C CNN
F 1 "+VA Resistor" H 3475 7501 50  0000 C CNN
F 2 "Connector_PinHeader_2.54mm:PinHeader_2x07_P2.54mm_Vertical" H 3425 7075 50  0001 C CNN
F 3 "~" H 3425 7075 50  0001 C CNN
	1    3425 7075
	1    0    0    -1  
$EndComp
Wire Wire Line
	4050 7075 4075 7075
Wire Wire Line
	4050 7175 4075 7175
Wire Wire Line
	4050 7275 4075 7275
Wire Wire Line
	4050 7375 4075 7375
Wire Wire Line
	4050 6975 4075 6975
Wire Wire Line
	4050 6875 4075 6875
Wire Wire Line
	4050 6775 4075 6775
Wire Wire Line
	4075 6775 4075 6825
Wire Wire Line
	4075 6825 3725 6825
Wire Wire Line
	3725 6825 3725 6775
Connection ~ 4075 6775
Wire Wire Line
	4075 6775 4100 6775
Wire Wire Line
	3725 6875 3725 6925
Wire Wire Line
	3725 6925 4075 6925
Wire Wire Line
	4075 6925 4075 6875
Connection ~ 4075 6875
Wire Wire Line
	4075 6875 4100 6875
Wire Wire Line
	4075 6975 4075 7025
Wire Wire Line
	4075 7025 3725 7025
Wire Wire Line
	3725 7025 3725 6975
Connection ~ 4075 6975
Wire Wire Line
	4075 6975 4100 6975
Wire Wire Line
	3725 7125 4075 7125
Wire Wire Line
	4075 7125 4075 7075
Connection ~ 4075 7075
Wire Wire Line
	4075 7075 4100 7075
Wire Wire Line
	4075 7175 4075 7225
Wire Wire Line
	4075 7225 3725 7225
Wire Wire Line
	3725 7225 3725 7175
Connection ~ 4075 7175
Wire Wire Line
	4075 7175 4100 7175
Wire Wire Line
	3725 7125 3725 7075
Wire Wire Line
	4075 7275 4075 7325
Wire Wire Line
	4075 7325 3725 7325
Wire Wire Line
	3725 7325 3725 7275
Connection ~ 4075 7275
Wire Wire Line
	4075 7275 4100 7275
Wire Wire Line
	3725 7375 3725 7425
Wire Wire Line
	3725 7425 4075 7425
Wire Wire Line
	4075 7425 4075 7375
Connection ~ 4075 7375
Wire Wire Line
	4075 7375 4100 7375
$Comp
L Device:R_Small R1
U 1 1 5EE6F4B4
P 3075 6775
F 0 "R1" V 3134 6821 50  0000 L CNN
F 1 "10k" V 3134 6730 50  0000 C CNN
F 2 "Resistor_SMD:R_0805_2012Metric" H 3075 6775 50  0001 C CNN
F 3 "~" H 3075 6775 50  0001 C CNN
	1    3075 6775
	0    -1   -1   0   
$EndComp
Wire Wire Line
	3175 6775 3225 6775
$Comp
L Device:R_Small R2
U 1 1 5EEB66AD
P 3075 6875
F 0 "R2" V 3134 6921 50  0000 L CNN
F 1 "10k" V 3134 6830 50  0000 C CNN
F 2 "Resistor_SMD:R_0805_2012Metric" H 3075 6875 50  0001 C CNN
F 3 "~" H 3075 6875 50  0001 C CNN
	1    3075 6875
	0    -1   -1   0   
$EndComp
Wire Wire Line
	3175 6875 3225 6875
$Comp
L Device:R_Small R3
U 1 1 5EEC16C3
P 3075 6975
F 0 "R3" V 3134 7021 50  0000 L CNN
F 1 "10k" V 3134 6930 50  0000 C CNN
F 2 "Resistor_SMD:R_0805_2012Metric" H 3075 6975 50  0001 C CNN
F 3 "~" H 3075 6975 50  0001 C CNN
	1    3075 6975
	0    -1   -1   0   
$EndComp
Wire Wire Line
	3175 6975 3225 6975
$Comp
L Device:R_Small R4
U 1 1 5EECC938
P 3075 7075
F 0 "R4" V 3134 7121 50  0000 L CNN
F 1 "10k" V 3134 7030 50  0000 C CNN
F 2 "Resistor_SMD:R_0805_2012Metric" H 3075 7075 50  0001 C CNN
F 3 "~" H 3075 7075 50  0001 C CNN
	1    3075 7075
	0    -1   -1   0   
$EndComp
Wire Wire Line
	3175 7075 3225 7075
$Comp
L Device:R_Small R5
U 1 1 5EED85F5
P 3075 7175
F 0 "R5" V 3134 7221 50  0000 L CNN
F 1 "10k" V 3134 7130 50  0000 C CNN
F 2 "Resistor_SMD:R_0805_2012Metric" H 3075 7175 50  0001 C CNN
F 3 "~" H 3075 7175 50  0001 C CNN
	1    3075 7175
	0    -1   -1   0   
$EndComp
Wire Wire Line
	3175 7175 3225 7175
$Comp
L Device:R_Small R6
U 1 1 5EEE3F7F
P 3075 7275
F 0 "R6" V 3134 7321 50  0000 L CNN
F 1 "10k" V 3134 7230 50  0000 C CNN
F 2 "Resistor_SMD:R_0805_2012Metric" H 3075 7275 50  0001 C CNN
F 3 "~" H 3075 7275 50  0001 C CNN
	1    3075 7275
	0    -1   -1   0   
$EndComp
Wire Wire Line
	3175 7275 3225 7275
$Comp
L Device:R_Small R7
U 1 1 5EEEFA5B
P 3075 7375
F 0 "R7" V 3134 7421 50  0000 L CNN
F 1 "10k" V 3134 7330 50  0000 C CNN
F 2 "Resistor_SMD:R_0805_2012Metric" H 3075 7375 50  0001 C CNN
F 3 "~" H 3075 7375 50  0001 C CNN
	1    3075 7375
	0    -1   -1   0   
$EndComp
Wire Wire Line
	3175 7375 3225 7375
$Comp
L power:+3.3VA #PWR010
U 1 1 5EF00169
P 2825 6625
F 0 "#PWR010" H 2825 6475 50  0001 C CNN
F 1 "+3.3VA" H 2840 6798 50  0000 C CNN
F 2 "" H 2825 6625 50  0001 C CNN
F 3 "" H 2825 6625 50  0001 C CNN
	1    2825 6625
	1    0    0    -1  
$EndComp
Wire Wire Line
	2825 6625 2825 6775
Wire Wire Line
	2825 7375 2975 7375
Wire Wire Line
	2975 6775 2825 6775
Connection ~ 2825 6775
Wire Wire Line
	2825 6775 2825 6875
Wire Wire Line
	2975 6875 2825 6875
Connection ~ 2825 6875
Wire Wire Line
	2825 6875 2825 6975
Wire Wire Line
	2975 6975 2825 6975
Connection ~ 2825 6975
Wire Wire Line
	2825 6975 2825 7075
Wire Wire Line
	2975 7075 2825 7075
Connection ~ 2825 7075
Wire Wire Line
	2825 7075 2825 7175
Wire Wire Line
	2975 7175 2825 7175
Connection ~ 2825 7175
Wire Wire Line
	2825 7175 2825 7275
Wire Wire Line
	2975 7275 2825 7275
Connection ~ 2825 7275
Wire Wire Line
	2825 7275 2825 7375
$Comp
L Connector:Screw_Terminal_01x02 J4
U 1 1 5EFE2578
P 2300 5650
F 0 "J4" H 2380 5642 50  0000 L CNN
F 1 "RS_IN" H 2380 5551 50  0000 L CNN
F 2 "TerminalBlock_Phoenix:TerminalBlock_Phoenix_PT-1,5-2-3.5-H_1x02_P3.50mm_Horizontal" H 2300 5650 50  0001 C CNN
F 3 "~" H 2300 5650 50  0001 C CNN
	1    2300 5650
	1    0    0    1   
$EndComp
$Comp
L Connector_Generic:Conn_01x04 J1
U 1 1 5F072D54
P 800 2950
F 0 "J1" H 880 2942 50  0000 L CNN
F 1 "SPI" H 880 2851 50  0000 L CNN
F 2 "Connector_PinHeader_2.54mm:PinHeader_1x04_P2.54mm_Vertical" H 800 2950 50  0001 C CNN
F 3 "~" H 800 2950 50  0001 C CNN
	1    800  2950
	-1   0    0    -1  
$EndComp
$Comp
L Connector_Generic:Conn_01x04 J2
U 1 1 5F081D38
P 800 3375
F 0 "J2" H 880 3367 50  0000 L CNN
F 1 "I2C" H 880 3276 50  0000 L CNN
F 2 "Connector_PinHeader_2.54mm:PinHeader_1x04_P2.54mm_Vertical" H 800 3375 50  0001 C CNN
F 3 "~" H 800 3375 50  0001 C CNN
	1    800  3375
	-1   0    0    -1  
$EndComp
Wire Wire Line
	1000 2950 1150 2950
Wire Wire Line
	1025 2675 1075 2675
Wire Wire Line
	1075 2675 1075 3050
Connection ~ 1075 3050
Wire Wire Line
	1075 3050 1000 3050
Wire Wire Line
	1025 2550 1150 2550
Wire Wire Line
	1150 2550 1150 2950
Connection ~ 1150 2950
Wire Wire Line
	1025 2425 1250 2425
Wire Wire Line
	1250 2425 1250 2850
Connection ~ 1250 2850
Wire Wire Line
	1250 2850 1000 2850
Wire Wire Line
	1275 3150 1275 3275
Wire Wire Line
	1275 3275 1150 3275
Wire Wire Line
	1350 3250 1350 3375
Wire Wire Line
	1350 3375 1250 3375
NoConn ~ 1000 3475
$Comp
L power:GND #PWR02
U 1 1 5F1FEDA4
P 1075 3950
F 0 "#PWR02" H 1075 3700 50  0001 C CNN
F 1 "GND" H 1080 3777 50  0000 C CNN
F 2 "" H 1075 3950 50  0001 C CNN
F 3 "" H 1075 3950 50  0001 C CNN
	1    1075 3950
	1    0    0    -1  
$EndComp
Wire Wire Line
	1000 3150 1075 3150
Wire Wire Line
	1075 3150 1075 3575
Wire Wire Line
	1000 3575 1075 3575
Connection ~ 1075 3575
Wire Wire Line
	1075 3575 1075 3950
Wire Wire Line
	1150 3775 1150 3275
Connection ~ 1150 3275
Wire Wire Line
	1150 3275 1000 3275
Wire Wire Line
	875  3875 1250 3875
Wire Wire Line
	1250 3875 1250 3375
Connection ~ 1250 3375
Wire Wire Line
	1250 3375 1000 3375
Wire Wire Line
	875  3775 1150 3775
$Comp
L Connector:Screw_Terminal_01x02 J6
U 1 1 5F2CB789
P 3350 1750
F 0 "J6" H 3430 1742 50  0000 L CNN
F 1 "PM12" H 3430 1651 50  0000 L CNN
F 2 "TerminalBlock_MetzConnect:TerminalBlock_MetzConnect_Type175_RT02702HBLC_1x02_P7.50mm_Horizontal" H 3350 1750 50  0001 C CNN
F 3 "~" H 3350 1750 50  0001 C CNN
	1    3350 1750
	-1   0    0    -1  
$EndComp
$Comp
L power:GND #PWR018
U 1 1 5F3D8EAA
P 3550 2050
F 0 "#PWR018" H 3550 1800 50  0001 C CNN
F 1 "GND" H 3555 1877 50  0000 C CNN
F 2 "" H 3550 2050 50  0001 C CNN
F 3 "" H 3550 2050 50  0001 C CNN
	1    3550 2050
	-1   0    0    -1  
$EndComp
Wire Wire Line
	2000 5500 2100 5500
Wire Wire Line
	2100 5500 2100 5550
Wire Wire Line
	2100 5650 2100 5700
Wire Wire Line
	2100 5700 2000 5700
$Sheet
S 6325 650  875  700 
U 5F687A24
F0 "3.3V Power" 50
F1 "d_pwr.sch" 50
F2 "3.3V" I R 7200 775 50 
F3 "12V" I L 6325 775 50 
F4 "GND" I R 7200 1175 50 
$EndSheet
$Comp
L power:GND #PWR040
U 1 1 5F74C41E
P 7375 1350
F 0 "#PWR040" H 7375 1100 50  0001 C CNN
F 1 "GND" H 7380 1177 50  0000 C CNN
F 2 "" H 7375 1350 50  0001 C CNN
F 3 "" H 7375 1350 50  0001 C CNN
	1    7375 1350
	1    0    0    -1  
$EndComp
Wire Wire Line
	7200 1175 7375 1175
Wire Wire Line
	7375 1175 7375 1350
$Comp
L power:+12V #PWR037
U 1 1 5F75DC41
P 6175 775
F 0 "#PWR037" H 6175 625 50  0001 C CNN
F 1 "+12V" V 6190 903 50  0000 L CNN
F 2 "" H 6175 775 50  0001 C CNN
F 3 "" H 6175 775 50  0001 C CNN
	1    6175 775 
	0    -1   -1   0   
$EndComp
Wire Wire Line
	6175 775  6325 775 
$Comp
L power:+3.3V #PWR039
U 1 1 5F77285A
P 7375 775
F 0 "#PWR039" H 7375 625 50  0001 C CNN
F 1 "+3.3V" V 7390 903 50  0000 L CNN
F 2 "" H 7375 775 50  0001 C CNN
F 3 "" H 7375 775 50  0001 C CNN
	1    7375 775 
	0    1    1    0   
$EndComp
Wire Wire Line
	7200 775  7375 775 
Wire Wire Line
	3550 1850 3550 2050
Wire Wire Line
	3550 1750 3750 1750
$Comp
L power:+12P #PWR0101
U 1 1 5F918EC8
P 4500 1675
F 0 "#PWR0101" H 4500 1525 50  0001 C CNN
F 1 "+12P" H 4515 1848 50  0000 C CNN
F 2 "" H 4500 1675 50  0001 C CNN
F 3 "" H 4500 1675 50  0001 C CNN
	1    4500 1675
	1    0    0    -1  
$EndComp
Wire Wire Line
	3750 1750 4100 1750
Connection ~ 4100 1750
Wire Wire Line
	6150 3275 6375 3275
Wire Wire Line
	6375 3275 6375 3125
Connection ~ 6150 3275
Wire Wire Line
	6375 4600 6125 4600
Connection ~ 6125 4600
Wire Wire Line
	6375 4450 6375 4600
$Comp
L Connector:Screw_Terminal_01x02 J13
U 1 1 5EDB5FEF
P 6575 5675
F 0 "J13" H 6655 5667 50  0000 L CNN
F 1 "PM3" H 6655 5576 50  0000 L CNN
F 2 "TerminalBlock_Phoenix:TerminalBlock_Phoenix_MKDS-1,5-2-5.08_1x02_P5.08mm_Horizontal" H 6575 5675 50  0001 C CNN
F 3 "~" H 6575 5675 50  0001 C CNN
	1    6575 5675
	1    0    0    -1  
$EndComp
$Comp
L Connector:Screw_Terminal_01x02 J14
U 1 1 5EDC66F3
P 6575 6975
F 0 "J14" H 6655 6967 50  0000 L CNN
F 1 "PM4" H 6655 6876 50  0000 L CNN
F 2 "TerminalBlock_Phoenix:TerminalBlock_Phoenix_MKDS-1,5-2-5.08_1x02_P5.08mm_Horizontal" H 6575 6975 50  0001 C CNN
F 3 "~" H 6575 6975 50  0001 C CNN
	1    6575 6975
	1    0    0    -1  
$EndComp
Wire Wire Line
	6375 5775 6375 5925
Wire Wire Line
	6375 5925 6100 5925
Connection ~ 6100 5925
Wire Wire Line
	6375 7075 6375 7225
Wire Wire Line
	6375 7225 6125 7225
Connection ~ 6125 7225
Wire Wire Line
	1375 2100 1325 2100
$Comp
L Device:R_Small R43
U 1 1 5ED185C0
P 925 2100
F 0 "R43" V 729 2100 50  0000 C CNN
F 1 "R_Small" V 820 2100 50  0000 C CNN
F 2 "Resistor_SMD:R_0805_2012Metric" H 925 2100 50  0001 C CNN
F 3 "~" H 925 2100 50  0001 C CNN
	1    925  2100
	0    1    1    0   
$EndComp
$Comp
L power:GND #PWR0102
U 1 1 5ED29479
P 750 2100
F 0 "#PWR0102" H 750 1850 50  0001 C CNN
F 1 "GND" H 755 1927 50  0000 C CNN
F 2 "" H 750 2100 50  0001 C CNN
F 3 "" H 750 2100 50  0001 C CNN
	1    750  2100
	0    1    1    0   
$EndComp
Wire Wire Line
	750  2100 825  2100
Text GLabel 2950 2750 2    50   UnSpc ~ 0
AN4
Wire Wire Line
	2350 4250 2450 4250
Wire Wire Line
	2400 1050 2450 1050
Wire Wire Line
	2250 4250 2350 4250
Wire Wire Line
	1750 3250 1350 3250
Wire Wire Line
	1750 3150 1275 3150
Wire Wire Line
	1750 3050 1075 3050
Wire Wire Line
	1150 2950 1750 2950
Wire Wire Line
	1750 2850 1250 2850
Wire Wire Line
	800  1750 1750 1750
Wire Wire Line
	1500 1650 1750 1650
$Comp
L Device:LED D2
U 1 1 5ECFADF7
P 1175 2100
F 0 "D2" V 1214 1983 50  0000 R CNN
F 1 "LED" V 1123 1983 50  0000 R CNN
F 2 "LED_SMD:LED_0805_2012Metric" H 1175 2100 50  0001 C CNN
F 3 "~" H 1175 2100 50  0001 C CNN
	1    1175 2100
	1    0    0    -1  
$EndComp
Wire Wire Line
	1375 2100 1375 2350
Wire Wire Line
	1375 2350 1750 2350
$Comp
L power:GND #PWR024
U 1 1 5E958949
P 4975 925
F 0 "#PWR024" H 4975 675 50  0001 C CNN
F 1 "GND" H 4980 752 50  0000 C CNN
F 2 "" H 4975 925 50  0001 C CNN
F 3 "" H 4975 925 50  0001 C CNN
	1    4975 925 
	1    0    0    -1  
$EndComp
Connection ~ 4975 725 
$Comp
L Device:C_Small C10
U 1 1 5E958943
P 4975 825
F 0 "C10" H 5067 871 50  0000 L CNN
F 1 "1uF" H 5067 780 50  0000 L CNN
F 2 "Capacitor_SMD:C_0805_2012Metric" H 4975 825 50  0001 C CNN
F 3 "~" H 4975 825 50  0001 C CNN
	1    4975 825 
	1    0    0    -1  
$EndComp
Wire Wire Line
	4075 725  4975 725 
$Comp
L Device:R_Small R44
U 1 1 5ED4D3DA
P 3950 5775
F 0 "R44" V 4009 5821 50  0000 L CNN
F 1 "300" V 4009 5730 50  0000 C CNN
F 2 "Resistor_SMD:R_0805_2012Metric" H 3950 5775 50  0001 C CNN
F 3 "~" H 3950 5775 50  0001 C CNN
	1    3950 5775
	0    -1   -1   0   
$EndComp
Wire Wire Line
	4050 5775 4100 5775
$Comp
L Device:R_Small R45
U 1 1 5ED4D3E1
P 3950 5875
F 0 "R45" V 4009 5921 50  0000 L CNN
F 1 "300" V 4009 5830 50  0000 C CNN
F 2 "Resistor_SMD:R_0805_2012Metric" H 3950 5875 50  0001 C CNN
F 3 "~" H 3950 5875 50  0001 C CNN
	1    3950 5875
	0    -1   -1   0   
$EndComp
Wire Wire Line
	4050 5875 4100 5875
$Comp
L Device:R_Small R46
U 1 1 5ED4D3E8
P 3950 5975
F 0 "R46" V 4009 6021 50  0000 L CNN
F 1 "300" V 4009 5930 50  0000 C CNN
F 2 "Resistor_SMD:R_0805_2012Metric" H 3950 5975 50  0001 C CNN
F 3 "~" H 3950 5975 50  0001 C CNN
	1    3950 5975
	0    -1   -1   0   
$EndComp
Wire Wire Line
	4050 5975 4100 5975
$Comp
L Device:R_Small R47
U 1 1 5ED4D3EF
P 3950 6075
F 0 "R47" V 4009 6121 50  0000 L CNN
F 1 "300" V 4009 6030 50  0000 C CNN
F 2 "Resistor_SMD:R_0805_2012Metric" H 3950 6075 50  0001 C CNN
F 3 "~" H 3950 6075 50  0001 C CNN
	1    3950 6075
	0    -1   -1   0   
$EndComp
Wire Wire Line
	4050 6075 4100 6075
$Comp
L Device:R_Small R48
U 1 1 5ED4D3F6
P 3950 6175
F 0 "R48" V 4009 6221 50  0000 L CNN
F 1 "300" V 4009 6130 50  0000 C CNN
F 2 "Resistor_SMD:R_0805_2012Metric" H 3950 6175 50  0001 C CNN
F 3 "~" H 3950 6175 50  0001 C CNN
	1    3950 6175
	0    -1   -1   0   
$EndComp
Wire Wire Line
	4050 6175 4100 6175
$Comp
L Device:R_Small R49
U 1 1 5ED4D3FD
P 3950 6275
F 0 "R49" V 4009 6321 50  0000 L CNN
F 1 "300" V 4009 6230 50  0000 C CNN
F 2 "Resistor_SMD:R_0805_2012Metric" H 3950 6275 50  0001 C CNN
F 3 "~" H 3950 6275 50  0001 C CNN
	1    3950 6275
	0    -1   -1   0   
$EndComp
Wire Wire Line
	4050 6275 4100 6275
$Comp
L Device:R_Small R50
U 1 1 5ED4D404
P 3950 6375
F 0 "R50" V 4009 6421 50  0000 L CNN
F 1 "300" V 4009 6330 50  0000 C CNN
F 2 "Resistor_SMD:R_0805_2012Metric" H 3950 6375 50  0001 C CNN
F 3 "~" H 3950 6375 50  0001 C CNN
	1    3950 6375
	0    -1   -1   0   
$EndComp
Wire Wire Line
	4050 6375 4100 6375
Wire Wire Line
	3700 6375 3850 6375
Wire Wire Line
	3850 5775 3700 5775
Wire Wire Line
	3850 5875 3700 5875
Wire Wire Line
	3850 5975 3700 5975
Wire Wire Line
	3850 6075 3700 6075
Wire Wire Line
	3850 6175 3700 6175
Wire Wire Line
	3850 6275 3700 6275
$Comp
L Device:R_Small R51
U 1 1 5EDB652A
P 3950 6475
F 0 "R51" V 4009 6521 50  0000 L CNN
F 1 "300" V 4009 6430 50  0000 C CNN
F 2 "Resistor_SMD:R_0805_2012Metric" H 3950 6475 50  0001 C CNN
F 3 "~" H 3950 6475 50  0001 C CNN
	1    3950 6475
	0    -1   -1   0   
$EndComp
Wire Wire Line
	4050 6475 4100 6475
Wire Wire Line
	3700 6475 3850 6475
$Comp
L power:GND #PWR0103
U 1 1 5EDAC195
P 4000 7550
F 0 "#PWR0103" H 4000 7300 50  0001 C CNN
F 1 "GND" H 4005 7377 50  0000 C CNN
F 2 "" H 4000 7550 50  0001 C CNN
F 3 "" H 4000 7550 50  0001 C CNN
	1    4000 7550
	1    0    0    -1  
$EndComp
Wire Wire Line
	4000 7550 4000 7475
Wire Wire Line
	4000 7475 4100 7475
Wire Wire Line
	2250 1050 2350 1050
Wire Wire Line
	2350 1050 2400 1050
Connection ~ 2350 1050
Wire Wire Line
	2400 850  2400 1050
$Comp
L MCU_ST_STM32F0:STM32F030C8Tx U2
U 1 1 5E9214D0
P 2350 2650
F 0 "U2" H 2350 961 50  0000 C CNN
F 1 "STM32F030C8Tx" H 2350 870 50  0000 C CNN
F 2 "Package_QFP:LQFP-48_7x7mm_P0.5mm" H 1850 1150 50  0001 R CNN
F 3 "http://www.st.com/st-web-ui/static/active/en/resource/technical/document/datasheet/DM00088500.pdf" H 2350 2650 50  0001 C CNN
	1    2350 2650
	1    0    0    -1  
$EndComp
$EndSCHEMATC
