(module LOGO (layer F.Cu)
  (at 0 0)
 (fp_text reference "G***" (at 0 0) (layer F.SilkS) hide
  (effects (font (thickness 0.3)))
  )
  (fp_text value "LOGO" (at 0.75 0) (layer F.SilkS) hide
  (effects (font (thickness 0.3)))
  )
  (fp_poly (pts (xy 1.666081 -5.910940) (xy 1.736498 -5.886937) (xy 1.802890 -5.842857) (xy 1.820269 -5.827968) (xy 1.865690 -5.783400) (xy 1.897274 -5.740288) (xy 1.917047 -5.692769) (xy 1.927032 -5.634978)
     (xy 1.929254 -5.561052) (xy 1.928069 -5.515746) (xy 1.921543 -5.426059) (xy 1.908190 -5.355339) (xy 1.885866 -5.297584) (xy 1.852430 -5.246798) (xy 1.818720 -5.209621) (xy 1.779375 -5.177153)
     (xy 1.732966 -5.153573) (xy 1.674903 -5.137589) (xy 1.600595 -5.127908) (xy 1.512698 -5.123422) (xy 1.452790 -5.120933) (xy 1.409818 -5.114701) (xy 1.378743 -5.100881) (xy 1.354530 -5.075632)
     (xy 1.332143 -5.035110) (xy 1.306546 -4.975471) (xy 1.300986 -4.961864) (xy 1.259635 -4.848757) (xy 1.226775 -4.731269) (xy 1.200985 -4.603129) (xy 1.180842 -4.458066) (xy 1.175575 -4.409205)
     (xy 1.167577 -4.323026) (xy 1.162664 -4.246888) (xy 1.161185 -4.176192) (xy 1.163490 -4.106342) (xy 1.169929 -4.032739) (xy 1.180852 -3.950785) (xy 1.196610 -3.855884) (xy 1.217552 -3.743437)
     (xy 1.231830 -3.670300) (xy 1.252962 -3.563058) (xy 1.276335 -3.444207) (xy 1.300244 -3.322425) (xy 1.322988 -3.206387) (xy 1.342862 -3.104771) (xy 1.346507 -3.086100) (xy 1.363179 -3.003834)
     (xy 1.379673 -2.928165) (xy 1.394977 -2.863319) (xy 1.408078 -2.813517) (xy 1.417964 -2.782983) (xy 1.420498 -2.777593) (xy 1.442828 -2.752029) (xy 1.479133 -2.733135) (xy 1.511177 -2.723060)
     (xy 1.596262 -2.698801) (xy 1.665468 -2.675961) (xy 1.727809 -2.650904) (xy 1.792299 -2.619995) (xy 1.867952 -2.579601) (xy 1.870677 -2.578100) (xy 1.939993 -2.538044) (xy 2.013799 -2.492319)
     (xy 2.082642 -2.446938) (xy 2.131027 -2.412501) (xy 2.183671 -2.371060) (xy 2.226678 -2.331791) (xy 2.266262 -2.288064) (xy 2.308642 -2.233250) (xy 2.339426 -2.190251) (xy 2.432211 -2.050783)
     (xy 2.527735 -1.893488) (xy 2.622384 -1.725133) (xy 2.712544 -1.552483) (xy 2.794602 -1.382304) (xy 2.864943 -1.221363) (xy 2.888617 -1.162050) (xy 2.904882 -1.120110) (xy 2.918199 -1.084834)
     (xy 2.929130 -1.053036) (xy 2.938235 -1.021525) (xy 2.946077 -0.987113) (xy 2.953216 -0.946610) (xy 2.960214 -0.896826) (xy 2.967632 -0.834574) (xy 2.976032 -0.756663) (xy 2.985975 -0.659904)
     (xy 2.998023 -0.541108) (xy 2.998160 -0.539750) (xy 3.009494 -0.427011) (xy 3.018371 -0.334024) (xy 3.025016 -0.255282) (xy 3.029652 -0.185278) (xy 3.032500 -0.118506) (xy 3.033786 -0.049460)
     (xy 3.033731 0.027368) (xy 3.032558 0.117484) (xy 3.030492 0.226395) (xy 3.030058 0.247650) (xy 3.027127 0.365270) (xy 3.023057 0.492632) (xy 3.018136 0.622545) (xy 3.012657 0.747816)
     (xy 3.006910 0.861256) (xy 3.001823 0.946150) (xy 2.989648 1.178352) (xy 2.985432 1.388648) (xy 2.989246 1.579275) (xy 3.001162 1.752472) (xy 3.021251 1.910476) (xy 3.034985 1.987550)
     (xy 3.056858 2.096227) (xy 3.080155 2.207781) (xy 3.104073 2.318720) (xy 3.127813 2.425551) (xy 3.150574 2.524783) (xy 3.171556 2.612924) (xy 3.189959 2.686483) (xy 3.204982 2.741966)
     (xy 3.215468 2.774950) (xy 3.262802 2.892306) (xy 3.320480 3.022565) (xy 3.384627 3.157583) (xy 3.451368 3.289215) (xy 3.516829 3.409316) (xy 3.519195 3.413466) (xy 3.587939 3.535723)
     (xy 3.644133 3.640448) (xy 3.689304 3.731255) (xy 3.724977 3.811753) (xy 3.752678 3.885555) (xy 3.773934 3.956273) (xy 3.790271 4.027518) (xy 3.798915 4.075459) (xy 3.813710 4.194824)
     (xy 3.820861 4.321641) (xy 3.820703 4.450816) (xy 3.813572 4.577254) (xy 3.799802 4.695857) (xy 3.779727 4.801532) (xy 3.753682 4.889182) (xy 3.743896 4.913145) (xy 3.727888 4.942502)
     (xy 3.702697 4.977709) (xy 3.666141 5.021307) (xy 3.616038 5.075839) (xy 3.550207 5.143846) (xy 3.517900 5.176478) (xy 3.442066 5.251715) (xy 3.379401 5.310918) (xy 3.325948 5.356811)
     (xy 3.277750 5.392119) (xy 3.230851 5.419566) (xy 3.181296 5.441876) (xy 3.125126 5.461776) (xy 3.086100 5.473842) (xy 3.034330 5.487865) (xy 2.989904 5.495414) (xy 2.942538 5.497458)
     (xy 2.881951 5.494966) (xy 2.870200 5.494202) (xy 2.755924 5.482539) (xy 2.658282 5.462459) (xy 2.570020 5.431176) (xy 2.483883 5.385904) (xy 2.392620 5.323859) (xy 2.357850 5.297452)
     (xy 2.302650 5.255823) (xy 2.262435 5.228922) (xy 2.233175 5.214637) (xy 2.210840 5.210856) (xy 2.197269 5.213296) (xy 2.185390 5.217925) (xy 2.176412 5.225870) (xy 2.168900 5.241367)
     (xy 2.161417 5.268651) (xy 2.152527 5.311957) (xy 2.140793 5.375522) (xy 2.139110 5.384800) (xy 2.120957 5.464023) (xy 2.096301 5.543623) (xy 2.073600 5.600700) (xy 2.048928 5.656012)
     (xy 2.024898 5.712293) (xy 2.006409 5.758045) (xy 2.005291 5.760972) (xy 1.970605 5.823602) (xy 1.914425 5.889232) (xy 1.840000 5.955123) (xy 1.750580 6.018536) (xy 1.649412 6.076734)
     (xy 1.604423 6.098859) (xy 1.550827 6.120983) (xy 1.500166 6.133867) (xy 1.440172 6.140324) (xy 1.418711 6.141420) (xy 1.362707 6.142073) (xy 1.310252 6.139724) (xy 1.271423 6.134874)
     (xy 1.267118 6.133892) (xy 1.163297 6.097213) (xy 1.053988 6.039422) (xy 0.942849 5.963103) (xy 0.833536 5.870839) (xy 0.729707 5.765215) (xy 0.704503 5.736401) (xy 0.665674 5.686207)
     (xy 0.628417 5.627495) (xy 0.591009 5.556824) (xy 0.551722 5.470757) (xy 0.508830 5.365855) (xy 0.477487 5.284039) (xy 0.444098 5.202262) (xy 0.405764 5.120090) (xy 0.365247 5.042562)
     (xy 0.325308 4.974715) (xy 0.288708 4.921586) (xy 0.262679 4.892123) (xy 0.215311 4.857147) (xy 0.152160 4.822313) (xy 0.082501 4.791926) (xy 0.015609 4.770291) (xy -0.012700 4.764295)
     (xy -0.106130 4.750153) (xy -0.180519 4.742037) (xy -0.241517 4.740014) (xy -0.294776 4.744154) (xy -0.345946 4.754525) (xy -0.393943 4.768930) (xy -0.517891 4.818908) (xy -0.628277 4.882805)
     (xy -0.727931 4.963120) (xy -0.819680 5.062350) (xy -0.906356 5.182995) (xy -0.956524 5.265690) (xy -1.013009 5.362990) (xy -1.060694 5.441968) (xy -1.102589 5.506788) (xy -1.141707 5.561612)
     (xy -1.181061 5.610604) (xy -1.223663 5.657928) (xy -1.272526 5.707746) (xy -1.285889 5.720898) (xy -1.361706 5.791639) (xy -1.431812 5.848123) (xy -1.502802 5.894307) (xy -1.581272 5.934150)
     (xy -1.673818 5.971609) (xy -1.746250 5.997095) (xy -1.806288 6.016844) (xy -1.855874 6.031281) (xy -1.901845 6.041628) (xy -1.951040 6.049106) (xy -2.010297 6.054937) (xy -2.086454 6.060341)
     (xy -2.107971 6.061709) (xy -2.190318 6.066481) (xy -2.253496 6.068876) (xy -2.303639 6.068713) (xy -2.346882 6.065810) (xy -2.389360 6.059985) (xy -2.431821 6.052132) (xy -2.573707 6.015419)
     (xy -2.711426 5.963480) (xy -2.838592 5.899204) (xy -2.948819 5.825483) (xy -2.969666 5.808697) (xy -3.014240 5.766636) (xy -3.062417 5.713277) (xy -3.109400 5.654805) (xy -3.150394 5.597402)
     (xy -3.180600 5.547248) (xy -3.191894 5.522267) (xy -3.201240 5.486835) (xy -3.211104 5.433950) (xy -3.220154 5.371496) (xy -3.225686 5.322284) (xy -3.232939 5.255375) (xy -3.240466 5.207667)
     (xy -3.249789 5.172993) (xy -3.262435 5.145184) (xy -3.274057 5.126531) (xy -3.303655 5.088427) (xy -3.336196 5.060676) (xy -3.376180 5.041760) (xy -3.428106 5.030163) (xy -3.496472 5.024366)
     (xy -3.581400 5.022850) (xy -3.752850 5.022850) (xy -3.924300 5.084164) (xy -4.026038 5.120472) (xy -4.107764 5.149142) (xy -4.173386 5.171079) (xy -4.226812 5.187185) (xy -4.271951 5.198365)
     (xy -4.312711 5.205524) (xy -4.353000 5.209566) (xy -4.396727 5.211394) (xy -4.447799 5.211913) (xy -4.476750 5.211963) (xy -4.547987 5.211813) (xy -4.599745 5.210567) (xy -4.637942 5.207339)
     (xy -4.668500 5.201239) (xy -4.697336 5.191380) (xy -4.730371 5.176875) (xy -4.739790 5.172506) (xy -4.841354 5.117693) (xy -4.922975 5.055363) (xy -4.989990 4.980464) (xy -5.047737 4.887940)
     (xy -5.055056 4.873936) (xy -5.109337 4.752665) (xy -5.152847 4.623873) (xy -5.184059 4.494021) (xy -5.201448 4.369567) (xy -5.203105 4.278027) (xy -5.082552 4.278027) (xy -5.078265 4.435336)
     (xy -5.049020 4.588473) (xy -5.034738 4.635500) (xy -4.998236 4.728570) (xy -4.952758 4.817670) (xy -4.901392 4.898273) (xy -4.847222 4.965851) (xy -4.793336 5.015879) (xy -4.761806 5.035902)
     (xy -4.643090 5.082128) (xy -4.515846 5.105987) (xy -4.383988 5.107255) (xy -4.251428 5.085709) (xy -4.192290 5.068410) (xy -4.134056 5.047491) (xy -4.078534 5.025124) (xy -4.034581 5.004966)
     (xy -4.021304 4.997806) (xy -3.983334 4.980023) (xy -3.930540 4.960924) (xy -3.873023 4.944082) (xy -3.860754 4.941037) (xy -3.722408 4.915119) (xy -3.593553 4.905096) (xy -3.476051 4.910486)
     (xy -3.371763 4.930805) (xy -3.282550 4.965569) (xy -3.210273 5.014295) (xy -3.156793 5.076500) (xy -3.130459 5.130800) (xy -3.121454 5.166540) (xy -3.112409 5.220047) (xy -3.104448 5.283713)
     (xy -3.099247 5.341909) (xy -3.092610 5.418363) (xy -3.084611 5.474923) (xy -3.074233 5.517091) (xy -3.060881 5.549547) (xy -3.029245 5.600335) (xy -2.987711 5.651886) (xy -2.942798 5.697125)
     (xy -2.901025 5.728980) (xy -2.890050 5.734883) (xy -2.856901 5.752149) (xy -2.814289 5.776542) (xy -2.788186 5.792391) (xy -2.649854 5.863746) (xy -2.496782 5.914453) (xy -2.328936 5.944523)
     (xy -2.227846 5.952378) (xy -2.047992 5.949246) (xy -1.878953 5.923754) (xy -1.721570 5.876343) (xy -1.576682 5.807455) (xy -1.445133 5.717529) (xy -1.327762 5.607006) (xy -1.225411 5.476327)
     (xy -1.180170 5.403634) (xy -1.151605 5.352406) (xy -1.122978 5.298567) (xy -1.105601 5.264150) (xy -1.048516 5.162472) (xy -0.975604 5.056667) (xy -0.893199 4.955012) (xy -0.807637 4.865786)
     (xy -0.784603 4.844712) (xy -0.684244 4.765707) (xy -0.583289 4.707643) (xy -0.474637 4.666904) (xy -0.399279 4.648555) (xy -0.250742 4.627640) (xy -0.108528 4.625536) (xy 0.024571 4.641780)
     (xy 0.145762 4.675906) (xy 0.252253 4.727449) (xy 0.307658 4.766324) (xy 0.346265 4.807757) (xy 0.387719 4.871123) (xy 0.430387 4.953352) (xy 0.472638 5.051375) (xy 0.503385 5.134319)
     (xy 0.582814 5.327214) (xy 0.683558 5.512461) (xy 0.759291 5.626100) (xy 0.846874 5.739490) (xy 0.931420 5.831327) (xy 1.016555 5.904568) (xy 1.105904 5.962171) (xy 1.203091 6.007093)
     (xy 1.244600 6.022049) (xy 1.329704 6.039872) (xy 1.424879 6.042132) (xy 1.520576 6.029397) (xy 1.607243 6.002231) (xy 1.611626 6.000299) (xy 1.654951 5.977985) (xy 1.695246 5.949872)
     (xy 1.738577 5.911105) (xy 1.791009 5.856834) (xy 1.791117 5.856716) (xy 1.879593 5.746651) (xy 1.949379 5.626553) (xy 2.001221 5.494213) (xy 2.035863 5.347419) (xy 2.054049 5.183960)
     (xy 2.057400 5.065878) (xy 2.057400 4.915383) (xy 2.091567 4.906808) (xy 2.120648 4.905195) (xy 2.141385 4.922347) (xy 2.145542 4.928360) (xy 2.184204 4.980244) (xy 2.235913 5.040279)
     (xy 2.293661 5.101031) (xy 2.350441 5.155065) (xy 2.391342 5.189129) (xy 2.483899 5.249933) (xy 2.587537 5.302375) (xy 2.695552 5.343948) (xy 2.801241 5.372146) (xy 2.897898 5.384462)
     (xy 2.914693 5.384800) (xy 2.995015 5.374985) (xy 3.085269 5.347384) (xy 3.180456 5.304755) (xy 3.275576 5.249861) (xy 3.365630 5.185461) (xy 3.445620 5.114318) (xy 3.487734 5.068313)
     (xy 3.561188 4.964864) (xy 3.622244 4.848064) (xy 3.664619 4.730750) (xy 3.676492 4.670963) (xy 3.685418 4.592194) (xy 3.691266 4.500704) (xy 3.693908 4.402756) (xy 3.693212 4.304609)
     (xy 3.689049 4.212525) (xy 3.681289 4.132766) (xy 3.677549 4.108037) (xy 3.642856 3.959895) (xy 3.591036 3.814983) (xy 3.525334 3.681760) (xy 3.494952 3.632200) (xy 3.461064 3.577260)
     (xy 3.420346 3.506234) (xy 3.375594 3.424507) (xy 3.329606 3.337465) (xy 3.285176 3.250494) (xy 3.245102 3.168981) (xy 3.212179 3.098312) (xy 3.189205 3.043874) (xy 3.188358 3.041650)
     (xy 3.124987 2.867922) (xy 3.071694 2.707212) (xy 3.025876 2.550534) (xy 2.984928 2.388899) (xy 2.946245 2.213320) (xy 2.941240 2.188969) (xy 2.913634 2.042913) (xy 2.892261 1.903567)
     (xy 2.876698 1.765404) (xy 2.866525 1.622897) (xy 2.861320 1.470517) (xy 2.860662 1.302737) (xy 2.862931 1.162050) (xy 2.865556 1.063091) (xy 2.868724 0.968252) (xy 2.872247 0.881707)
     (xy 2.875934 0.807627) (xy 2.879597 0.750183) (xy 2.883047 0.713549) (xy 2.883372 0.711200) (xy 2.886309 0.679682) (xy 2.889414 0.626190) (xy 2.892567 0.554145) (xy 2.895648 0.466971)
     (xy 2.898535 0.368091) (xy 2.901108 0.260927) (xy 2.903246 0.148904) (xy 2.903293 0.146050) (xy 2.905307 0.010754) (xy 2.906448 -0.102876) (xy 2.906647 -0.198562) (xy 2.905832 -0.280025)
     (xy 2.903935 -0.350987) (xy 2.900886 -0.415170) (xy 2.896613 -0.476295) (xy 2.891047 -0.538084) (xy 2.890271 -0.545901) (xy 2.873402 -0.689219) (xy 2.852724 -0.822915) (xy 2.829012 -0.943090)
     (xy 2.803039 -1.045844) (xy 2.775577 -1.127278) (xy 2.774351 -1.130300) (xy 2.741174 -1.206354) (xy 2.697473 -1.299017) (xy 2.645904 -1.403186) (xy 2.589122 -1.513758) (xy 2.529785 -1.625628)
     (xy 2.470546 -1.733694) (xy 2.414062 -1.832853) (xy 2.372348 -1.902820) (xy 2.332604 -1.963861) (xy 2.284786 -2.031287) (xy 2.232917 -2.099978) (xy 2.181026 -2.164817) (xy 2.133139 -2.220685)
     (xy 2.093282 -2.262464) (xy 2.079906 -2.274577) (xy 2.040782 -2.305300) (xy 1.986275 -2.345135) (xy 1.922596 -2.389817) (xy 1.855953 -2.435079) (xy 1.792558 -2.476658) (xy 1.738620 -2.510288)
     (xy 1.725189 -2.518202) (xy 1.686153 -2.538284) (xy 1.636450 -2.560444) (xy 1.583009 -2.581998) (xy 1.532759 -2.600266) (xy 1.492627 -2.612565) (xy 1.471663 -2.616325) (xy 1.451143 -2.621487)
     (xy 1.416544 -2.634679) (xy 1.387363 -2.647542) (xy 1.337657 -2.676265) (xy 1.310264 -2.706501) (xy 1.306735 -2.714093) (xy 1.300642 -2.736964) (xy 1.291512 -2.780651) (xy 1.280146 -2.840860)
     (xy 1.267345 -2.913298) (xy 1.253910 -2.993673) (xy 1.249837 -3.018930) (xy 1.226675 -3.159540) (xy 1.205195 -3.280044) (xy 1.184342 -3.385590) (xy 1.163060 -3.481325) (xy 1.140293 -3.572394)
     (xy 1.124008 -3.632200) (xy 1.091256 -3.780569) (xy 1.070519 -3.945601) (xy 1.061908 -4.121520) (xy 1.065536 -4.302551) (xy 1.081514 -4.482918) (xy 1.104668 -4.630240) (xy 1.123004 -4.710811)
     (xy 1.147971 -4.799324) (xy 1.177519 -4.890120) (xy 1.209596 -4.977541) (xy 1.242151 -5.055931) (xy 1.273134 -5.119631) (xy 1.295303 -5.156065) (xy 1.333746 -5.190074) (xy 1.393351 -5.216197)
     (xy 1.470790 -5.233296) (xy 1.539147 -5.239538) (xy 1.630833 -5.251540) (xy 1.703958 -5.279657) (xy 1.760814 -5.325500) (xy 1.803692 -5.390683) (xy 1.823637 -5.439670) (xy 1.836499 -5.513954)
     (xy 1.826643 -5.586792) (xy 1.796390 -5.653212) (xy 1.748057 -5.708243) (xy 1.683962 -5.746912) (xy 1.679550 -5.748648) (xy 1.594057 -5.770799) (xy 1.516988 -5.769018) (xy 1.448887 -5.743518)
     (xy 1.390297 -5.694513) (xy 1.341763 -5.622215) (xy 1.337758 -5.614273) (xy 1.314087 -5.570399) (xy 1.290667 -5.533898) (xy 1.272570 -5.512673) (xy 1.240489 -5.476539) (xy 1.223674 -5.435353)
     (xy 1.223819 -5.405843) (xy 1.222577 -5.387000) (xy 1.209259 -5.360766) (xy 1.181615 -5.323525) (xy 1.147519 -5.283200) (xy 1.095239 -5.218964) (xy 1.035402 -5.138408) (xy 0.972194 -5.047739)
     (xy 0.909799 -4.953160) (xy 0.852403 -4.860878) (xy 0.804190 -4.777096) (xy 0.796334 -4.762500) (xy 0.726455 -4.605672) (xy 0.674999 -4.434565) (xy 0.642944 -4.253367) (xy 0.631272 -4.066264)
     (xy 0.631242 -4.057650) (xy 0.631699 -4.000470) (xy 0.633625 -3.949502) (xy 0.637675 -3.899651) (xy 0.644505 -3.845821) (xy 0.654772 -3.782915) (xy 0.669131 -3.705837) (xy 0.688237 -3.609490)
     (xy 0.690136 -3.600079) (xy 0.722476 -3.433799) (xy 0.748501 -3.286810) (xy 0.768036 -3.160282) (xy 0.780907 -3.055385) (xy 0.786937 -2.973288) (xy 0.787400 -2.949406) (xy 0.785260 -2.905653)
     (xy 0.776273 -2.876246) (xy 0.756586 -2.850306) (xy 0.749853 -2.843400) (xy 0.735921 -2.829848) (xy 0.722596 -2.820021) (xy 0.706217 -2.813793) (xy 0.683121 -2.811038) (xy 0.649646 -2.811629)
     (xy 0.602131 -2.815442) (xy 0.536915 -2.822350) (xy 0.450334 -2.832227) (xy 0.444500 -2.832897) (xy 0.329887 -2.843967) (xy 0.201175 -2.852894) (xy 0.068042 -2.859224) (xy -0.059837 -2.862501)
     (xy -0.172784 -2.862271) (xy -0.177800 -2.862160) (xy -0.243531 -2.859794) (xy -0.321675 -2.855628) (xy -0.407621 -2.850048) (xy -0.496753 -2.843440) (xy -0.584460 -2.836187) (xy -0.666128 -2.828677)
     (xy -0.737142 -2.821293) (xy -0.792891 -2.814422) (xy -0.828761 -2.808448) (xy -0.832925 -2.807452) (xy -0.874661 -2.804414) (xy -0.911319 -2.820825) (xy -0.947377 -2.859068) (xy -0.957927 -2.873939)
     (xy -0.985211 -2.932320) (xy -0.990600 -2.976347) (xy -0.987741 -3.033338) (xy -0.979498 -3.111618) (xy -0.966378 -3.207766) (xy -0.948888 -3.318364) (xy -0.927532 -3.439992) (xy -0.903187 -3.567364)
     (xy -0.883590 -3.666041) (xy -0.868318 -3.743869) (xy -0.856831 -3.804932) (xy -0.848589 -3.853310) (xy -0.843050 -3.893085) (xy -0.839676 -3.928340) (xy -0.837924 -3.963156) (xy -0.837257 -4.001615)
     (xy -0.837132 -4.047799) (xy -0.837116 -4.066508) (xy -0.847958 -4.253110) (xy -0.880266 -4.434636) (xy -0.933057 -4.606731) (xy -0.987116 -4.730219) (xy -1.033484 -4.816275) (xy -1.089577 -4.910574)
     (xy -1.151978 -5.008131) (xy -1.217269 -5.103962) (xy -1.282034 -5.193082) (xy -1.342854 -5.270507) (xy -1.396313 -5.331253) (xy -1.405863 -5.341004) (xy -1.457359 -5.408714) (xy -1.496414 -5.495255)
     (xy -1.510092 -5.542294) (xy -1.535887 -5.622265) (xy -1.570668 -5.682041) (xy -1.617804 -5.726200) (xy -1.665001 -5.752603) (xy -1.743806 -5.775452) (xy -1.822194 -5.773542) (xy -1.897190 -5.747383)
     (xy -1.961372 -5.701662) (xy -2.012068 -5.639364) (xy -2.039151 -5.569118) (xy -2.042113 -5.493528) (xy -2.020447 -5.415194) (xy -2.018233 -5.410200) (xy -1.981121 -5.345044) (xy -1.934664 -5.296892)
     (xy -1.874900 -5.263316) (xy -1.797867 -5.241887) (xy -1.728389 -5.232512) (xy -1.641414 -5.220388) (xy -1.574879 -5.200973) (xy -1.524312 -5.171936) (xy -1.485241 -5.130942) (xy -1.462198 -5.093621)
     (xy -1.431738 -5.028605) (xy -1.399180 -4.946269) (xy -1.367125 -4.854257) (xy -1.338179 -4.760209) (xy -1.314946 -4.671767) (xy -1.308349 -4.642135) (xy -1.280806 -4.472454) (xy -1.266126 -4.292655)
     (xy -1.264128 -4.109063) (xy -1.274634 -3.928004) (xy -1.297464 -3.755801) (xy -1.332440 -3.598779) (xy -1.338478 -3.577751) (xy -1.358344 -3.507263) (xy -1.376185 -3.435688) (xy -1.393073 -3.357861)
     (xy -1.410076 -3.268613) (xy -1.428268 -3.162780) (xy -1.441697 -3.079750) (xy -1.454308 -3.006419) (xy -1.467839 -2.938011) (xy -1.481029 -2.880245) (xy -1.492619 -2.838839) (xy -1.497748 -2.825338)
     (xy -1.516989 -2.778396) (xy -1.533548 -2.729178) (xy -1.535633 -2.721765) (xy -1.552012 -2.676226) (xy -1.576023 -2.643264) (xy -1.613163 -2.617989) (xy -1.668927 -2.595516) (xy -1.682750 -2.590943)
     (xy -1.778476 -2.556661) (xy -1.889327 -2.511445) (xy -2.009213 -2.458225) (xy -2.132045 -2.399930) (xy -2.251734 -2.339493) (xy -2.362189 -2.279843) (xy -2.457322 -2.223909) (xy -2.493143 -2.200976)
     (xy -2.578175 -2.138684) (xy -2.672254 -2.059398) (xy -2.770880 -1.967610) (xy -2.869555 -1.867811) (xy -2.963776 -1.764494) (xy -3.049045 -1.662150) (xy -3.099018 -1.596234) (xy -3.128458 -1.555959)
     (xy -3.156277 -1.518555) (xy -3.169631 -1.500984) (xy -3.199903 -1.457795) (xy -3.238186 -1.397115) (xy -3.281401 -1.324306) (xy -3.326469 -1.244728) (xy -3.370313 -1.163741) (xy -3.409852 -1.086706)
     (xy -3.422910 -1.059994) (xy -3.532384 -0.808995) (xy -3.628320 -0.540728) (xy -3.709231 -0.260287) (xy -3.773630 0.027236) (xy -3.815959 0.285750) (xy -3.837131 0.469654) (xy -3.853396 0.667597)
     (xy -3.864587 0.873304) (xy -3.870539 1.080503) (xy -3.871084 1.282919) (xy -3.866057 1.474279) (xy -3.855291 1.648309) (xy -3.852815 1.676400) (xy -3.845506 1.756907) (xy -3.838185 1.840232)
     (xy -3.831594 1.917758) (xy -3.826475 1.980866) (xy -3.825473 1.993900) (xy -3.822274 2.154625) (xy -3.838888 2.304174) (xy -3.876450 2.448582) (xy -3.936095 2.593887) (xy -3.939706 2.601343)
     (xy -3.970230 2.661469) (xy -3.998083 2.708717) (xy -4.028708 2.750520) (xy -4.067545 2.794312) (xy -4.119569 2.847065) (xy -4.168521 2.893369) (xy -4.216316 2.934950) (xy -4.257497 2.967277)
     (xy -4.286609 2.985821) (xy -4.286766 2.985895) (xy -4.318925 3.006744) (xy -4.363908 3.043683) (xy -4.418304 3.093266) (xy -4.478705 3.152049) (xy -4.541701 3.216584) (xy -4.603883 3.283427)
     (xy -4.661841 3.349132) (xy -4.712165 3.410253) (xy -4.731178 3.435030) (xy -4.851013 3.610572) (xy -4.946112 3.782817) (xy -5.016431 3.951592) (xy -5.061926 4.116720) (xy -5.082552 4.278027)
     (xy -5.203105 4.278027) (xy -5.203487 4.256972) (xy -5.202903 4.248150) (xy -5.193550 4.183409) (xy -5.175081 4.103198) (xy -5.149809 4.014727) (xy -5.120048 3.925209) (xy -5.088110 3.841854)
     (xy -5.056309 3.771876) (xy -5.041313 3.744377) (xy -5.011713 3.696231) (xy -4.971971 3.634240) (xy -4.925552 3.563550) (xy -4.875923 3.489310) (xy -4.826548 3.416667) (xy -4.780894 3.350769)
     (xy -4.742426 3.296763) (xy -4.717845 3.263900) (xy -4.657825 3.187791) (xy -4.609200 3.128202) (xy -4.568342 3.081171) (xy -4.531624 3.042738) (xy -4.495419 3.008939) (xy -4.456098 2.975815)
     (xy -4.448251 2.969491) (xy -4.400657 2.929433) (xy -4.342522 2.877628) (xy -4.280978 2.820572) (xy -4.223156 2.764762) (xy -4.219500 2.761138) (xy -4.163722 2.704544) (xy -4.122755 2.659462)
     (xy -4.092446 2.620507) (xy -4.068644 2.582292) (xy -4.047196 2.539433) (xy -4.045197 2.535072) (xy -4.012729 2.458729) (xy -3.987685 2.386350) (xy -3.969634 2.313796) (xy -3.958148 2.236928)
     (xy -3.952797 2.151608) (xy -3.953151 2.053695) (xy -3.958781 1.939051) (xy -3.969258 1.803537) (xy -3.969269 1.803400) (xy -3.979660 1.649035) (xy -3.986006 1.477182) (xy -3.988451 1.292982)
     (xy -3.987142 1.101576) (xy -3.982223 0.908106) (xy -3.973841 0.717712) (xy -3.962140 0.535535) (xy -3.947266 0.366718) (xy -3.929364 0.216400) (xy -3.923198 0.174198) (xy -3.867557 -0.118660)
     (xy -3.790683 -0.415949) (xy -3.694499 -0.711673) (xy -3.580933 -0.999836) (xy -3.468522 -1.241651) (xy -3.400013 -1.367009) (xy -3.316177 -1.502090) (xy -3.221459 -1.640675) (xy -3.120305 -1.776542)
     (xy -3.017160 -1.903474) (xy -2.916470 -2.015248) (xy -2.913060 -2.018794) (xy -2.749377 -2.173555) (xy -2.572826 -2.310988) (xy -2.381134 -2.432482) (xy -2.172024 -2.539428) (xy -1.943220 -2.633217)
     (xy -1.859214 -2.662803) (xy -1.788025 -2.687829) (xy -1.723460 -2.712236) (xy -1.670165 -2.734134) (xy -1.632789 -2.751634) (xy -1.617690 -2.761002) (xy -1.606304 -2.773213) (xy -1.596895 -2.790049)
     (xy -1.588498 -2.815377) (xy -1.580147 -2.853060) (xy -1.570878 -2.906963) (xy -1.559726 -2.980951) (xy -1.555544 -3.009900) (xy -1.543350 -3.090565) (xy -1.527558 -3.188609) (xy -1.509440 -3.296485)
     (xy -1.490272 -3.406642) (xy -1.471328 -3.511532) (xy -1.466246 -3.538888) (xy -1.440965 -3.678331) (xy -1.421206 -3.798366) (xy -1.406381 -3.904241) (xy -1.395906 -4.001203) (xy -1.389194 -4.094499)
     (xy -1.385659 -4.189377) (xy -1.384728 -4.268840) (xy -1.396050 -4.476977) (xy -1.431148 -4.676191) (xy -1.490020 -4.866470) (xy -1.564387 -5.032111) (xy -1.597152 -5.090710) (xy -1.625500 -5.128394)
     (xy -1.653809 -5.148075) (xy -1.686458 -5.152666) (xy -1.727823 -5.145080) (xy -1.732315 -5.143847) (xy -1.765544 -5.136236) (xy -1.795229 -5.135199) (xy -1.830586 -5.141450) (xy -1.879276 -5.155230)
     (xy -1.928523 -5.172129) (xy -1.967245 -5.191612) (xy -2.004372 -5.219247) (xy -2.048835 -5.260599) (xy -2.049710 -5.261458) (xy -2.094704 -5.309922) (xy -2.125764 -5.356203) (xy -2.145250 -5.406822)
     (xy -2.155520 -5.468299) (xy -2.158933 -5.547156) (xy -2.159000 -5.563648) (xy -2.148036 -5.657447) (xy -2.114435 -5.740687) (xy -2.057136 -5.815910) (xy -2.051149 -5.822005) (xy -1.992540 -5.863914)
     (xy -1.918553 -5.891496) (xy -1.834897 -5.904582) (xy -1.747281 -5.903007) (xy -1.661413 -5.886602) (xy -1.583001 -5.855200) (xy -1.552372 -5.836616) (xy -1.504642 -5.797228) (xy -1.468890 -5.750513)
     (xy -1.441800 -5.690683) (xy -1.420055 -5.611946) (xy -1.417800 -5.601663) (xy -1.407047 -5.556308) (xy -1.394561 -5.517525) (xy -1.377723 -5.481030) (xy -1.353917 -5.442540) (xy -1.320524 -5.397770)
     (xy -1.274925 -5.342435) (xy -1.221238 -5.280003) (xy -1.163993 -5.209602) (xy -1.100590 -5.124223) (xy -1.035971 -5.031142) (xy -0.975082 -4.937631) (xy -0.922868 -4.850964) (xy -0.895376 -4.800687)
     (xy -0.877844 -4.761301) (xy -0.855557 -4.703220) (xy -0.830418 -4.632263) (xy -0.804333 -4.554245) (xy -0.779207 -4.474983) (xy -0.756944 -4.400295) (xy -0.739449 -4.335998) (xy -0.730274 -4.296485)
     (xy -0.714874 -4.167659) (xy -0.717337 -4.023073) (xy -0.737585 -3.864951) (xy -0.746882 -3.816350) (xy -0.756769 -3.764405) (xy -0.769345 -3.692638) (xy -0.783734 -3.606375) (xy -0.799061 -3.510943)
     (xy -0.814448 -3.411669) (xy -0.825154 -3.340258) (xy -0.841365 -3.229436) (xy -0.853518 -3.141185) (xy -0.861332 -3.072955) (xy -0.864521 -3.022199) (xy -0.862803 -2.986370) (xy -0.855893 -2.962918)
     (xy -0.843509 -2.949297) (xy -0.825366 -2.942957) (xy -0.801181 -2.941351) (xy -0.780786 -2.941672) (xy -0.747523 -2.943042) (xy -0.694404 -2.945838) (xy -0.626913 -2.949746) (xy -0.550533 -2.954448)
     (xy -0.482600 -2.958842) (xy -0.393186 -2.963399) (xy -0.289431 -2.966431) (xy -0.176042 -2.967998) (xy -0.057726 -2.968157) (xy 0.060810 -2.966969) (xy 0.174859 -2.964492) (xy 0.279714 -2.960784)
     (xy 0.370669 -2.955905) (xy 0.443017 -2.949914) (xy 0.467679 -2.946949) (xy 0.540700 -2.941080) (xy 0.594011 -2.947350) (xy 0.630818 -2.966949) (xy 0.654329 -3.001065) (xy 0.660551 -3.018441)
     (xy 0.665133 -3.038235) (xy 0.666578 -3.060365) (xy 0.664265 -3.088884) (xy 0.657575 -3.127844) (xy 0.645885 -3.181298) (xy 0.628576 -3.253298) (xy 0.618086 -3.295650) (xy 0.568784 -3.518748)
     (xy 0.534618 -3.730423) (xy 0.515782 -3.928615) (xy 0.512465 -4.111264) (xy 0.524858 -4.276308) (xy 0.526195 -4.286250) (xy 0.549333 -4.432031) (xy 0.576179 -4.557076) (xy 0.608283 -4.665958)
     (xy 0.647192 -4.763248) (xy 0.694457 -4.853518) (xy 0.745004 -4.931944) (xy 0.780214 -4.980450) (xy 0.828212 -5.043861) (xy 0.885429 -5.117650) (xy 0.948297 -5.197289) (xy 1.013246 -5.278251)
     (xy 1.076710 -5.356008) (xy 1.125067 -5.414119) (xy 1.153623 -5.457384) (xy 1.175775 -5.507029) (xy 1.180204 -5.522069) (xy 1.204183 -5.603333) (xy 1.234524 -5.679632) (xy 1.267763 -5.742826)
     (xy 1.284312 -5.766868) (xy 1.321690 -5.802921) (xy 1.375400 -5.839741) (xy 1.437726 -5.873418) (xy 1.500947 -5.900037) (xy 1.557346 -5.915686) (xy 1.582863 -5.918200) (xy 1.666081 -5.910940) )(layer Eco2.User) (width  0.010000)
  )
  (fp_poly (pts (xy 4.960573 -3.065979) (xy 4.994905 -3.052446) (xy 5.034201 -3.028050) (xy 5.087510 -2.989002) (xy 5.150878 -2.938606) (xy 5.220353 -2.880164) (xy 5.291983 -2.816982) (xy 5.361815 -2.752362)
     (xy 5.410471 -2.705100) (xy 5.607030 -2.492112) (xy 5.782260 -2.265869) (xy 5.935696 -2.027188) (xy 6.066874 -1.776882) (xy 6.175327 -1.515767) (xy 6.260591 -1.244657) (xy 6.273703 -1.193800)
     (xy 6.298746 -1.089417) (xy 6.318290 -0.997156) (xy 6.332960 -0.911286) (xy 6.343382 -0.826078) (xy 6.350180 -0.735803) (xy 6.353978 -0.634730) (xy 6.355402 -0.517130) (xy 6.355403 -0.444500)
     (xy 6.354872 -0.340378) (xy 6.353734 -0.256675) (xy 6.351653 -0.188413) (xy 6.348296 -0.130614) (xy 6.343327 -0.078298) (xy 6.336411 -0.026486) (xy 6.327213 0.029799) (xy 6.321236 0.063500)
     (xy 6.257966 0.345207) (xy 6.171777 0.616163) (xy 6.062778 0.876094) (xy 5.931077 1.124730) (xy 5.836092 1.276055) (xy 5.760537 1.385987) (xy 5.688774 1.482771) (xy 5.615257 1.573133)
     (xy 5.534438 1.663800) (xy 5.440770 1.761496) (xy 5.410834 1.791679) (xy 5.265545 1.930412) (xy 5.121555 2.053032) (xy 4.970081 2.166738) (xy 4.869827 2.235078) (xy 4.786448 2.289028)
     (xy 4.720008 2.329361) (xy 4.667147 2.357729) (xy 4.624504 2.375785) (xy 4.588721 2.385181) (xy 4.559722 2.387600) (xy 4.525436 2.384323) (xy 4.496965 2.371276) (xy 4.464618 2.343634)
     (xy 4.457700 2.336800) (xy 4.426450 2.301875) (xy 4.411106 2.272539) (xy 4.406922 2.239590) (xy 4.406919 2.238375) (xy 4.410960 2.193235) (xy 4.425099 2.154419) (xy 4.452422 2.118149)
     (xy 4.496014 2.080648) (xy 4.558963 2.038141) (xy 4.582361 2.023679) (xy 4.801709 1.876804) (xy 5.009635 1.711129) (xy 5.202924 1.529695) (xy 5.378361 1.335545) (xy 5.532732 1.131720)
     (xy 5.546666 1.111250) (xy 5.686656 0.881031) (xy 5.803666 0.640191) (xy 5.897414 0.389503) (xy 5.967620 0.129741) (xy 6.014004 -0.138322) (xy 6.020826 -0.196850) (xy 6.027441 -0.290252)
     (xy 6.029891 -0.400799) (xy 6.028410 -0.520622) (xy 6.023231 -0.641851) (xy 6.014587 -0.756614) (xy 6.002713 -0.857042) (xy 6.000879 -0.869052) (xy 5.947179 -1.128464) (xy 5.869132 -1.382033)
     (xy 5.767427 -1.628219) (xy 5.642750 -1.865480) (xy 5.495788 -2.092274) (xy 5.397758 -2.221987) (xy 5.346174 -2.282618) (xy 5.279922 -2.354581) (xy 5.203904 -2.433017) (xy 5.123025 -2.513068)
     (xy 5.042187 -2.589878) (xy 4.966293 -2.658586) (xy 4.903385 -2.711814) (xy 4.844620 -2.760846) (xy 4.803866 -2.799860) (xy 4.778101 -2.833083) (xy 4.764303 -2.864738) (xy 4.759452 -2.899051)
     (xy 4.759320 -2.913286) (xy 4.771276 -2.974305) (xy 4.802035 -3.022834) (xy 4.846941 -3.056123) (xy 4.901339 -3.071421) (xy 4.960573 -3.065979) )(layer Eco2.User) (width  0.010000)
  )
  (fp_poly (pts (xy 4.274878 -2.354826) (xy 4.309105 -2.341416) (xy 4.360189 -2.309415) (xy 4.423190 -2.260673) (xy 4.494613 -2.198643) (xy 4.570968 -2.126777) (xy 4.648760 -2.048527) (xy 4.724498 -1.967344)
     (xy 4.794688 -1.886681) (xy 4.855838 -1.809990) (xy 4.879472 -1.777700) (xy 4.959162 -1.655281) (xy 5.036336 -1.518402) (xy 5.105252 -1.377797) (xy 5.149358 -1.273025) (xy 5.219796 -1.055905)
     (xy 5.267009 -0.831313) (xy 5.290951 -0.602175) (xy 5.291571 -0.371415) (xy 5.268823 -0.141959) (xy 5.222656 0.083269) (xy 5.174539 0.242182) (xy 5.086577 0.457880) (xy 4.975784 0.665124)
     (xy 4.843946 0.861731) (xy 4.692846 1.045516) (xy 4.524268 1.214296) (xy 4.339996 1.365888) (xy 4.154872 1.490274) (xy 4.087965 1.527750) (xy 4.034744 1.549562) (xy 3.989807 1.556796)
     (xy 3.947750 1.550542) (xy 3.916328 1.538351) (xy 3.879953 1.516796) (xy 3.856375 1.488047) (xy 3.841021 1.454009) (xy 3.827841 1.414929) (xy 3.824957 1.386137) (xy 3.831834 1.354949)
     (xy 3.836293 1.341568) (xy 3.850609 1.310059) (xy 3.872639 1.283257) (xy 3.908254 1.254993) (xy 3.937000 1.235790) (xy 4.069900 1.147096) (xy 4.183578 1.064395) (xy 4.282352 0.984141)
     (xy 4.370541 0.902788) (xy 4.452461 0.816787) (xy 4.466818 0.800604) (xy 4.606064 0.623506) (xy 4.724238 0.433929) (xy 4.820315 0.233956) (xy 4.893272 0.025670) (xy 4.935762 -0.153246)
     (xy 4.949397 -0.252750) (xy 4.957105 -0.368443) (xy 4.958967 -0.492252) (xy 4.955063 -0.616098) (xy 4.945475 -0.731908) (xy 4.930281 -0.831606) (xy 4.928920 -0.838200) (xy 4.870672 -1.056356)
     (xy 4.790368 -1.262633) (xy 4.687707 -1.457522) (xy 4.562387 -1.641512) (xy 4.414107 -1.815090) (xy 4.242566 -1.978747) (xy 4.207071 -2.008968) (xy 4.152066 -2.056247) (xy 4.114339 -2.092938)
     (xy 4.090786 -2.123611) (xy 4.078304 -2.152835) (xy 4.073790 -2.185180) (xy 4.073572 -2.205543) (xy 4.085532 -2.265425) (xy 4.116323 -2.312994) (xy 4.161264 -2.345550) (xy 4.215676 -2.360394)
     (xy 4.274878 -2.354826) )(layer Eco2.User) (width  0.010000)
  )
  (fp_poly (pts (xy 0.741676 -2.081029) (xy 0.914526 -2.055857) (xy 1.085208 -2.015666) (xy 1.248055 -1.961716) (xy 1.397400 -1.895267) (xy 1.492250 -1.841117) (xy 1.531572 -1.817070) (xy 1.568450 -1.795774)
     (xy 1.609209 -1.768667) (xy 1.662692 -1.726351) (xy 1.724667 -1.672528) (xy 1.790904 -1.610901) (xy 1.857172 -1.545174) (xy 1.870375 -1.531530) (xy 1.952373 -1.434537) (xy 2.032966 -1.316858)
     (xy 2.109266 -1.183166) (xy 2.178386 -1.038130) (xy 2.185145 -1.022350) (xy 2.240159 -0.862878) (xy 2.276679 -0.690306) (xy 2.294328 -0.509339) (xy 2.292730 -0.324677) (xy 2.271507 -0.141026)
     (xy 2.260366 -0.082550) (xy 2.205720 0.118559) (xy 2.127464 0.312579) (xy 2.025087 0.500615) (xy 1.911346 0.666372) (xy 1.888672 0.693314) (xy 1.852105 0.733279) (xy 1.806013 0.781633)
     (xy 1.754765 0.833747) (xy 1.733550 0.854856) (xy 1.666453 0.919258) (xy 1.607772 0.970430) (xy 1.549568 1.014575) (xy 1.483900 1.057896) (xy 1.437571 1.086100) (xy 1.277142 1.175286)
     (xy 1.124827 1.245790) (xy 0.974463 1.299938) (xy 0.819886 1.340058) (xy 0.711200 1.360199) (xy 0.629280 1.369667) (xy 0.531614 1.375418) (xy 0.427341 1.377360) (xy 0.325599 1.375402)
     (xy 0.235525 1.369453) (xy 0.200119 1.365294) (xy 0.029636 1.334417) (xy -0.130396 1.290093) (xy -0.286534 1.229955) (xy -0.445337 1.151635) (xy -0.538146 1.098790) (xy -0.569756 1.078665)
     (xy -0.591358 1.062440) (xy -0.595296 1.058365) (xy -0.610914 1.044111) (xy -0.637411 1.025433) (xy -0.637725 1.025233) (xy -0.676901 0.996268) (xy -0.726312 0.953922) (xy -0.780643 0.903404)
     (xy -0.834579 0.849925) (xy -0.882805 0.798695) (xy -0.920008 0.754923) (xy -0.935548 0.733277) (xy -0.959467 0.697187) (xy -0.991653 0.650917) (xy -1.024649 0.605156) (xy -1.060010 0.555424)
     (xy -1.088475 0.510245) (xy -1.113062 0.463470) (xy -1.136787 0.408954) (xy -1.162668 0.340549) (xy -1.183654 0.281192) (xy -1.219092 0.171847) (xy -1.244613 0.073159) (xy -1.262044 -0.024501)
     (xy -1.273211 -0.130766) (xy -1.278421 -0.218521) (xy -1.276714 -0.356241) (xy -1.200473 -0.356241) (xy -1.198515 -0.204201) (xy -1.182996 -0.038834) (xy -1.168707 0.060285) (xy -1.146464 0.153387)
     (xy -1.108822 0.258675) (xy -1.058688 0.370721) (xy -0.998964 0.484099) (xy -0.932555 0.593382) (xy -0.862365 0.693144) (xy -0.791300 0.777956) (xy -0.776153 0.793750) (xy -0.720190 0.850073)
     (xy -0.676537 0.892517) (xy -0.639958 0.925567) (xy -0.605216 0.953709) (xy -0.567074 0.981428) (xy -0.520296 1.013211) (xy -0.518801 1.014209) (xy -0.345905 1.115687) (xy -0.164323 1.195658)
     (xy 0.022222 1.252636) (xy 0.136194 1.275361) (xy 0.232688 1.289929) (xy 0.311452 1.299377) (xy 0.379635 1.303718) (xy 0.444382 1.302964) (xy 0.512843 1.297127) (xy 0.592164 1.286219)
     (xy 0.654050 1.276229) (xy 0.792184 1.250891) (xy 0.911538 1.223301) (xy 1.018728 1.191163) (xy 1.120374 1.152180) (xy 1.223094 1.104055) (xy 1.333507 1.044492) (xy 1.351475 1.034238)
     (xy 1.499135 0.936937) (xy 1.641749 0.818667) (xy 1.774648 0.683854) (xy 1.893160 0.536925) (xy 1.926692 0.488950) (xy 2.017335 0.334910) (xy 2.092543 0.166867) (xy 2.150571 -0.009527)
     (xy 2.189676 -0.188617) (xy 2.208111 -0.364749) (xy 2.209349 -0.427080) (xy 2.201992 -0.557033) (xy 2.182225 -0.694644) (xy 2.151834 -0.832001) (xy 2.112603 -0.961193) (xy 2.066318 -1.074310)
     (xy 2.060664 -1.085850) (xy 2.007939 -1.187576) (xy 1.959260 -1.271756) (xy 1.910021 -1.344729) (xy 1.855617 -1.412831) (xy 1.791440 -1.482398) (xy 1.723800 -1.549308) (xy 1.665326 -1.604545)
     (xy 1.617182 -1.647019) (xy 1.572184 -1.682364) (xy 1.523144 -1.716209) (xy 1.462877 -1.754187) (xy 1.460500 -1.755645) (xy 1.281967 -1.850826) (xy 1.092980 -1.924631) (xy 0.897250 -1.975996)
     (xy 0.698494 -2.003860) (xy 0.575314 -2.008867) (xy 0.473602 -2.007213) (xy 0.383834 -2.001083) (xy 0.297759 -1.989255) (xy 0.207127 -1.970508) (xy 0.103689 -1.943622) (xy 0.069850 -1.934052)
     (xy -0.096189 -1.878929) (xy -0.246067 -1.812244) (xy -0.387902 -1.729909) (xy -0.514350 -1.639843) (xy -0.560401 -1.601696) (xy -0.615138 -1.552209) (xy -0.673997 -1.495961) (xy -0.732411 -1.437532)
     (xy -0.785813 -1.381499) (xy -0.829638 -1.332442) (xy -0.859318 -1.294938) (xy -0.861481 -1.291777) (xy -0.890913 -1.247680) (xy -0.922287 -1.200461) (xy -0.929924 -1.188927) (xy -0.963671 -1.132699)
     (xy -1.002112 -1.060441) (xy -1.041467 -0.980068) (xy -1.077956 -0.899494) (xy -1.107799 -0.826634) (xy -1.121982 -0.786733) (xy -1.162506 -0.642074) (xy -1.188570 -0.500388) (xy -1.200473 -0.356241)
     (xy -1.276714 -0.356241) (xy -1.275987 -0.414796) (xy -1.250290 -0.607455) (xy -1.200917 -0.797833) (xy -1.127452 -0.987266) (xy -1.029483 -1.177089) (xy -0.934119 -1.328746) (xy -0.914499 -1.356252)
     (xy -0.891873 -1.384405) (xy -0.862576 -1.417288) (xy -0.822945 -1.458989) (xy -0.769314 -1.513592) (xy -0.758989 -1.524000) (xy -0.672638 -1.608409) (xy -0.596686 -1.676585) (xy -0.526191 -1.732539)
     (xy -0.456211 -1.780282) (xy -0.406400 -1.810101) (xy -0.340327 -1.846245) (xy -0.267343 -1.883649) (xy -0.192210 -1.920131) (xy -0.119685 -1.953511) (xy -0.054528 -1.981607) (xy -0.001497 -2.002236)
     (xy 0.034647 -2.013218) (xy 0.038100 -2.013863) (xy 0.074087 -2.021310) (xy 0.122766 -2.033363) (xy 0.165228 -2.045040) (xy 0.211380 -2.057290) (xy 0.250685 -2.065763) (xy 0.273178 -2.068532)
     (xy 0.296804 -2.069752) (xy 0.338230 -2.073392) (xy 0.390045 -2.078774) (xy 0.412141 -2.081276) (xy 0.572325 -2.089922) (xy 0.741676 -2.081029) )(layer Eco2.User) (width  0.010000)
  )
  (fp_poly (pts (xy 1.357189 -0.719085) (xy 1.419710 -0.697788) (xy 1.475175 -0.659019) (xy 1.517746 -0.606529) (xy 1.537072 -0.562567) (xy 1.546032 -0.491686) (xy 1.531594 -0.424321) (xy 1.495741 -0.364895)
     (xy 1.440460 -0.317829) (xy 1.422781 -0.307975) (xy 1.360146 -0.284648) (xy 1.301853 -0.282923) (xy 1.239230 -0.302592) (xy 1.237251 -0.303484) (xy 1.177504 -0.342422) (xy 1.136686 -0.393324)
     (xy 1.114218 -0.451893) (xy 1.109518 -0.513832) (xy 1.122005 -0.574841) (xy 1.151098 -0.630623) (xy 1.196216 -0.676881) (xy 1.256777 -0.709317) (xy 1.293450 -0.719157) (xy 1.357189 -0.719085) )(layer Eco2.User) (width  0.010000)
  )
)
