M48
; DRILL file {KiCad 5.1.5-52549c5~84~ubuntu18.04.1} date Чт 04 июн 2020 21:54:45
; FORMAT={-:-/ absolute / inch / decimal}
; #@! TF.CreationDate,2020-06-04T21:54:45+03:00
; #@! TF.GenerationSoftware,Kicad,Pcbnew,5.1.5-52549c5~84~ubuntu18.04.1
; #@! TF.FileFunction,Plated,1,2,PTH
FMAT,2
INCH
T1C0.0157
T2C0.0236
T3C0.0315
T4C0.0394
T5C0.0472
T6C0.0512
T7C0.0551
%
G90
G05
T1
X2.25Y-2.825
X2.255Y-2.435
X2.55Y-3.2
X2.55Y-3.475
X2.6Y-2.54
X2.62Y-1.7
X2.73Y-2.635
X2.745Y-2.26
X2.745Y-2.33
X2.745Y-2.4
X2.76Y-2.295
X2.76Y-2.365
X2.79Y-1.62
X2.8005Y-2.7655
X2.81Y-2.595
X2.83Y-2.565
X2.845Y-1.56
X2.91Y-2.575
X2.94Y-2.61
X3.075Y-2.505
X3.08Y-2.6
X3.08Y-2.66
X3.125Y-3.2
X3.125Y-3.475
X3.155Y-2.515
X3.205Y-2.585
X3.23Y-3.57
X3.27Y-2.645
X3.3Y-2.675
X3.325Y-2.705
X3.35Y-2.73
X3.45Y-2.685
X3.77Y-3.13
X3.77Y-3.21
X3.77Y-3.29
X3.81Y-3.0906
X3.81Y-3.17
X3.81Y-3.25
X3.82Y-3.33
X3.86Y-3.37
X4.04Y-2.03
X4.25Y-3.09
X4.29Y-3.13
X4.33Y-3.17
X4.37Y-3.21
X4.41Y-3.25
X4.46Y-3.29
X4.52Y-3.33
X4.56Y-3.37
X4.59Y-4.15
X4.71Y-3.57
X4.81Y-4.3
X4.82Y-4.15
X4.93Y-3.45
X5.04Y-3.53
X5.26Y-3.53
X5.48Y-3.53
X5.7Y-3.53
X5.8Y-3.21
X5.88Y-2.72
T2
X2.21Y-4.305
X2.53Y-2.66
X2.54Y-1.755
X2.575Y-2.415
X2.595Y-1.755
X2.77Y-2.435
X2.78Y-3.345
X2.88Y-3.35
X2.925Y-1.84
X2.94Y-2.93
X3.21Y-2.005
X3.75Y-1.75
X3.83Y-1.75
X4.02Y-3.47
X4.405Y-2.49
X4.73Y-3.45
X4.845Y-2.49
X4.93Y-1.745
X5.01Y-1.745
X5.19Y-3.71
X5.285Y-2.49
X5.41Y-3.71
X5.63Y-3.71
X5.725Y-2.49
X5.85Y-3.71
T3
X2.45Y-2.52
X2.45Y-2.72
X4.05Y-1.52
X4.05Y-1.72
X2.6416Y-2.07
X2.74Y-2.07
T4
X3.06Y-2.36
X3.16Y-2.36
X3.26Y-2.36
X3.36Y-2.36
X2.13Y-1.54
X2.13Y-1.64
X2.13Y-1.74
X2.13Y-1.84
X2.36Y-4.37
X2.36Y-4.47
X2.46Y-4.37
X2.46Y-4.47
X2.56Y-4.37
X2.56Y-4.47
X2.66Y-4.37
X2.66Y-4.47
X2.76Y-4.37
X2.76Y-4.47
X2.86Y-4.37
X2.86Y-4.47
X2.96Y-4.37
X2.96Y-4.47
X2.13Y-1.98
X2.13Y-2.08
X2.13Y-2.18
X2.13Y-2.28
T5
X3.29Y-1.59
X3.4278Y-1.59
X2.1354Y-4.0
X2.2732Y-4.0
X2.411Y-4.0
X2.5488Y-4.0
X2.6866Y-4.0
X2.8244Y-4.0
X2.9622Y-4.0
X3.1Y-4.0
X3.3054Y-4.41
X3.4432Y-4.41
X3.581Y-4.41
X3.7188Y-4.41
X3.8566Y-4.41
X3.9944Y-4.41
X4.1322Y-4.41
X4.27Y-4.41
T6
X4.71Y-2.98
X4.91Y-2.98
X5.58Y-4.34
X5.78Y-4.34
X5.14Y-4.34
X5.34Y-4.34
X4.275Y-2.975
X4.475Y-2.975
X5.15Y-2.98
X5.35Y-2.98
X5.59Y-2.98
X5.79Y-2.98
T7
X4.33Y-1.68
X4.6253Y-1.68
T0
M30
